# MTL Exporter v1.0 by Seungwoo Oh at CLO - Virtual Fashion Inc.
newmtl Material3758
Ka 0.148229 0.000000 0.000000
Kd 0.576471 0.000000 0.000000
Ks 0.075000 0.075000 0.075000
Ns 28.763239
illum 2
d 1.000000
newmtl Material3754
Ka 0.148229 0.000000 0.000000
Kd 0.576471 0.000000 0.000000
Ks 0.075000 0.075000 0.075000
Ns 28.763239
illum 2
d 1.000000
newmtl Material3608
Ka 0.257132 0.257132 0.257132
Kd 1.000000 1.000000 1.000000
Ks 0.075000 0.075000 0.075000
Ns 28.763239
illum 2
d 1.000000
newmtl Material3750
Ka 0.098819 0.000000 0.100836
Kd 0.384314 0.000000 0.392157
Ks 0.075000 0.075000 0.075000
Ns 28.763239
illum 2
d 1.000000
newmtl Material3766
Ka 0.257132 0.206883 0.126045
Kd 1.000000 0.804578 0.490196
Ks 0.045278 0.045278 0.045278
Ns 9.999998
illum 2
d 1.000000
