//Maya ASCII 2018 scene
//Name: bag_of_money1.ma
//Last modified: Sun, Oct 21, 2018 09:40:02 PM
//Codeset: UTF-8
requires maya "2018";
requires -nodeType "rmanDisplayChannel" -nodeType "d_openexr" -nodeType "rmanGlobals"
		 -nodeType "PxrPathTracer" -nodeType "rmanDisplay" "RenderMan_for_Maya.py" "1.0";
requires -nodeType "polyPlatonic" "modelingToolkit" "0.0.0.0";
currentUnit -l centimeter -a degree -t film;
fileInfo "application" "maya";
fileInfo "product" "Maya 2018";
fileInfo "version" "2018";
fileInfo "cutIdentifier" "201706261615-f9658c4cfc";
fileInfo "osv" "Mac OS X 10.13.6";
fileInfo "license" "student";
createNode transform -s -n "persp";
	rename -uid "9E1C16F3-2C43-514F-E7C1-828DC659BC51";
	setAttr ".v" no;
	setAttr ".r" -type "double3" -37.538352729606181 44.200000000002142 -4.4364731774400749e-15 ;
createNode camera -s -n "perspShape" -p "persp";
	rename -uid "E5A0EFE6-5C42-9B3D-E1CC-50B77DC14043";
	setAttr -k off ".v" no;
	setAttr ".rnd" no;
	setAttr ".fl" 34.999999999999986;
	setAttr ".imn" -type "string" "persp";
	setAttr ".den" -type "string" "persp_depth";
	setAttr ".man" -type "string" "persp_mask";
	setAttr ".tp" -type "double3" -2.9802322387695312e-08 0 0 ;
	setAttr ".hc" -type "string" "viewSet -p %camera";
	setAttr ".ai_translator" -type "string" "perspective";
createNode transform -s -n "top";
	rename -uid "ABFB98E7-744F-0DB1-BB58-54A8ABEEDD6E";
	setAttr ".v" no;
	setAttr ".t" -type "double3" 0 1000.1 0 ;
	setAttr ".r" -type "double3" -89.999999999999986 0 0 ;
createNode camera -s -n "topShape" -p "top";
	rename -uid "451F40F2-DD47-7BA4-BE42-25A902605FBE";
	setAttr -k off ".v" no;
	setAttr ".rnd" no;
	setAttr ".coi" 1000.1;
	setAttr ".ow" 4.4047665946040038;
	setAttr ".imn" -type "string" "top";
	setAttr ".den" -type "string" "top_depth";
	setAttr ".man" -type "string" "top_mask";
	setAttr ".hc" -type "string" "viewSet -t %camera";
	setAttr ".o" yes;
	setAttr ".ai_translator" -type "string" "orthographic";
createNode transform -s -n "front";
	rename -uid "6C238620-4A4B-802E-503F-36B62A2EF7AF";
	setAttr ".v" no;
	setAttr ".t" -type "double3" 0 0 1000.1 ;
createNode camera -s -n "frontShape" -p "front";
	rename -uid "B21B5D64-4542-967B-2D13-A1A5ADCF4ABD";
	setAttr -k off ".v" no;
	setAttr ".rnd" no;
	setAttr ".coi" 1000.1;
	setAttr ".ow" 30;
	setAttr ".imn" -type "string" "front";
	setAttr ".den" -type "string" "front_depth";
	setAttr ".man" -type "string" "front_mask";
	setAttr ".hc" -type "string" "viewSet -f %camera";
	setAttr ".o" yes;
	setAttr ".ai_translator" -type "string" "orthographic";
createNode transform -s -n "side";
	rename -uid "40F68CAA-C741-8475-DF7B-F8B02F0FC594";
	setAttr ".v" no;
	setAttr ".t" -type "double3" 1000.1 0 0 ;
	setAttr ".r" -type "double3" 0 89.999999999999986 0 ;
createNode camera -s -n "sideShape" -p "side";
	rename -uid "2122D98B-FC47-B8A1-5A3C-E2A1792593BB";
	setAttr -k off ".v" no;
	setAttr ".rnd" no;
	setAttr ".coi" 1000.1;
	setAttr ".ow" 30;
	setAttr ".imn" -type "string" "side";
	setAttr ".den" -type "string" "side_depth";
	setAttr ".man" -type "string" "side_mask";
	setAttr ".hc" -type "string" "viewSet -s %camera";
	setAttr ".o" yes;
	setAttr ".ai_translator" -type "string" "orthographic";
createNode nucleus -n "nucleus1";
	rename -uid "9E90A569-4B44-F44A-B3BA-AAA67376931F";
	setAttr -s 2 ".niao";
	setAttr -s 2 ".nias";
	setAttr -s 2 ".noao";
	setAttr ".nupl" yes;
createNode transform -n "persp1";
	rename -uid "E4698AEB-3343-E56C-07E0-EE8B0CA4436B";
	setAttr ".t" -type "double3" -2.3617067256900706 3.7687962114154083 -9.9361881782970407 ;
	setAttr ".r" -type "double3" -5.7383527309207745 1992.5999999986282 0 ;
createNode camera -n "perspShape2" -p "persp1";
	rename -uid "4CA21CF2-CA41-44F5-B3C3-13AE2978DCF1";
	setAttr -k off ".v";
	setAttr ".fl" 34.999999999999986;
	setAttr ".coi" 10.446609334353669;
	setAttr ".imn" -type "string" "persp1";
	setAttr ".den" -type "string" "persp1_depth";
	setAttr ".man" -type "string" "persp1_mask";
	setAttr ".hc" -type "string" "viewSet -p %camera";
	setAttr ".ai_translator" -type "string" "perspective";
createNode transform -n "marbles";
	rename -uid "65930C8B-AD42-F178-429C-51B9D1A5839A";
	setAttr ".t" -type "double3" 0 2.8051189898806181 0 ;
createNode mesh -n "marblesShape" -p "marbles";
	rename -uid "FA3664ED-384D-AB1C-0A92-FDA453D23D7B";
	setAttr -k off ".v";
	setAttr ".io" yes;
	setAttr ".vir" yes;
	setAttr ".vif" yes;
	setAttr ".uvst[0].uvsn" -type "string" "map1";
	setAttr ".cuvs" -type "string" "map1";
	setAttr ".dcc" -type "string" "Ambient+Diffuse";
	setAttr ".covm[0]"  0 1 1;
	setAttr ".cdvm[0]"  0 1 1;
	setAttr ".ai_translator" -type "string" "polymesh";
createNode mesh -n "outputCloth3" -p "marbles";
	rename -uid "1D9EBC76-E646-D376-0F35-26BEFC8CAB16";
	setAttr -k off ".v";
	setAttr ".vir" yes;
	setAttr ".vif" yes;
	setAttr ".uvst[0].uvsn" -type "string" "map1";
	setAttr ".cuvs" -type "string" "map1";
	setAttr ".dcc" -type "string" "Ambient+Diffuse";
	setAttr ".covm[0]"  0 1 1;
	setAttr ".cdvm[0]"  0 1 1;
	setAttr ".qsp" 0;
	setAttr ".ai_translator" -type "string" "polymesh";
createNode transform -n "marbles_nCloth3";
	rename -uid "495BABF2-D34A-7DB2-F9BD-DE8451884F4E";
	setAttr -l on ".t";
	setAttr -l on ".r";
	setAttr -l on ".s";
createNode nCloth -n "marbles_nClothShape3" -p "marbles_nCloth3";
	rename -uid "ED9D02D6-374E-8D07-DF1E-C08DA0532200";
	addAttr -ci true -sn "lifespan" -ln "lifespan" -at "double";
	addAttr -s false -ci true -sn "lifespanPP" -ln "lifespanPP" -dt "doubleArray";
	addAttr -ci true -h true -sn "lifespanPP0" -ln "lifespanPP0" -dt "doubleArray";
	setAttr -k off ".v";
	setAttr ".gf" -type "Int32Array" 0 ;
	setAttr ".pos0" -type "vectorArray" 0 ;
	setAttr ".vel0" -type "vectorArray" 0 ;
	setAttr ".acc0" -type "vectorArray" 0 ;
	setAttr ".mas0" -type "doubleArray" 0 ;
	setAttr ".id0" -type "doubleArray" 0 ;
	setAttr ".nid" 152;
	setAttr ".bt0" -type "doubleArray" 0 ;
	setAttr ".ag0" -type "doubleArray" 0 ;
	setAttr -k off ".dve";
	setAttr -k off ".lfm";
	setAttr -k off ".lfr";
	setAttr -k off ".ead";
	setAttr ".irbx" -type "string" "";
	setAttr ".irax" -type "string" "";
	setAttr ".icx" -type "string" "";
	setAttr -k off ".dw";
	setAttr -k off ".fiw";
	setAttr -k off ".con";
	setAttr -k off ".eiw";
	setAttr -k off ".mxc";
	setAttr -k off ".lod";
	setAttr -k off ".inh";
	setAttr ".cts" 1;
	setAttr -k off ".stf";
	setAttr -k off ".igs";
	setAttr -k off ".ecfh";
	setAttr -k off ".tgs";
	setAttr -k off ".gsm";
	setAttr -k off ".chd";
	setAttr ".chw" 150;
	setAttr -k off ".trd";
	setAttr -k off ".prt";
	setAttr ".thss" 0.25;
	setAttr ".cofl" 1;
	setAttr ".por" 0.04898979514837265;
	setAttr -s 2 ".fsc[0:1]"  0 1 1 1 0 1;
	setAttr -s 2 ".pfdo[0:1]"  0 1 1 1 0 1;
	setAttr ".lsou" yes;
	setAttr ".stch" 0;
	setAttr ".comr" 0;
	setAttr ".bnd" 0;
	setAttr ".lft" 0;
	setAttr ".tdrg" 1;
	setAttr ".svds" 1;
	setAttr -k on ".lifespan" 1;
	setAttr ".lifespanPP0" -type "doubleArray" 0 ;
createNode transform -n "bag";
	rename -uid "FDCF371C-7A49-6DC1-1F92-4C9DE1970569";
createNode mesh -n "bagShape" -p "bag";
	rename -uid "DF30BD0F-9149-55DD-3F29-CFBE528EC355";
	setAttr -k off ".v";
	setAttr ".io" yes;
	setAttr ".vir" yes;
	setAttr ".vif" yes;
	setAttr ".uvst[0].uvsn" -type "string" "map1";
	setAttr ".cuvs" -type "string" "map1";
	setAttr ".dcc" -type "string" "Ambient+Diffuse";
	setAttr ".covm[0]"  0 1 1;
	setAttr ".cdvm[0]"  0 1 1;
	setAttr ".ai_translator" -type "string" "polymesh";
createNode mesh -n "outputCloth4" -p "bag";
	rename -uid "A7A38DA3-B34A-E96E-9611-C8A058A8D04B";
	setAttr -k off ".v";
	setAttr ".vir" yes;
	setAttr ".vif" yes;
	setAttr ".pv" -type "double2" 0.72792328894138336 0.95943453907966614 ;
	setAttr ".uvst[0].uvsn" -type "string" "map1";
	setAttr ".cuvs" -type "string" "map1";
	setAttr ".dcc" -type "string" "Ambient+Diffuse";
	setAttr ".covm[0]"  0 1 1;
	setAttr ".cdvm[0]"  0 1 1;
	setAttr ".qsp" 0;
	setAttr ".ai_translator" -type "string" "polymesh";
createNode transform -n "bag_ncloth";
	rename -uid "9DCD2568-0F45-A1DC-1983-8781DDEFA31C";
	setAttr -l on ".t";
	setAttr -l on ".r";
	setAttr -l on ".s";
createNode nCloth -n "bag_nclothShape" -p "bag_ncloth";
	rename -uid "4EA8EDE1-504D-6FB6-28DB-98862D4F99CE";
	setAttr -k off ".v";
	setAttr ".gf" -type "Int32Array" 0 ;
	setAttr ".pos0" -type "vectorArray" 0 ;
	setAttr ".vel0" -type "vectorArray" 0 ;
	setAttr ".acc0" -type "vectorArray" 0 ;
	setAttr ".mas0" -type "doubleArray" 0 ;
	setAttr ".id0" -type "doubleArray" 0 ;
	setAttr ".nid" 7262;
	setAttr ".bt0" -type "doubleArray" 0 ;
	setAttr ".ag0" -type "doubleArray" 0 ;
	setAttr -k off ".dve";
	setAttr -k off ".lfm";
	setAttr -k off ".lfr";
	setAttr -k off ".ead";
	setAttr ".irbx" -type "string" "";
	setAttr ".irax" -type "string" "";
	setAttr ".icx" -type "string" "";
	setAttr -k off ".dw";
	setAttr -k off ".fiw";
	setAttr -k off ".con";
	setAttr -k off ".eiw";
	setAttr -k off ".mxc";
	setAttr -k off ".lod";
	setAttr -k off ".inh";
	setAttr ".cts" 1;
	setAttr -k off ".stf";
	setAttr -k off ".igs";
	setAttr -k off ".ecfh";
	setAttr -k off ".tgs";
	setAttr -k off ".gsm";
	setAttr -k off ".chd";
	setAttr ".chw" 150;
	setAttr -k off ".trd";
	setAttr -k off ".prt";
	setAttr ".thss" 0.13414634764194489;
	setAttr ".por" 0.034293074160814285;
	setAttr -s 2 ".fsc[0:1]"  0 1 1 1 0 1;
	setAttr -s 2 ".pfdo[0:1]"  0 1 1 1 0 1;
	setAttr ".lsou" yes;
	setAttr ".stch" 50;
	setAttr ".scws" 3;
createNode transform -n "dynamicConstraint1";
	rename -uid "67409CE9-A245-2F1C-23D5-32B703DD3649";
	setAttr ".t" -type "double3" 0.021521139750298901 3.1567800707459641 -0.093898226634892695 ;
createNode dynamicConstraint -n "dynamicConstraintShape1" -p "dynamicConstraint1";
	rename -uid "195F811B-BC45-6466-9545-7C96B2849A56";
	setAttr -k off ".v";
	setAttr ".crr" 0;
	setAttr ".cdnr[0]"  0 1 1;
	setAttr ".sdp[0]"  0 1 1;
createNode lightLinker -s -n "lightLinker1";
	rename -uid "71B4AD5F-B748-CC93-C2B6-9EACC366FF17";
	setAttr -s 2 ".lnk";
	setAttr -s 2 ".slnk";
createNode displayLayerManager -n "layerManager";
	rename -uid "9E60E883-E043-8B22-5B03-BB89A56B772E";
createNode displayLayer -n "defaultLayer";
	rename -uid "C6380848-AE46-BA57-BA24-E7A4A8D0E14C";
createNode renderLayerManager -n "renderLayerManager";
	rename -uid "30DA706A-334E-E043-3CCC-F1B2D8521D2E";
createNode renderLayer -n "defaultRenderLayer";
	rename -uid "6B85BEFC-9D4D-64FE-812E-F7AB6E605D09";
	setAttr ".g" yes;
createNode shapeEditorManager -n "shapeEditorManager";
	rename -uid "7EFFFECE-2943-7EF0-E1C2-C9A57B1E2A80";
createNode poseInterpolatorManager -n "poseInterpolatorManager";
	rename -uid "EA9DCF39-7346-9096-48D7-C996801729E2";
createNode rmanGlobals -s -n "rmanGlobals";
	rename -uid "C616B7DD-4145-F376-FE3E-3F888A752C0C";
	setAttr ".cch" no;
	setAttr ".fzn" no;
	setAttr ".ihi" 2;
	setAttr ".nds" 0;
	setAttr ".hider_minSamples" 0;
	setAttr ".hider_maxSamples" 128;
	setAttr ".ri_pixelVariance" 0.0099999997764825821;
	setAttr ".hider_darkfalloff" 0.02500000037252903;
	setAttr ".hider_incremental" yes;
	setAttr ".ipr_hider_maxSamples" 64;
	setAttr ".ipr_ri_pixelVariance" 0.05000000074505806;
	setAttr ".ri_maxSpecularDepth" 4;
	setAttr ".ri_maxDiffuseDepth" 1;
	setAttr ".ri_displayFilter" -type "string" "gaussian";
	setAttr ".ri_displayFilterSize" -type "float2" 2 2 ;
	setAttr ".motionBlur" 0;
	setAttr ".cameraBlur" no;
	setAttr ".shutterAngle" 180;
	setAttr ".shutterOpenEnd" 0;
	setAttr ".shutterCloseStart" 1;
	setAttr ".shutterTiming" 0;
	setAttr ".motionSamples" 2;
	setAttr ".displayFilters[0]" -type "string" "";
	setAttr ".sampleFilters[0]" -type "string" "";
	setAttr ".outputAllShaders" no;
	setAttr ".nestedInstancing" no;
	setAttr ".reentrantProcedurals" yes;
	setAttr ".outputShadowAOV" 0;
	setAttr ".enableImagePlaneFilter" yes;
	setAttr ".learnLightSelection" no;
	setAttr ".ri_hider_adaptAll" no;
	setAttr ".osl_batched" 0;
	setAttr ".adaptiveSampler" 0;
	setAttr ".opt_bucket_order" -type "string" "circle";
	setAttr ".limits_bucketsize" -type "long2" 16 16 ;
	setAttr ".limits_othreshold" -type "float3" 0.99599999 0.99599999 0.99599999 ;
	setAttr ".rfm_referenceFrame" 0;
	setAttr ".dice_micropolygonlength" 1;
	setAttr ".dice_watertight" no;
	setAttr ".dice_referenceCameraType" 0;
	setAttr ".dice_referenceCamera" -type "string" "";
	setAttr ".hair_minWidth" 0.5;
	setAttr ".trace_autobias" yes;
	setAttr ".trace_bias" 0.0010000000474974513;
	setAttr ".trace_worldorigin" -type "string" "camera";
	setAttr ".trace_worldoffset" -type "float3" 0 0 0 ;
	setAttr ".opt_cropWindowEnable" no;
	setAttr ".opt_cropWindowTopLeft" -type "float2" 0 0 ;
	setAttr ".opt_cropWindowBottomRight" -type "float2" 1 1 ;
	setAttr ".user_sceneUnits" 1;
	setAttr ".user_iesIgnoreWatts" yes;
	setAttr ".limits_texturememory" 4096;
	setAttr ".limits_geocachememory" 4096;
	setAttr ".limits_opacitycachememory" 2048;
	setAttr ".statistics_level" 1;
	setAttr ".statistics_xmlfilename" -type "string" "";
	setAttr ".lpe_diffuse2" -type "string" "Diffuse,HairDiffuse";
	setAttr ".lpe_diffuse3" -type "string" "Subsurface";
	setAttr ".lpe_specular2" -type "string" "Specular,HairSpecularR";
	setAttr ".lpe_specular3" -type "string" "RoughSpecular,HairSpecularTRT";
	setAttr ".lpe_specular4" -type "string" "Clearcoat";
	setAttr ".lpe_specular5" -type "string" "Iridescence";
	setAttr ".lpe_specular6" -type "string" "Fuzz,HairSpecularGLINTS";
	setAttr ".lpe_specular7" -type "string" "SingleScatter,HairSpecularTT";
	setAttr ".lpe_specular8" -type "string" "Glass";
	setAttr ".lpe_user2" -type "string" "Albedo,DiffuseAlbedo,SubsurfaceAlbedo,HairAlbedo";
	setAttr ".lpe_user3" -type "string" "";
	setAttr ".lpe_user4" -type "string" "";
	setAttr ".lpe_user5" -type "string" "";
	setAttr ".lpe_user6" -type "string" "";
	setAttr ".lpe_user7" -type "string" "";
	setAttr ".lpe_user8" -type "string" "";
	setAttr ".lpe_user9" -type "string" "";
	setAttr ".lpe_user10" -type "string" "";
	setAttr ".lpe_user11" -type "string" "";
	setAttr ".lpe_user12" -type "string" "";
	setAttr ".imageFileFormat" -type "string" "<scene>_<layer>_<camera>_<aov>.<f4>.<ext>";
	setAttr ".ribFileFormat" -type "string" "<camera><layer>.<f4>.rib";
	setAttr ".version" 1;
	setAttr ".take" 1;
	setAttr ".imageOutputDir" -type "string" "<ws>/images/<scene>_v<version>_t<take>";
	setAttr ".ribOutputDir" -type "string" "<ws>/renderman/rib/<scene>/v<version>_t<take>";
	setAttr -s 10 ".UserTokens";
	setAttr ".UserTokens[0].userTokenKeys" -type "string" "";
	setAttr ".UserTokens[0].userTokenValues" -type "string" "";
	setAttr ".UserTokens[1].userTokenKeys" -type "string" "";
	setAttr ".UserTokens[1].userTokenValues" -type "string" "";
	setAttr ".UserTokens[2].userTokenKeys" -type "string" "";
	setAttr ".UserTokens[2].userTokenValues" -type "string" "";
	setAttr ".UserTokens[3].userTokenKeys" -type "string" "";
	setAttr ".UserTokens[3].userTokenValues" -type "string" "";
	setAttr ".UserTokens[4].userTokenKeys" -type "string" "";
	setAttr ".UserTokens[4].userTokenValues" -type "string" "";
	setAttr ".UserTokens[5].userTokenKeys" -type "string" "";
	setAttr ".UserTokens[5].userTokenValues" -type "string" "";
	setAttr ".UserTokens[6].userTokenKeys" -type "string" "";
	setAttr ".UserTokens[6].userTokenValues" -type "string" "";
	setAttr ".UserTokens[7].userTokenKeys" -type "string" "";
	setAttr ".UserTokens[7].userTokenValues" -type "string" "";
	setAttr ".UserTokens[8].userTokenKeys" -type "string" "";
	setAttr ".UserTokens[8].userTokenValues" -type "string" "";
	setAttr ".UserTokens[9].userTokenKeys" -type "string" "";
	setAttr ".UserTokens[9].userTokenValues" -type "string" "";
	setAttr ".rlfData" -type "string" "init";
createNode rmanDisplay -s -n "rmanDefaultDisplay";
	rename -uid "77662C82-7047-51FE-01B2-108F211B7463";
	setAttr ".cch" no;
	setAttr ".fzn" no;
	setAttr ".ihi" 2;
	setAttr ".nds" 0;
	setAttr ".enable" yes;
	setAttr ".denoise" no;
	setAttr ".frameMode" 0;
	setAttr ".remapBreakPoint" 0;
	setAttr ".remapMaxValue" 0;
	setAttr ".remapSmoothness" 0;
	setAttr -s 2 ".displayChannels";
	setAttr ".name" -type "string" "";
createNode d_openexr -n "d_openexr";
	rename -uid "720141DF-4646-1BC7-ED83-8BB151DAEEC4";
	setAttr ".cch" no;
	setAttr ".fzn" no;
	setAttr ".ihi" 2;
	setAttr ".nds" 0;
	setAttr ".asrgba" yes;
	setAttr ".storage" -type "string" "scanline";
	setAttr ".exrpixeltype" -type "string" "half";
	setAttr ".compression" -type "string" "zips";
	setAttr ".compressionlevel" 45;
createNode rmanDisplayChannel -n "Ci";
	rename -uid "3F298B4B-CE42-C90A-BB67-4284B9E917A1";
	setAttr ".cch" no;
	setAttr ".fzn" no;
	setAttr ".ihi" 2;
	setAttr ".nds" 0;
	setAttr ".enable" yes;
	setAttr ".channelType" -type "string" "color";
	setAttr ".channelSource" -type "string" "Ci";
	setAttr ".lpeLightGroup" -type "string" "";
	setAttr ".filter" -type "string" "inherit from display";
	setAttr ".filterwidth" -type "float2" -1 -1 ;
	setAttr ".statistics" -type "string" "";
	setAttr ".remapBreakPoint" 0;
	setAttr ".remapMaxValue" 0;
	setAttr ".remapSmoothness" 0;
	setAttr -l on ".name" -type "string" "Ci";
createNode rmanDisplayChannel -n "a";
	rename -uid "B5B8A8D4-C143-F710-ECA0-3895B697A257";
	setAttr ".cch" no;
	setAttr ".fzn" no;
	setAttr ".ihi" 2;
	setAttr ".nds" 0;
	setAttr ".enable" yes;
	setAttr ".channelType" -type "string" "float";
	setAttr ".channelSource" -type "string" "a";
	setAttr ".lpeLightGroup" -type "string" "";
	setAttr ".filter" -type "string" "inherit from display";
	setAttr ".filterwidth" -type "float2" -1 -1 ;
	setAttr ".statistics" -type "string" "";
	setAttr ".remapBreakPoint" 0;
	setAttr ".remapMaxValue" 0;
	setAttr ".remapSmoothness" 0;
	setAttr -l on ".name" -type "string" "a";
createNode PxrPathTracer -s -n "PxrPathTracer";
	rename -uid "49AF293F-FA41-CE53-1287-499BB8834B5E";
	setAttr ".cch" no;
	setAttr ".fzn" no;
	setAttr ".ihi" 2;
	setAttr ".nds" 0;
	setAttr ".maxPathLength" 10;
	setAttr ".maxContinuationLength" -1;
	setAttr ".maxNonStochasticOpacityEvents" 0;
	setAttr ".sampleMode" -type "string" "bxdf";
	setAttr ".numLightSamples" 1;
	setAttr ".numBxdfSamples" 1;
	setAttr ".numIndirectSamples" 1;
	setAttr ".numDiffuseSamples" 1;
	setAttr ".numSpecularSamples" 1;
	setAttr ".numSubsurfaceSamples" 1;
	setAttr ".numRefractionSamples" 1;
	setAttr ".allowCaustics" no;
	setAttr ".accumOpacity" no;
	setAttr ".rouletteDepth" 4;
	setAttr ".rouletteThreshold" 0.20000000298023224;
	setAttr ".clampDepth" 2;
	setAttr ".clampLuminance" 10;
createNode script -n "uiConfigurationScriptNode";
	rename -uid "7740F476-FC4E-18F2-59A0-A6979004452E";
	setAttr ".b" -type "string" (
		"// Maya Mel UI Configuration File.\n//\n//  This script is machine generated.  Edit at your own risk.\n//\n//\n\nglobal string $gMainPane;\nif (`paneLayout -exists $gMainPane`) {\n\n\tglobal int $gUseScenePanelConfig;\n\tint    $useSceneConfig = $gUseScenePanelConfig;\n\tint    $menusOkayInPanels = `optionVar -q allowMenusInPanels`;\tint    $nVisPanes = `paneLayout -q -nvp $gMainPane`;\n\tint    $nPanes = 0;\n\tstring $editorName;\n\tstring $panelName;\n\tstring $itemFilterName;\n\tstring $panelConfig;\n\n\t//\n\t//  get current state of the UI\n\t//\n\tsceneUIReplacement -update $gMainPane;\n\n\t$panelName = `sceneUIReplacement -getNextPanel \"modelPanel\" (localizedPanelLabel(\"Top View\")) `;\n\tif (\"\" != $panelName) {\n\t\t$label = `panel -q -label $panelName`;\n\t\tmodelPanel -edit -l (localizedPanelLabel(\"Top View\")) -mbv $menusOkayInPanels  $panelName;\n\t\t$editorName = $panelName;\n        modelEditor -e \n            -camera \"top\" \n            -useInteractiveMode 0\n            -displayLights \"default\" \n            -displayAppearance \"smoothShaded\" \n            -activeOnly 0\n"
		+ "            -ignorePanZoom 0\n            -wireframeOnShaded 0\n            -headsUpDisplay 1\n            -holdOuts 1\n            -selectionHiliteDisplay 1\n            -useDefaultMaterial 0\n            -bufferMode \"double\" \n            -twoSidedLighting 0\n            -backfaceCulling 0\n            -xray 0\n            -jointXray 0\n            -activeComponentsXray 0\n            -displayTextures 0\n            -smoothWireframe 0\n            -lineWidth 1\n            -textureAnisotropic 0\n            -textureHilight 1\n            -textureSampling 2\n            -textureDisplay \"modulate\" \n            -textureMaxSize 16384\n            -fogging 0\n            -fogSource \"fragment\" \n            -fogMode \"linear\" \n            -fogStart 0\n            -fogEnd 100\n            -fogDensity 0.1\n            -fogColor 0.5 0.5 0.5 1 \n            -depthOfFieldPreview 1\n            -maxConstantTransparency 1\n            -rendererName \"vp2Renderer\" \n            -objectFilterShowInHUD 1\n            -isFiltered 0\n            -colorResolution 256 256 \n"
		+ "            -bumpResolution 512 512 \n            -textureCompression 0\n            -transparencyAlgorithm \"frontAndBackCull\" \n            -transpInShadows 0\n            -cullingOverride \"none\" \n            -lowQualityLighting 0\n            -maximumNumHardwareLights 1\n            -occlusionCulling 0\n            -shadingModel 0\n            -useBaseRenderer 0\n            -useReducedRenderer 0\n            -smallObjectCulling 0\n            -smallObjectThreshold -1 \n            -interactiveDisableShadows 0\n            -interactiveBackFaceCull 0\n            -sortTransparent 1\n            -controllers 1\n            -nurbsCurves 1\n            -nurbsSurfaces 1\n            -polymeshes 1\n            -subdivSurfaces 1\n            -planes 1\n            -lights 1\n            -cameras 1\n            -controlVertices 1\n            -hulls 1\n            -grid 1\n            -imagePlane 1\n            -joints 1\n            -ikHandles 1\n            -deformers 1\n            -dynamics 1\n            -particleInstancers 1\n            -fluids 1\n"
		+ "            -hairSystems 1\n            -follicles 1\n            -nCloths 1\n            -nParticles 1\n            -nRigids 1\n            -dynamicConstraints 1\n            -locators 1\n            -manipulators 1\n            -pluginShapes 1\n            -dimensions 1\n            -handles 1\n            -pivots 1\n            -textures 1\n            -strokes 1\n            -motionTrails 1\n            -clipGhosts 1\n            -greasePencils 1\n            -shadows 0\n            -captureSequenceNumber -1\n            -width 436\n            -height 290\n            -sceneRenderFilter 0\n            $editorName;\n        modelEditor -e -viewSelected 0 $editorName;\n        modelEditor -e \n            -pluginObjects \"gpuCacheDisplayFilter\" 1 \n            $editorName;\n\t\tif (!$useSceneConfig) {\n\t\t\tpanel -e -l $label $panelName;\n\t\t}\n\t}\n\n\n\t$panelName = `sceneUIReplacement -getNextPanel \"modelPanel\" (localizedPanelLabel(\"Side View\")) `;\n\tif (\"\" != $panelName) {\n\t\t$label = `panel -q -label $panelName`;\n\t\tmodelPanel -edit -l (localizedPanelLabel(\"Side View\")) -mbv $menusOkayInPanels  $panelName;\n"
		+ "\t\t$editorName = $panelName;\n        modelEditor -e \n            -camera \"side\" \n            -useInteractiveMode 0\n            -displayLights \"default\" \n            -displayAppearance \"smoothShaded\" \n            -activeOnly 0\n            -ignorePanZoom 0\n            -wireframeOnShaded 0\n            -headsUpDisplay 1\n            -holdOuts 1\n            -selectionHiliteDisplay 1\n            -useDefaultMaterial 0\n            -bufferMode \"double\" \n            -twoSidedLighting 0\n            -backfaceCulling 0\n            -xray 0\n            -jointXray 0\n            -activeComponentsXray 0\n            -displayTextures 0\n            -smoothWireframe 0\n            -lineWidth 1\n            -textureAnisotropic 0\n            -textureHilight 1\n            -textureSampling 2\n            -textureDisplay \"modulate\" \n            -textureMaxSize 16384\n            -fogging 0\n            -fogSource \"fragment\" \n            -fogMode \"linear\" \n            -fogStart 0\n            -fogEnd 100\n            -fogDensity 0.1\n            -fogColor 0.5 0.5 0.5 1 \n"
		+ "            -depthOfFieldPreview 1\n            -maxConstantTransparency 1\n            -rendererName \"vp2Renderer\" \n            -objectFilterShowInHUD 1\n            -isFiltered 0\n            -colorResolution 256 256 \n            -bumpResolution 512 512 \n            -textureCompression 0\n            -transparencyAlgorithm \"frontAndBackCull\" \n            -transpInShadows 0\n            -cullingOverride \"none\" \n            -lowQualityLighting 0\n            -maximumNumHardwareLights 1\n            -occlusionCulling 0\n            -shadingModel 0\n            -useBaseRenderer 0\n            -useReducedRenderer 0\n            -smallObjectCulling 0\n            -smallObjectThreshold -1 \n            -interactiveDisableShadows 0\n            -interactiveBackFaceCull 0\n            -sortTransparent 1\n            -controllers 1\n            -nurbsCurves 1\n            -nurbsSurfaces 1\n            -polymeshes 1\n            -subdivSurfaces 1\n            -planes 1\n            -lights 1\n            -cameras 1\n            -controlVertices 1\n"
		+ "            -hulls 1\n            -grid 1\n            -imagePlane 1\n            -joints 1\n            -ikHandles 1\n            -deformers 1\n            -dynamics 1\n            -particleInstancers 1\n            -fluids 1\n            -hairSystems 1\n            -follicles 1\n            -nCloths 1\n            -nParticles 1\n            -nRigids 1\n            -dynamicConstraints 1\n            -locators 1\n            -manipulators 1\n            -pluginShapes 1\n            -dimensions 1\n            -handles 1\n            -pivots 1\n            -textures 1\n            -strokes 1\n            -motionTrails 1\n            -clipGhosts 1\n            -greasePencils 1\n            -shadows 0\n            -captureSequenceNumber -1\n            -width 436\n            -height 290\n            -sceneRenderFilter 0\n            $editorName;\n        modelEditor -e -viewSelected 0 $editorName;\n        modelEditor -e \n            -pluginObjects \"gpuCacheDisplayFilter\" 1 \n            $editorName;\n\t\tif (!$useSceneConfig) {\n\t\t\tpanel -e -l $label $panelName;\n"
		+ "\t\t}\n\t}\n\n\n\t$panelName = `sceneUIReplacement -getNextPanel \"modelPanel\" (localizedPanelLabel(\"Front View\")) `;\n\tif (\"\" != $panelName) {\n\t\t$label = `panel -q -label $panelName`;\n\t\tmodelPanel -edit -l (localizedPanelLabel(\"Front View\")) -mbv $menusOkayInPanels  $panelName;\n\t\t$editorName = $panelName;\n        modelEditor -e \n            -camera \"front\" \n            -useInteractiveMode 0\n            -displayLights \"default\" \n            -displayAppearance \"smoothShaded\" \n            -activeOnly 0\n            -ignorePanZoom 0\n            -wireframeOnShaded 0\n            -headsUpDisplay 1\n            -holdOuts 1\n            -selectionHiliteDisplay 1\n            -useDefaultMaterial 0\n            -bufferMode \"double\" \n            -twoSidedLighting 0\n            -backfaceCulling 0\n            -xray 0\n            -jointXray 0\n            -activeComponentsXray 0\n            -displayTextures 0\n            -smoothWireframe 0\n            -lineWidth 1\n            -textureAnisotropic 0\n            -textureHilight 1\n            -textureSampling 2\n"
		+ "            -textureDisplay \"modulate\" \n            -textureMaxSize 16384\n            -fogging 0\n            -fogSource \"fragment\" \n            -fogMode \"linear\" \n            -fogStart 0\n            -fogEnd 100\n            -fogDensity 0.1\n            -fogColor 0.5 0.5 0.5 1 \n            -depthOfFieldPreview 1\n            -maxConstantTransparency 1\n            -rendererName \"vp2Renderer\" \n            -objectFilterShowInHUD 1\n            -isFiltered 0\n            -colorResolution 256 256 \n            -bumpResolution 512 512 \n            -textureCompression 0\n            -transparencyAlgorithm \"frontAndBackCull\" \n            -transpInShadows 0\n            -cullingOverride \"none\" \n            -lowQualityLighting 0\n            -maximumNumHardwareLights 1\n            -occlusionCulling 0\n            -shadingModel 0\n            -useBaseRenderer 0\n            -useReducedRenderer 0\n            -smallObjectCulling 0\n            -smallObjectThreshold -1 \n            -interactiveDisableShadows 0\n            -interactiveBackFaceCull 0\n"
		+ "            -sortTransparent 1\n            -controllers 1\n            -nurbsCurves 1\n            -nurbsSurfaces 1\n            -polymeshes 1\n            -subdivSurfaces 1\n            -planes 1\n            -lights 1\n            -cameras 1\n            -controlVertices 1\n            -hulls 1\n            -grid 1\n            -imagePlane 1\n            -joints 1\n            -ikHandles 1\n            -deformers 1\n            -dynamics 1\n            -particleInstancers 1\n            -fluids 1\n            -hairSystems 1\n            -follicles 1\n            -nCloths 1\n            -nParticles 1\n            -nRigids 1\n            -dynamicConstraints 1\n            -locators 1\n            -manipulators 1\n            -pluginShapes 1\n            -dimensions 1\n            -handles 1\n            -pivots 1\n            -textures 1\n            -strokes 1\n            -motionTrails 1\n            -clipGhosts 1\n            -greasePencils 1\n            -shadows 0\n            -captureSequenceNumber -1\n            -width 436\n            -height 290\n"
		+ "            -sceneRenderFilter 0\n            $editorName;\n        modelEditor -e -viewSelected 0 $editorName;\n        modelEditor -e \n            -pluginObjects \"gpuCacheDisplayFilter\" 1 \n            $editorName;\n\t\tif (!$useSceneConfig) {\n\t\t\tpanel -e -l $label $panelName;\n\t\t}\n\t}\n\n\n\t$panelName = `sceneUIReplacement -getNextPanel \"modelPanel\" (localizedPanelLabel(\"Persp View\")) `;\n\tif (\"\" != $panelName) {\n\t\t$label = `panel -q -label $panelName`;\n\t\tmodelPanel -edit -l (localizedPanelLabel(\"Persp View\")) -mbv $menusOkayInPanels  $panelName;\n\t\t$editorName = $panelName;\n        modelEditor -e \n            -camera \"persp1\" \n            -useInteractiveMode 0\n            -displayLights \"default\" \n            -displayAppearance \"smoothShaded\" \n            -activeOnly 0\n            -ignorePanZoom 0\n            -wireframeOnShaded 0\n            -headsUpDisplay 1\n            -holdOuts 1\n            -selectionHiliteDisplay 1\n            -useDefaultMaterial 0\n            -bufferMode \"double\" \n            -twoSidedLighting 0\n            -backfaceCulling 0\n"
		+ "            -xray 0\n            -jointXray 0\n            -activeComponentsXray 0\n            -displayTextures 0\n            -smoothWireframe 0\n            -lineWidth 1\n            -textureAnisotropic 0\n            -textureHilight 1\n            -textureSampling 2\n            -textureDisplay \"modulate\" \n            -textureMaxSize 16384\n            -fogging 0\n            -fogSource \"fragment\" \n            -fogMode \"linear\" \n            -fogStart 0\n            -fogEnd 100\n            -fogDensity 0.1\n            -fogColor 0.5 0.5 0.5 1 \n            -depthOfFieldPreview 1\n            -maxConstantTransparency 1\n            -rendererName \"vp2Renderer\" \n            -objectFilterShowInHUD 1\n            -isFiltered 0\n            -colorResolution 256 256 \n            -bumpResolution 512 512 \n            -textureCompression 0\n            -transparencyAlgorithm \"frontAndBackCull\" \n            -transpInShadows 0\n            -cullingOverride \"none\" \n            -lowQualityLighting 0\n            -maximumNumHardwareLights 1\n            -occlusionCulling 0\n"
		+ "            -shadingModel 0\n            -useBaseRenderer 0\n            -useReducedRenderer 0\n            -smallObjectCulling 0\n            -smallObjectThreshold -1 \n            -interactiveDisableShadows 0\n            -interactiveBackFaceCull 0\n            -sortTransparent 1\n            -controllers 1\n            -nurbsCurves 1\n            -nurbsSurfaces 1\n            -polymeshes 1\n            -subdivSurfaces 1\n            -planes 1\n            -lights 1\n            -cameras 1\n            -controlVertices 1\n            -hulls 1\n            -grid 1\n            -imagePlane 1\n            -joints 1\n            -ikHandles 1\n            -deformers 1\n            -dynamics 1\n            -particleInstancers 1\n            -fluids 1\n            -hairSystems 1\n            -follicles 1\n            -nCloths 1\n            -nParticles 1\n            -nRigids 1\n            -dynamicConstraints 1\n            -locators 1\n            -manipulators 1\n            -pluginShapes 1\n            -dimensions 1\n            -handles 1\n            -pivots 1\n"
		+ "            -textures 1\n            -strokes 1\n            -motionTrails 1\n            -clipGhosts 1\n            -greasePencils 1\n            -shadows 0\n            -captureSequenceNumber -1\n            -width 879\n            -height 625\n            -sceneRenderFilter 0\n            $editorName;\n        modelEditor -e -viewSelected 0 $editorName;\n        modelEditor -e \n            -pluginObjects \"gpuCacheDisplayFilter\" 1 \n            $editorName;\n\t\tif (!$useSceneConfig) {\n\t\t\tpanel -e -l $label $panelName;\n\t\t}\n\t}\n\n\n\t$panelName = `sceneUIReplacement -getNextPanel \"outlinerPanel\" (localizedPanelLabel(\"ToggledOutliner\")) `;\n\tif (\"\" != $panelName) {\n\t\t$label = `panel -q -label $panelName`;\n\t\toutlinerPanel -edit -l (localizedPanelLabel(\"ToggledOutliner\")) -mbv $menusOkayInPanels  $panelName;\n\t\t$editorName = $panelName;\n        outlinerEditor -e \n            -showShapes 0\n            -showAssignedMaterials 0\n            -showTimeEditor 1\n            -showReferenceNodes 1\n            -showReferenceMembers 1\n            -showAttributes 0\n"
		+ "            -showConnected 0\n            -showAnimCurvesOnly 0\n            -showMuteInfo 0\n            -organizeByLayer 1\n            -organizeByClip 1\n            -showAnimLayerWeight 1\n            -autoExpandLayers 1\n            -autoExpand 0\n            -showDagOnly 1\n            -showAssets 1\n            -showContainedOnly 1\n            -showPublishedAsConnected 0\n            -showParentContainers 0\n            -showContainerContents 1\n            -ignoreDagHierarchy 0\n            -expandConnections 0\n            -showUpstreamCurves 1\n            -showUnitlessCurves 1\n            -showCompounds 1\n            -showLeafs 1\n            -showNumericAttrsOnly 0\n            -highlightActive 1\n            -autoSelectNewObjects 0\n            -doNotSelectNewObjects 0\n            -dropIsParent 1\n            -transmitFilters 0\n            -setFilter \"defaultSetFilter\" \n            -showSetMembers 1\n            -allowMultiSelection 1\n            -alwaysToggleSelect 0\n            -directSelect 0\n            -isSet 0\n            -isSetMember 0\n"
		+ "            -displayMode \"DAG\" \n            -expandObjects 0\n            -setsIgnoreFilters 1\n            -containersIgnoreFilters 0\n            -editAttrName 0\n            -showAttrValues 0\n            -highlightSecondary 0\n            -showUVAttrsOnly 0\n            -showTextureNodesOnly 0\n            -attrAlphaOrder \"default\" \n            -animLayerFilterOptions \"allAffecting\" \n            -sortOrder \"none\" \n            -longNames 0\n            -niceNames 1\n            -showNamespace 1\n            -showPinIcons 0\n            -mapMotionTrails 0\n            -ignoreHiddenAttribute 0\n            -ignoreOutlinerColor 0\n            -renderFilterVisible 0\n            -renderFilterIndex 0\n            -selectionOrder \"chronological\" \n            -expandAttribute 0\n            $editorName;\n\t\tif (!$useSceneConfig) {\n\t\t\tpanel -e -l $label $panelName;\n\t\t}\n\t}\n\n\n\t$panelName = `sceneUIReplacement -getNextPanel \"outlinerPanel\" (localizedPanelLabel(\"Outliner\")) `;\n\tif (\"\" != $panelName) {\n\t\t$label = `panel -q -label $panelName`;\n"
		+ "\t\toutlinerPanel -edit -l (localizedPanelLabel(\"Outliner\")) -mbv $menusOkayInPanels  $panelName;\n\t\t$editorName = $panelName;\n        outlinerEditor -e \n            -showShapes 0\n            -showAssignedMaterials 0\n            -showTimeEditor 1\n            -showReferenceNodes 0\n            -showReferenceMembers 0\n            -showAttributes 0\n            -showConnected 0\n            -showAnimCurvesOnly 0\n            -showMuteInfo 0\n            -organizeByLayer 1\n            -organizeByClip 1\n            -showAnimLayerWeight 1\n            -autoExpandLayers 1\n            -autoExpand 0\n            -showDagOnly 1\n            -showAssets 1\n            -showContainedOnly 1\n            -showPublishedAsConnected 0\n            -showParentContainers 0\n            -showContainerContents 1\n            -ignoreDagHierarchy 0\n            -expandConnections 0\n            -showUpstreamCurves 1\n            -showUnitlessCurves 1\n            -showCompounds 1\n            -showLeafs 1\n            -showNumericAttrsOnly 0\n            -highlightActive 1\n"
		+ "            -autoSelectNewObjects 0\n            -doNotSelectNewObjects 0\n            -dropIsParent 1\n            -transmitFilters 0\n            -setFilter \"defaultSetFilter\" \n            -showSetMembers 1\n            -allowMultiSelection 1\n            -alwaysToggleSelect 0\n            -directSelect 0\n            -displayMode \"DAG\" \n            -expandObjects 0\n            -setsIgnoreFilters 1\n            -containersIgnoreFilters 0\n            -editAttrName 0\n            -showAttrValues 0\n            -highlightSecondary 0\n            -showUVAttrsOnly 0\n            -showTextureNodesOnly 0\n            -attrAlphaOrder \"default\" \n            -animLayerFilterOptions \"allAffecting\" \n            -sortOrder \"none\" \n            -longNames 0\n            -niceNames 1\n            -showNamespace 1\n            -showPinIcons 0\n            -mapMotionTrails 0\n            -ignoreHiddenAttribute 0\n            -ignoreOutlinerColor 0\n            -renderFilterVisible 0\n            $editorName;\n\t\tif (!$useSceneConfig) {\n\t\t\tpanel -e -l $label $panelName;\n"
		+ "\t\t}\n\t}\n\n\n\t$panelName = `sceneUIReplacement -getNextScriptedPanel \"graphEditor\" (localizedPanelLabel(\"Graph Editor\")) `;\n\tif (\"\" != $panelName) {\n\t\t$label = `panel -q -label $panelName`;\n\t\tscriptedPanel -edit -l (localizedPanelLabel(\"Graph Editor\")) -mbv $menusOkayInPanels  $panelName;\n\n\t\t\t$editorName = ($panelName+\"OutlineEd\");\n            outlinerEditor -e \n                -showShapes 1\n                -showAssignedMaterials 0\n                -showTimeEditor 1\n                -showReferenceNodes 0\n                -showReferenceMembers 0\n                -showAttributes 1\n                -showConnected 1\n                -showAnimCurvesOnly 1\n                -showMuteInfo 0\n                -organizeByLayer 1\n                -organizeByClip 1\n                -showAnimLayerWeight 1\n                -autoExpandLayers 1\n                -autoExpand 1\n                -showDagOnly 0\n                -showAssets 1\n                -showContainedOnly 0\n                -showPublishedAsConnected 0\n                -showParentContainers 1\n"
		+ "                -showContainerContents 0\n                -ignoreDagHierarchy 0\n                -expandConnections 1\n                -showUpstreamCurves 1\n                -showUnitlessCurves 1\n                -showCompounds 0\n                -showLeafs 1\n                -showNumericAttrsOnly 1\n                -highlightActive 0\n                -autoSelectNewObjects 1\n                -doNotSelectNewObjects 0\n                -dropIsParent 1\n                -transmitFilters 1\n                -setFilter \"0\" \n                -showSetMembers 0\n                -allowMultiSelection 1\n                -alwaysToggleSelect 0\n                -directSelect 0\n                -displayMode \"DAG\" \n                -expandObjects 0\n                -setsIgnoreFilters 1\n                -containersIgnoreFilters 0\n                -editAttrName 0\n                -showAttrValues 0\n                -highlightSecondary 0\n                -showUVAttrsOnly 0\n                -showTextureNodesOnly 0\n                -attrAlphaOrder \"default\" \n                -animLayerFilterOptions \"allAffecting\" \n"
		+ "                -sortOrder \"none\" \n                -longNames 0\n                -niceNames 1\n                -showNamespace 1\n                -showPinIcons 1\n                -mapMotionTrails 1\n                -ignoreHiddenAttribute 0\n                -ignoreOutlinerColor 0\n                -renderFilterVisible 0\n                $editorName;\n\n\t\t\t$editorName = ($panelName+\"GraphEd\");\n            animCurveEditor -e \n                -displayKeys 1\n                -displayTangents 0\n                -displayActiveKeys 0\n                -displayActiveKeyTangents 1\n                -displayInfinities 0\n                -displayValues 0\n                -autoFit 0\n                -snapTime \"integer\" \n                -snapValue \"none\" \n                -showResults \"off\" \n                -showBufferCurves \"off\" \n                -smoothness \"fine\" \n                -resultSamples 1\n                -resultScreenSamples 0\n                -resultUpdate \"delayed\" \n                -showUpstreamCurves 1\n                -showCurveNames 0\n"
		+ "                -showActiveCurveNames 0\n                -stackedCurves 0\n                -stackedCurvesMin -1\n                -stackedCurvesMax 1\n                -stackedCurvesSpace 0.2\n                -displayNormalized 0\n                -preSelectionHighlight 0\n                -constrainDrag 0\n                -classicMode 1\n                -valueLinesToggle 1\n                $editorName;\n\t\tif (!$useSceneConfig) {\n\t\t\tpanel -e -l $label $panelName;\n\t\t}\n\t}\n\n\n\t$panelName = `sceneUIReplacement -getNextScriptedPanel \"dopeSheetPanel\" (localizedPanelLabel(\"Dope Sheet\")) `;\n\tif (\"\" != $panelName) {\n\t\t$label = `panel -q -label $panelName`;\n\t\tscriptedPanel -edit -l (localizedPanelLabel(\"Dope Sheet\")) -mbv $menusOkayInPanels  $panelName;\n\n\t\t\t$editorName = ($panelName+\"OutlineEd\");\n            outlinerEditor -e \n                -showShapes 1\n                -showAssignedMaterials 0\n                -showTimeEditor 1\n                -showReferenceNodes 0\n                -showReferenceMembers 0\n                -showAttributes 1\n"
		+ "                -showConnected 1\n                -showAnimCurvesOnly 1\n                -showMuteInfo 0\n                -organizeByLayer 1\n                -organizeByClip 1\n                -showAnimLayerWeight 1\n                -autoExpandLayers 1\n                -autoExpand 0\n                -showDagOnly 0\n                -showAssets 1\n                -showContainedOnly 0\n                -showPublishedAsConnected 0\n                -showParentContainers 1\n                -showContainerContents 0\n                -ignoreDagHierarchy 0\n                -expandConnections 1\n                -showUpstreamCurves 1\n                -showUnitlessCurves 0\n                -showCompounds 1\n                -showLeafs 1\n                -showNumericAttrsOnly 1\n                -highlightActive 0\n                -autoSelectNewObjects 0\n                -doNotSelectNewObjects 1\n                -dropIsParent 1\n                -transmitFilters 0\n                -setFilter \"0\" \n                -showSetMembers 0\n                -allowMultiSelection 1\n"
		+ "                -alwaysToggleSelect 0\n                -directSelect 0\n                -displayMode \"DAG\" \n                -expandObjects 0\n                -setsIgnoreFilters 1\n                -containersIgnoreFilters 0\n                -editAttrName 0\n                -showAttrValues 0\n                -highlightSecondary 0\n                -showUVAttrsOnly 0\n                -showTextureNodesOnly 0\n                -attrAlphaOrder \"default\" \n                -animLayerFilterOptions \"allAffecting\" \n                -sortOrder \"none\" \n                -longNames 0\n                -niceNames 1\n                -showNamespace 1\n                -showPinIcons 0\n                -mapMotionTrails 1\n                -ignoreHiddenAttribute 0\n                -ignoreOutlinerColor 0\n                -renderFilterVisible 0\n                $editorName;\n\n\t\t\t$editorName = ($panelName+\"DopeSheetEd\");\n            dopeSheetEditor -e \n                -displayKeys 1\n                -displayTangents 0\n                -displayActiveKeys 0\n                -displayActiveKeyTangents 0\n"
		+ "                -displayInfinities 0\n                -displayValues 0\n                -autoFit 0\n                -snapTime \"integer\" \n                -snapValue \"none\" \n                -outliner \"dopeSheetPanel1OutlineEd\" \n                -showSummary 1\n                -showScene 0\n                -hierarchyBelow 0\n                -showTicks 1\n                -selectionWindow 0 0 0 0 \n                $editorName;\n\t\tif (!$useSceneConfig) {\n\t\t\tpanel -e -l $label $panelName;\n\t\t}\n\t}\n\n\n\t$panelName = `sceneUIReplacement -getNextScriptedPanel \"timeEditorPanel\" (localizedPanelLabel(\"Time Editor\")) `;\n\tif (\"\" != $panelName) {\n\t\t$label = `panel -q -label $panelName`;\n\t\tscriptedPanel -edit -l (localizedPanelLabel(\"Time Editor\")) -mbv $menusOkayInPanels  $panelName;\n\t\tif (!$useSceneConfig) {\n\t\t\tpanel -e -l $label $panelName;\n\t\t}\n\t}\n\n\n\t$panelName = `sceneUIReplacement -getNextScriptedPanel \"clipEditorPanel\" (localizedPanelLabel(\"Trax Editor\")) `;\n\tif (\"\" != $panelName) {\n\t\t$label = `panel -q -label $panelName`;\n\t\tscriptedPanel -edit -l (localizedPanelLabel(\"Trax Editor\")) -mbv $menusOkayInPanels  $panelName;\n"
		+ "\n\t\t\t$editorName = clipEditorNameFromPanel($panelName);\n            clipEditor -e \n                -displayKeys 0\n                -displayTangents 0\n                -displayActiveKeys 0\n                -displayActiveKeyTangents 0\n                -displayInfinities 0\n                -displayValues 0\n                -autoFit 0\n                -snapTime \"none\" \n                -snapValue \"none\" \n                -initialized 0\n                -manageSequencer 0 \n                $editorName;\n\t\tif (!$useSceneConfig) {\n\t\t\tpanel -e -l $label $panelName;\n\t\t}\n\t}\n\n\n\t$panelName = `sceneUIReplacement -getNextScriptedPanel \"sequenceEditorPanel\" (localizedPanelLabel(\"Camera Sequencer\")) `;\n\tif (\"\" != $panelName) {\n\t\t$label = `panel -q -label $panelName`;\n\t\tscriptedPanel -edit -l (localizedPanelLabel(\"Camera Sequencer\")) -mbv $menusOkayInPanels  $panelName;\n\n\t\t\t$editorName = sequenceEditorNameFromPanel($panelName);\n            clipEditor -e \n                -displayKeys 0\n                -displayTangents 0\n                -displayActiveKeys 0\n"
		+ "                -displayActiveKeyTangents 0\n                -displayInfinities 0\n                -displayValues 0\n                -autoFit 0\n                -snapTime \"none\" \n                -snapValue \"none\" \n                -initialized 0\n                -manageSequencer 1 \n                $editorName;\n\t\tif (!$useSceneConfig) {\n\t\t\tpanel -e -l $label $panelName;\n\t\t}\n\t}\n\n\n\t$panelName = `sceneUIReplacement -getNextScriptedPanel \"hyperGraphPanel\" (localizedPanelLabel(\"Hypergraph Hierarchy\")) `;\n\tif (\"\" != $panelName) {\n\t\t$label = `panel -q -label $panelName`;\n\t\tscriptedPanel -edit -l (localizedPanelLabel(\"Hypergraph Hierarchy\")) -mbv $menusOkayInPanels  $panelName;\n\n\t\t\t$editorName = ($panelName+\"HyperGraphEd\");\n            hyperGraph -e \n                -graphLayoutStyle \"hierarchicalLayout\" \n                -orientation \"horiz\" \n                -mergeConnections 0\n                -zoom 1\n                -animateTransition 0\n                -showRelationships 1\n                -showShapes 0\n                -showDeformers 0\n"
		+ "                -showExpressions 0\n                -showConstraints 0\n                -showConnectionFromSelected 0\n                -showConnectionToSelected 0\n                -showConstraintLabels 0\n                -showUnderworld 0\n                -showInvisible 0\n                -transitionFrames 1\n                -opaqueContainers 0\n                -freeform 0\n                -imagePosition 0 0 \n                -imageScale 1\n                -imageEnabled 0\n                -graphType \"DAG\" \n                -heatMapDisplay 0\n                -updateSelection 1\n                -updateNodeAdded 1\n                -useDrawOverrideColor 0\n                -limitGraphTraversal -1\n                -range 0 0 \n                -iconSize \"smallIcons\" \n                -showCachedConnections 0\n                $editorName;\n\t\tif (!$useSceneConfig) {\n\t\t\tpanel -e -l $label $panelName;\n\t\t}\n\t}\n\n\n\t$panelName = `sceneUIReplacement -getNextScriptedPanel \"hyperShadePanel\" (localizedPanelLabel(\"Hypershade\")) `;\n\tif (\"\" != $panelName) {\n"
		+ "\t\t$label = `panel -q -label $panelName`;\n\t\tscriptedPanel -edit -l (localizedPanelLabel(\"Hypershade\")) -mbv $menusOkayInPanels  $panelName;\n\t\tif (!$useSceneConfig) {\n\t\t\tpanel -e -l $label $panelName;\n\t\t}\n\t}\n\n\n\t$panelName = `sceneUIReplacement -getNextScriptedPanel \"visorPanel\" (localizedPanelLabel(\"Visor\")) `;\n\tif (\"\" != $panelName) {\n\t\t$label = `panel -q -label $panelName`;\n\t\tscriptedPanel -edit -l (localizedPanelLabel(\"Visor\")) -mbv $menusOkayInPanels  $panelName;\n\t\tif (!$useSceneConfig) {\n\t\t\tpanel -e -l $label $panelName;\n\t\t}\n\t}\n\n\n\t$panelName = `sceneUIReplacement -getNextScriptedPanel \"createNodePanel\" (localizedPanelLabel(\"Create Node\")) `;\n\tif (\"\" != $panelName) {\n\t\t$label = `panel -q -label $panelName`;\n\t\tscriptedPanel -edit -l (localizedPanelLabel(\"Create Node\")) -mbv $menusOkayInPanels  $panelName;\n\t\tif (!$useSceneConfig) {\n\t\t\tpanel -e -l $label $panelName;\n\t\t}\n\t}\n\n\n\t$panelName = `sceneUIReplacement -getNextScriptedPanel \"polyTexturePlacementPanel\" (localizedPanelLabel(\"UV Editor\")) `;\n\tif (\"\" != $panelName) {\n"
		+ "\t\t$label = `panel -q -label $panelName`;\n\t\tscriptedPanel -edit -l (localizedPanelLabel(\"UV Editor\")) -mbv $menusOkayInPanels  $panelName;\n\t\tif (!$useSceneConfig) {\n\t\t\tpanel -e -l $label $panelName;\n\t\t}\n\t}\n\n\n\t$panelName = `sceneUIReplacement -getNextScriptedPanel \"renderWindowPanel\" (localizedPanelLabel(\"Render View\")) `;\n\tif (\"\" != $panelName) {\n\t\t$label = `panel -q -label $panelName`;\n\t\tscriptedPanel -edit -l (localizedPanelLabel(\"Render View\")) -mbv $menusOkayInPanels  $panelName;\n\t\tif (!$useSceneConfig) {\n\t\t\tpanel -e -l $label $panelName;\n\t\t}\n\t}\n\n\n\t$panelName = `sceneUIReplacement -getNextPanel \"shapePanel\" (localizedPanelLabel(\"Shape Editor\")) `;\n\tif (\"\" != $panelName) {\n\t\t$label = `panel -q -label $panelName`;\n\t\tshapePanel -edit -l (localizedPanelLabel(\"Shape Editor\")) -mbv $menusOkayInPanels  $panelName;\n\t\tif (!$useSceneConfig) {\n\t\t\tpanel -e -l $label $panelName;\n\t\t}\n\t}\n\n\n\t$panelName = `sceneUIReplacement -getNextPanel \"posePanel\" (localizedPanelLabel(\"Pose Editor\")) `;\n\tif (\"\" != $panelName) {\n\t\t$label = `panel -q -label $panelName`;\n"
		+ "\t\tposePanel -edit -l (localizedPanelLabel(\"Pose Editor\")) -mbv $menusOkayInPanels  $panelName;\n\t\tif (!$useSceneConfig) {\n\t\t\tpanel -e -l $label $panelName;\n\t\t}\n\t}\n\n\n\t$panelName = `sceneUIReplacement -getNextScriptedPanel \"dynRelEdPanel\" (localizedPanelLabel(\"Dynamic Relationships\")) `;\n\tif (\"\" != $panelName) {\n\t\t$label = `panel -q -label $panelName`;\n\t\tscriptedPanel -edit -l (localizedPanelLabel(\"Dynamic Relationships\")) -mbv $menusOkayInPanels  $panelName;\n\t\tif (!$useSceneConfig) {\n\t\t\tpanel -e -l $label $panelName;\n\t\t}\n\t}\n\n\n\t$panelName = `sceneUIReplacement -getNextScriptedPanel \"relationshipPanel\" (localizedPanelLabel(\"Relationship Editor\")) `;\n\tif (\"\" != $panelName) {\n\t\t$label = `panel -q -label $panelName`;\n\t\tscriptedPanel -edit -l (localizedPanelLabel(\"Relationship Editor\")) -mbv $menusOkayInPanels  $panelName;\n\t\tif (!$useSceneConfig) {\n\t\t\tpanel -e -l $label $panelName;\n\t\t}\n\t}\n\n\n\t$panelName = `sceneUIReplacement -getNextScriptedPanel \"referenceEditorPanel\" (localizedPanelLabel(\"Reference Editor\")) `;\n\tif (\"\" != $panelName) {\n"
		+ "\t\t$label = `panel -q -label $panelName`;\n\t\tscriptedPanel -edit -l (localizedPanelLabel(\"Reference Editor\")) -mbv $menusOkayInPanels  $panelName;\n\t\tif (!$useSceneConfig) {\n\t\t\tpanel -e -l $label $panelName;\n\t\t}\n\t}\n\n\n\t$panelName = `sceneUIReplacement -getNextScriptedPanel \"componentEditorPanel\" (localizedPanelLabel(\"Component Editor\")) `;\n\tif (\"\" != $panelName) {\n\t\t$label = `panel -q -label $panelName`;\n\t\tscriptedPanel -edit -l (localizedPanelLabel(\"Component Editor\")) -mbv $menusOkayInPanels  $panelName;\n\t\tif (!$useSceneConfig) {\n\t\t\tpanel -e -l $label $panelName;\n\t\t}\n\t}\n\n\n\t$panelName = `sceneUIReplacement -getNextScriptedPanel \"dynPaintScriptedPanelType\" (localizedPanelLabel(\"Paint Effects\")) `;\n\tif (\"\" != $panelName) {\n\t\t$label = `panel -q -label $panelName`;\n\t\tscriptedPanel -edit -l (localizedPanelLabel(\"Paint Effects\")) -mbv $menusOkayInPanels  $panelName;\n\t\tif (!$useSceneConfig) {\n\t\t\tpanel -e -l $label $panelName;\n\t\t}\n\t}\n\n\n\t$panelName = `sceneUIReplacement -getNextScriptedPanel \"scriptEditorPanel\" (localizedPanelLabel(\"Script Editor\")) `;\n"
		+ "\tif (\"\" != $panelName) {\n\t\t$label = `panel -q -label $panelName`;\n\t\tscriptedPanel -edit -l (localizedPanelLabel(\"Script Editor\")) -mbv $menusOkayInPanels  $panelName;\n\t\tif (!$useSceneConfig) {\n\t\t\tpanel -e -l $label $panelName;\n\t\t}\n\t}\n\n\n\t$panelName = `sceneUIReplacement -getNextScriptedPanel \"profilerPanel\" (localizedPanelLabel(\"Profiler Tool\")) `;\n\tif (\"\" != $panelName) {\n\t\t$label = `panel -q -label $panelName`;\n\t\tscriptedPanel -edit -l (localizedPanelLabel(\"Profiler Tool\")) -mbv $menusOkayInPanels  $panelName;\n\t\tif (!$useSceneConfig) {\n\t\t\tpanel -e -l $label $panelName;\n\t\t}\n\t}\n\n\n\t$panelName = `sceneUIReplacement -getNextScriptedPanel \"contentBrowserPanel\" (localizedPanelLabel(\"Content Browser\")) `;\n\tif (\"\" != $panelName) {\n\t\t$label = `panel -q -label $panelName`;\n\t\tscriptedPanel -edit -l (localizedPanelLabel(\"Content Browser\")) -mbv $menusOkayInPanels  $panelName;\n\t\tif (!$useSceneConfig) {\n\t\t\tpanel -e -l $label $panelName;\n\t\t}\n\t}\n\n\n\t$panelName = `sceneUIReplacement -getNextScriptedPanel \"nodeEditorPanel\" (localizedPanelLabel(\"Node Editor\")) `;\n"
		+ "\tif (\"\" != $panelName) {\n\t\t$label = `panel -q -label $panelName`;\n\t\tscriptedPanel -edit -l (localizedPanelLabel(\"Node Editor\")) -mbv $menusOkayInPanels  $panelName;\n\n\t\t\t$editorName = ($panelName+\"NodeEditorEd\");\n            nodeEditor -e \n                -allAttributes 0\n                -allNodes 0\n                -autoSizeNodes 1\n                -consistentNameSize 1\n                -createNodeCommand \"nodeEdCreateNodeCommand\" \n                -connectNodeOnCreation 0\n                -connectOnDrop 0\n                -highlightConnections 0\n                -copyConnectionsOnPaste 0\n                -connectionStyle \"bezier\" \n                -defaultPinnedState 0\n                -additiveGraphingMode 0\n                -settingsChangedCallback \"nodeEdSyncControls\" \n                -traversalDepthLimit -1\n                -keyPressCommand \"nodeEdKeyPressCommand\" \n                -nodeTitleMode \"name\" \n                -gridSnap 0\n                -gridVisibility 1\n                -crosshairOnEdgeDragging 0\n                -popupMenuScript \"nodeEdBuildPanelMenus\" \n"
		+ "                -showNamespace 1\n                -showShapes 1\n                -showSGShapes 0\n                -showTransforms 1\n                -useAssets 1\n                -syncedSelection 1\n                -extendToShapes 1\n                -activeTab -1\n                -editorMode \"default\" \n                $editorName;\n\t\tif (!$useSceneConfig) {\n\t\t\tpanel -e -l $label $panelName;\n\t\t}\n\t}\n\n\n\tif ($useSceneConfig) {\n        string $configName = `getPanel -cwl (localizedPanelLabel(\"Current Layout\"))`;\n        if (\"\" != $configName) {\n\t\t\tpanelConfiguration -edit -label (localizedPanelLabel(\"Current Layout\")) \n\t\t\t\t-userCreated false\n\t\t\t\t-defaultImage \"\"\n\t\t\t\t-image \"\"\n\t\t\t\t-sc false\n\t\t\t\t-configString \"global string $gMainPane; paneLayout -e -cn \\\"single\\\" -ps 1 100 100 $gMainPane;\"\n\t\t\t\t-removeAllPanels\n\t\t\t\t-ap false\n\t\t\t\t\t(localizedPanelLabel(\"Persp View\")) \n\t\t\t\t\t\"modelPanel\"\n"
		+ "\t\t\t\t\t\"$panelName = `modelPanel -unParent -l (localizedPanelLabel(\\\"Persp View\\\")) -mbv $menusOkayInPanels `;\\n$editorName = $panelName;\\nmodelEditor -e \\n    -camera \\\"persp1\\\" \\n    -useInteractiveMode 0\\n    -displayLights \\\"default\\\" \\n    -displayAppearance \\\"smoothShaded\\\" \\n    -activeOnly 0\\n    -ignorePanZoom 0\\n    -wireframeOnShaded 0\\n    -headsUpDisplay 1\\n    -holdOuts 1\\n    -selectionHiliteDisplay 1\\n    -useDefaultMaterial 0\\n    -bufferMode \\\"double\\\" \\n    -twoSidedLighting 0\\n    -backfaceCulling 0\\n    -xray 0\\n    -jointXray 0\\n    -activeComponentsXray 0\\n    -displayTextures 0\\n    -smoothWireframe 0\\n    -lineWidth 1\\n    -textureAnisotropic 0\\n    -textureHilight 1\\n    -textureSampling 2\\n    -textureDisplay \\\"modulate\\\" \\n    -textureMaxSize 16384\\n    -fogging 0\\n    -fogSource \\\"fragment\\\" \\n    -fogMode \\\"linear\\\" \\n    -fogStart 0\\n    -fogEnd 100\\n    -fogDensity 0.1\\n    -fogColor 0.5 0.5 0.5 1 \\n    -depthOfFieldPreview 1\\n    -maxConstantTransparency 1\\n    -rendererName \\\"vp2Renderer\\\" \\n    -objectFilterShowInHUD 1\\n    -isFiltered 0\\n    -colorResolution 256 256 \\n    -bumpResolution 512 512 \\n    -textureCompression 0\\n    -transparencyAlgorithm \\\"frontAndBackCull\\\" \\n    -transpInShadows 0\\n    -cullingOverride \\\"none\\\" \\n    -lowQualityLighting 0\\n    -maximumNumHardwareLights 1\\n    -occlusionCulling 0\\n    -shadingModel 0\\n    -useBaseRenderer 0\\n    -useReducedRenderer 0\\n    -smallObjectCulling 0\\n    -smallObjectThreshold -1 \\n    -interactiveDisableShadows 0\\n    -interactiveBackFaceCull 0\\n    -sortTransparent 1\\n    -controllers 1\\n    -nurbsCurves 1\\n    -nurbsSurfaces 1\\n    -polymeshes 1\\n    -subdivSurfaces 1\\n    -planes 1\\n    -lights 1\\n    -cameras 1\\n    -controlVertices 1\\n    -hulls 1\\n    -grid 1\\n    -imagePlane 1\\n    -joints 1\\n    -ikHandles 1\\n    -deformers 1\\n    -dynamics 1\\n    -particleInstancers 1\\n    -fluids 1\\n    -hairSystems 1\\n    -follicles 1\\n    -nCloths 1\\n    -nParticles 1\\n    -nRigids 1\\n    -dynamicConstraints 1\\n    -locators 1\\n    -manipulators 1\\n    -pluginShapes 1\\n    -dimensions 1\\n    -handles 1\\n    -pivots 1\\n    -textures 1\\n    -strokes 1\\n    -motionTrails 1\\n    -clipGhosts 1\\n    -greasePencils 1\\n    -shadows 0\\n    -captureSequenceNumber -1\\n    -width 879\\n    -height 625\\n    -sceneRenderFilter 0\\n    $editorName;\\nmodelEditor -e -viewSelected 0 $editorName;\\nmodelEditor -e \\n    -pluginObjects \\\"gpuCacheDisplayFilter\\\" 1 \\n    $editorName\"\n"
		+ "\t\t\t\t\t\"modelPanel -edit -l (localizedPanelLabel(\\\"Persp View\\\")) -mbv $menusOkayInPanels  $panelName;\\n$editorName = $panelName;\\nmodelEditor -e \\n    -camera \\\"persp1\\\" \\n    -useInteractiveMode 0\\n    -displayLights \\\"default\\\" \\n    -displayAppearance \\\"smoothShaded\\\" \\n    -activeOnly 0\\n    -ignorePanZoom 0\\n    -wireframeOnShaded 0\\n    -headsUpDisplay 1\\n    -holdOuts 1\\n    -selectionHiliteDisplay 1\\n    -useDefaultMaterial 0\\n    -bufferMode \\\"double\\\" \\n    -twoSidedLighting 0\\n    -backfaceCulling 0\\n    -xray 0\\n    -jointXray 0\\n    -activeComponentsXray 0\\n    -displayTextures 0\\n    -smoothWireframe 0\\n    -lineWidth 1\\n    -textureAnisotropic 0\\n    -textureHilight 1\\n    -textureSampling 2\\n    -textureDisplay \\\"modulate\\\" \\n    -textureMaxSize 16384\\n    -fogging 0\\n    -fogSource \\\"fragment\\\" \\n    -fogMode \\\"linear\\\" \\n    -fogStart 0\\n    -fogEnd 100\\n    -fogDensity 0.1\\n    -fogColor 0.5 0.5 0.5 1 \\n    -depthOfFieldPreview 1\\n    -maxConstantTransparency 1\\n    -rendererName \\\"vp2Renderer\\\" \\n    -objectFilterShowInHUD 1\\n    -isFiltered 0\\n    -colorResolution 256 256 \\n    -bumpResolution 512 512 \\n    -textureCompression 0\\n    -transparencyAlgorithm \\\"frontAndBackCull\\\" \\n    -transpInShadows 0\\n    -cullingOverride \\\"none\\\" \\n    -lowQualityLighting 0\\n    -maximumNumHardwareLights 1\\n    -occlusionCulling 0\\n    -shadingModel 0\\n    -useBaseRenderer 0\\n    -useReducedRenderer 0\\n    -smallObjectCulling 0\\n    -smallObjectThreshold -1 \\n    -interactiveDisableShadows 0\\n    -interactiveBackFaceCull 0\\n    -sortTransparent 1\\n    -controllers 1\\n    -nurbsCurves 1\\n    -nurbsSurfaces 1\\n    -polymeshes 1\\n    -subdivSurfaces 1\\n    -planes 1\\n    -lights 1\\n    -cameras 1\\n    -controlVertices 1\\n    -hulls 1\\n    -grid 1\\n    -imagePlane 1\\n    -joints 1\\n    -ikHandles 1\\n    -deformers 1\\n    -dynamics 1\\n    -particleInstancers 1\\n    -fluids 1\\n    -hairSystems 1\\n    -follicles 1\\n    -nCloths 1\\n    -nParticles 1\\n    -nRigids 1\\n    -dynamicConstraints 1\\n    -locators 1\\n    -manipulators 1\\n    -pluginShapes 1\\n    -dimensions 1\\n    -handles 1\\n    -pivots 1\\n    -textures 1\\n    -strokes 1\\n    -motionTrails 1\\n    -clipGhosts 1\\n    -greasePencils 1\\n    -shadows 0\\n    -captureSequenceNumber -1\\n    -width 879\\n    -height 625\\n    -sceneRenderFilter 0\\n    $editorName;\\nmodelEditor -e -viewSelected 0 $editorName;\\nmodelEditor -e \\n    -pluginObjects \\\"gpuCacheDisplayFilter\\\" 1 \\n    $editorName\"\n"
		+ "\t\t\t\t$configName;\n\n            setNamedPanelLayout (localizedPanelLabel(\"Current Layout\"));\n        }\n\n        panelHistory -e -clear mainPanelHistory;\n        sceneUIReplacement -clear;\n\t}\n\n\ngrid -spacing 5 -size 12 -divisions 5 -displayAxes yes -displayGridLines yes -displayDivisionLines yes -displayPerspectiveLabels no -displayOrthographicLabels no -displayAxesBold yes -perspectiveLabelPosition axis -orthographicLabelPosition edge;\nviewManip -drawCompass 0 -compassAngle 0 -frontParameters \"\" -homeParameters \"\" -selectionLockParameters \"\";\n}\n");
	setAttr ".st" 3;
createNode script -n "sceneConfigurationScriptNode";
	rename -uid "E38A0901-7B4A-B4AD-1ABF-339F5B89310C";
	setAttr ".b" -type "string" "playbackOptions -min 1 -max 150 -ast 1 -aet 200 ";
	setAttr ".st" 6;
createNode polyPlane -n "polyPlane2";
	rename -uid "A0B571B2-2F4E-B49C-89AB-6F88AF1BCF58";
	setAttr ".sw" 5;
	setAttr ".sh" 5;
	setAttr ".cuv" 2;
createNode polyExtrudeFace -n "polyExtrudeFace2";
	rename -uid "528DAB20-9041-9A80-4940-3FBFC5672810";
	setAttr ".ics" -type "componentList" 1 "f[0:24]";
	setAttr ".ix" -type "matrix" 1 0 0 0 0 1 0 0 0 0 1 0 0 0 0 1;
	setAttr ".ws" yes;
	setAttr ".rs" 1282739593;
	setAttr ".lt" -type "double3" 0 0 1 ;
	setAttr ".d" 5;
	setAttr ".c[0]"  0 1 1;
	setAttr ".cbn" -type "double3" -0.5 -1.1102230246251565e-16 -0.5 ;
	setAttr ".cbx" -type "double3" 0.5 1.1102230246251565e-16 0.5 ;
createNode polyMergeVert -n "polyMergeVert2";
	rename -uid "A710C4B9-064F-6071-5015-33A4863BD38C";
	setAttr ".ics" -type "componentList" 1 "vtx[*]";
	setAttr ".ix" -type "matrix" 1 0 0 0 0 1 0 0 0 0 1 0 0 0 0 1;
	setAttr ".am" yes;
createNode polyPlatonic -n "polyPlatonic2";
	rename -uid "790A116B-2E43-30D5-E278-FCA81D4C547E";
	setAttr ".subdivisions" 1;
createNode polySmoothFace -n "polySmoothFace2";
	rename -uid "D872F6FC-674A-5654-0824-CBB821E3A7EF";
	setAttr ".ics" -type "componentList" 1 "f[*]";
	setAttr ".mth" 1;
	setAttr ".sdt" 2;
	setAttr ".suv" yes;
	setAttr ".dpe" 10;
	setAttr ".ps" 1;
	setAttr ".ro" 1.4500000476837158;
	setAttr ".ma" yes;
	setAttr ".m08" yes;
createNode nComponent -n "nComponent1";
	rename -uid "D929CD85-EE4A-08BD-2A79-45B4622161CD";
	setAttr ".ct" 2;
	setAttr -s 42 ".ci[0:41]"  27 500 501 852 853 862 
		863 864 865 879 880 881 3670 3671 3680 3681 3932 3933 
		3942 3943 3952 3953 5542 5543 5544 5545 5552 5553 5554 5555 
		5569 5570 5571 5579 5580 5581 5589 5590 5591 5599 5600 5601;
createNode cacheFile -n "nClothShape1Cache1";
	rename -uid "6C5C8F78-F24D-CE88-3FE7-00B3471F7767";
	setAttr ".cn" -type "string" "nClothShape1";
	setAttr ".cp" -type "string" "/Users/maddiepahati/Workspaces/cnm/sculpted/models//cache/nCache/bag_of_money1/";
	setAttr ".ch[0]" -type "string" "nClothShape1";
	setAttr ".os" 1;
	setAttr ".oe" 150;
	setAttr ".ss" 1;
	setAttr ".se" 150;
	setAttr ".sf" 1;
createNode animCurveTU -n "bag_scaleX";
	rename -uid "8BF9C4CA-BB47-A587-C7EF-B5B2ACC42EA0";
	setAttr ".tan" 18;
	setAttr ".wgt" no;
	setAttr -s 2 ".ktv[0:1]"  1 1.1457296433507869 150 1.1457296433507869;
createNode animCurveTU -n "bag_scaleY";
	rename -uid "BF878B26-D64F-2994-A98F-F198FEE7B9EF";
	setAttr ".tan" 18;
	setAttr ".wgt" no;
	setAttr -s 2 ".ktv[0:1]"  1 1.1457296433507869 150 1.1457296433507869;
createNode animCurveTU -n "bag_scaleZ";
	rename -uid "A2F44BD7-0A4F-5ABD-DC92-4A89BE96320A";
	setAttr ".tan" 18;
	setAttr ".wgt" no;
	setAttr -s 2 ".ktv[0:1]"  1 1.1457296433507869 150 1.1457296433507869;
createNode animCurveTU -n "bag_visibility";
	rename -uid "CAE0C055-6240-A31D-40A4-559CF8160800";
	setAttr ".tan" 9;
	setAttr ".wgt" no;
	setAttr -s 2 ".ktv[0:1]"  1 1 150 1;
	setAttr -s 2 ".kot[0:1]"  5 5;
createNode animCurveTL -n "bag_translateX";
	rename -uid "E68F083F-3747-FFA0-0C07-FC9A6EFCC8D7";
	setAttr ".tan" 18;
	setAttr ".wgt" no;
	setAttr -s 2 ".ktv[0:1]"  1 0 150 0;
createNode animCurveTL -n "bag_translateY";
	rename -uid "8A8977FF-3946-3D0E-3FE9-EF9547AE7C53";
	setAttr ".tan" 18;
	setAttr ".wgt" no;
	setAttr -s 2 ".ktv[0:1]"  1 3.2931250521037758 150 3.2931250521037758;
createNode animCurveTL -n "bag_translateZ";
	rename -uid "92B864D4-6E4A-929C-DB60-7C9F92C10061";
	setAttr ".tan" 18;
	setAttr ".wgt" no;
	setAttr -s 2 ".ktv[0:1]"  1 -0.051567673939445502 150 -0.051567673939445502;
createNode animCurveTA -n "bag_rotateX";
	rename -uid "FFD60CA7-B547-4AE6-E5F0-0992D4AC207A";
	setAttr ".tan" 18;
	setAttr ".wgt" no;
	setAttr -s 2 ".ktv[0:1]"  1 0 150 0;
createNode animCurveTA -n "bag_rotateY";
	rename -uid "0B2BA5BE-B043-2F5D-34F6-0FAFF79C0330";
	setAttr ".tan" 18;
	setAttr ".wgt" no;
	setAttr -s 2 ".ktv[0:1]"  1 0 150 0;
createNode animCurveTA -n "bag_rotateZ";
	rename -uid "02F23047-5B46-F183-CD8B-ADB75D5213CC";
	setAttr ".tan" 18;
	setAttr ".wgt" no;
	setAttr -s 2 ".ktv[0:1]"  1 0 150 0;
select -ne :time1;
	setAttr ".ihi" 0;
	setAttr ".o" 1;
	setAttr ".unw" 1;
select -ne :hardwareRenderingGlobals;
	setAttr ".otfna" -type "stringArray" 22 "NURBS Curves" "NURBS Surfaces" "Polygons" "Subdiv Surface" "Particles" "Particle Instance" "Fluids" "Strokes" "Image Planes" "UI" "Lights" "Cameras" "Locators" "Joints" "IK Handles" "Deformers" "Motion Trails" "Components" "Hair Systems" "Follicles" "Misc. UI" "Ornaments"  ;
	setAttr ".otfva" -type "Int32Array" 22 0 1 1 1 1 1
		 1 1 1 0 0 0 0 0 0 0 0 0
		 0 0 0 0 ;
	setAttr ".fprt" yes;
select -ne :renderPartition;
	setAttr -s 2 ".st";
select -ne :renderGlobalsList1;
select -ne :defaultShaderList1;
	setAttr -s 4 ".s";
select -ne :postProcessList1;
	setAttr -s 2 ".p";
select -ne :defaultRenderingList1;
	setAttr -s 5 ".r";
select -ne :initialShadingGroup;
	setAttr -s 4 ".dsm";
	setAttr ".ro" yes;
select -ne :initialParticleSE;
	setAttr ".ro" yes;
select -ne :defaultRenderGlobals;
	setAttr ".ren" -type "string" "renderman";
select -ne :defaultResolution;
	setAttr ".w" 1920;
	setAttr ".h" 1080;
	setAttr ".pa" 1;
	setAttr ".dar" 1.7777777910232544;
select -ne :hardwareRenderGlobals;
	setAttr ".ctrs" 256;
	setAttr ".btrs" 512;
select -ne :ikSystem;
	setAttr -s 4 ".sol";
connectAttr ":time1.o" "nucleus1.cti";
connectAttr "bag_nclothShape.cust" "nucleus1.niao[0]";
connectAttr "marbles_nClothShape3.cust" "nucleus1.niao[2]";
connectAttr "bag_nclothShape.stst" "nucleus1.nias[0]";
connectAttr "marbles_nClothShape3.stst" "nucleus1.nias[2]";
connectAttr "dynamicConstraintShape1.evs" "nucleus1.is[0]";
connectAttr "dynamicConstraintShape1.evc" "nucleus1.ic[0]";
connectAttr "polyMergeVert2.out" "marblesShape.i";
connectAttr "marbles_nClothShape3.omsh" "outputCloth3.i";
connectAttr "nucleus1.stf" "marbles_nClothShape3.stf";
connectAttr ":time1.o" "marbles_nClothShape3.cti";
connectAttr "marblesShape.w" "marbles_nClothShape3.imsh";
connectAttr "nucleus1.noao[2]" "marbles_nClothShape3.nxst";
connectAttr "bag_scaleX.o" "bag.sx";
connectAttr "bag_scaleY.o" "bag.sy";
connectAttr "bag_scaleZ.o" "bag.sz";
connectAttr "bag_visibility.o" "bag.v";
connectAttr "bag_translateX.o" "bag.tx";
connectAttr "bag_translateY.o" "bag.ty";
connectAttr "bag_translateZ.o" "bag.tz";
connectAttr "bag_rotateX.o" "bag.rx";
connectAttr "bag_rotateY.o" "bag.ry";
connectAttr "bag_rotateZ.o" "bag.rz";
connectAttr "polySmoothFace2.out" "bagShape.i";
connectAttr "bag_nclothShape.omsh" "outputCloth4.i";
connectAttr ":time1.o" "bag_nclothShape.cti";
connectAttr "nucleus1.stf" "bag_nclothShape.stf";
connectAttr "bagShape.w" "bag_nclothShape.imsh";
connectAttr "nucleus1.noao[0]" "bag_nclothShape.nxst";
connectAttr "nClothShape1Cache1.ocd[0]" "bag_nclothShape.poss";
connectAttr "nClothShape1Cache1.ir" "bag_nclothShape.pfc";
connectAttr "nComponent1.ocp" "dynamicConstraintShape1.cid[0]";
connectAttr ":time1.o" "dynamicConstraintShape1.cti";
relationship "link" ":lightLinker1" ":initialShadingGroup.message" ":defaultLightSet.message";
relationship "link" ":lightLinker1" ":initialParticleSE.message" ":defaultLightSet.message";
relationship "shadowLink" ":lightLinker1" ":initialShadingGroup.message" ":defaultLightSet.message";
relationship "shadowLink" ":lightLinker1" ":initialParticleSE.message" ":defaultLightSet.message";
connectAttr "layerManager.dli[0]" "defaultLayer.id";
connectAttr "renderLayerManager.rlmi[0]" "defaultRenderLayer.rlid";
connectAttr ":rmanDefaultDisplay.msg" ":rmanGlobals.displays[0]";
connectAttr ":PxrPathTracer.msg" ":rmanGlobals.ri_integrator";
connectAttr "d_openexr.msg" ":rmanDefaultDisplay.displayType";
connectAttr "Ci.msg" ":rmanDefaultDisplay.displayChannels[0]";
connectAttr "a.msg" ":rmanDefaultDisplay.displayChannels[1]";
connectAttr "polyPlane2.out" "polyExtrudeFace2.ip";
connectAttr "marblesShape.wm" "polyExtrudeFace2.mp";
connectAttr "polyExtrudeFace2.out" "polyMergeVert2.ip";
connectAttr "marblesShape.wm" "polyMergeVert2.mp";
connectAttr "polyPlatonic2.output" "polySmoothFace2.ip";
connectAttr "bag_nclothShape.nuid" "nComponent1.obid";
connectAttr ":time1.o" "nClothShape1Cache1.tim";
connectAttr "defaultRenderLayer.msg" ":defaultRenderingList1.r" -na;
connectAttr ":rmanGlobals.msg" ":defaultRenderingList1.r" -na;
connectAttr ":rmanDefaultDisplay.msg" ":defaultRenderingList1.r" -na;
connectAttr "d_openexr.msg" ":defaultRenderingList1.r" -na;
connectAttr ":PxrPathTracer.msg" ":defaultRenderingList1.r" -na;
connectAttr "marblesShape.iog" ":initialShadingGroup.dsm" -na;
connectAttr "outputCloth3.iog" ":initialShadingGroup.dsm" -na;
connectAttr "bagShape.iog" ":initialShadingGroup.dsm" -na;
connectAttr "outputCloth4.iog" ":initialShadingGroup.dsm" -na;
// End of bag_of_money1.ma
