//Maya ASCII 2018 scene
//Name: door_hinge.ma
//Last modified: Fri, Nov 09, 2018 11:33:55 PM
//Codeset: UTF-8
requires maya "2018";
requires "stereoCamera" "10.0";
requires -nodeType "rmanDisplayChannel" -nodeType "d_openexr" -nodeType "rmanGlobals"
		 -nodeType "PxrPathTracer" -nodeType "rmanDisplay" "RenderMan_for_Maya.py" "1.0";
currentUnit -l centimeter -a degree -t film;
fileInfo "application" "maya";
fileInfo "product" "Maya 2018";
fileInfo "version" "2018";
fileInfo "cutIdentifier" "201706261615-f9658c4cfc";
fileInfo "osv" "Mac OS X 10.13.6";
fileInfo "license" "student";
createNode transform -n "door_hinge_top_original";
	rename -uid "EC92C09D-8C44-CDFE-EB07-C69EFAEEA0DC";
	setAttr ".rp" -type "double3" -1.3779708929462231e-08 -0.36818653345108032 -5.1472897529602051 ;
	setAttr ".sp" -type "double3" -1.3779708929462231e-08 -0.36818653345108032 -5.1472897529602051 ;
createNode mesh -n "door_hinge_top_originalShape" -p "door_hinge_top_original";
	rename -uid "D2DBFB13-4B40-209C-1E8C-D9BA706450DD";
	setAttr -k off ".v";
	setAttr ".vir" yes;
	setAttr ".vif" yes;
	setAttr ".pv" -type "double2" 1.4488879442214966 0.47241566330194473 ;
	setAttr ".uvst[0].uvsn" -type "string" "map1";
	setAttr -s 281 ".uvst[0].uvsp";
	setAttr ".uvst[0].uvsp[0:249]" -type "float2" 1.94888794 0.47078732 1.86276019
		 0.20195852 1.85580003 0.1830544 1.83899629 0.17522402 1.8221935 0.1830544 1.81523263
		 0.20195858 1.73461616 0.31859958 1.71835721 0.3264299 1.71162283 0.34533405 1.61593449
		 0.13945778 1.94769037 0.13945778 1.28177452 0.80537355 1.28177452 0.47361782 1.61593449
		 0.47361782 1.61593449 0.80537355 0.072271824 1.83860064 0.072271824 1.82464051 1.72538519
		 1.79345441 1.72538519 1.80741453 0.072271824 1.85256088 1.72538519 1.82137465 0.072271824
		 1.81068039 1.72538519 1.77949429 0.072271824 1.866521 1.72538519 1.83533478 0.072271824
		 1.92236161 0.072271824 1.90840149 1.72538519 1.87721527 1.72538519 1.89117539 0.072271824
		 1.88048124 1.72538519 1.8492949 0.072271824 1.89444137 1.72538519 1.86325502 1.28177452
		 0.13945778 1.61593449 0.13945778 1.28177452 0.13945778 1.61593449 0.13945778 1.28177452
		 0.13945778 1.61593449 0.13945778 1.28177452 0.13945778 1.61593449 0.13945778 1.28177452
		 0.13945778 1.61593449 0.13945778 1.28177452 0.13945778 1.28177452 0.47361782 1.28177452
		 0.47361782 1.61593449 0.47361782 1.61593449 0.13945778 1.28177452 0.13945778 1.61593449
		 0.47361782 1.87842059 0.69099027 1.87842059 0.67493904 1.8606348 0.67714906 1.8606348
		 0.69320029 1.87842059 0.75813282 1.87842059 0.74208158 1.8606348 0.7442916 1.8606348
		 0.76034284 1.87842059 0.71653593 1.87842059 0.70267028 1.8606348 0.7048803 1.8606348
		 0.71874595 1.61593449 0.13945778 1.28177452 0.13945778 1.87842059 0.73040152 1.8606348
		 0.73261154 1.28177452 0.47361782 1.28177452 0.47361782 1.61593449 0.47361782 1.61593449
		 0.47361782 1.28177452 0.47361782 1.61593449 0.47361782 1.28177452 0.47361782 1.61593449
		 0.13945778 1.28177452 0.13945778 1.28177452 0.47361782 1.61593449 0.47361782 1.61593449
		 0.47361782 1.28177452 0.47361782 1.61593449 0.13945778 1.28177452 0.13945778 1.28177452
		 0.47361782 1.61593449 0.47361782 1.61593449 0.47361782 0.94960183 0.47188458 1.12169409
		 0.31414783 1.12855625 0.33305201 1.14512277 0.34088233 1.16168916 0.33305201 1.16855133
		 0.31414783 0.9500187 0.47361782 1.94769037 0.47361782 1.71835721 0.36423826 1.73461616
		 0.37206858 1.75087512 0.36423826 1.75760925 0.34533405 1.94810712 0.47188458 1.28177452
		 0.31638062 1.28177452 0.28927147 1.28177452 0.29645234 1.61593449 0.31417063 1.61593449
		 0.29424235 1.61593449 0.28706145 1.87842059 0.66151589 1.8606348 0.66372591 1.87842059
		 0.6472078 1.8606348 0.64941782 1.28177452 0.33761263 1.28177452 0.3447935 1.61593449
		 0.34258348 1.61593449 0.33540261 1.28177452 0.33827573 1.28177452 0.31734085 1.28177452
		 0.29616976 1.61593449 0.29395977 1.61593449 0.31513083 1.61593449 0.33606574 0.14888948
		 0.087214388 0.13946694 0.097514965 1.95243835 1.7916249 1.9618609 1.78132415 0.1583119
		 0.076913811 1.97128344 1.77102363 0.16773444 0.066613294 1.98070598 1.76072299 0.13004434
		 0.10781554 1.94301605 1.8019253 0.43280712 1.11432302 0.43280712 1.26710713 0.27891567
		 1.26710713 0.27891567 1.11432302 0.10177671 0.13871726 0.092354231 0.14901784 1.90532589
		 1.84312749 1.91474843 1.83282697 0.12062185 0.11811612 1.93359327 1.81222582 0.11119931
		 0.12841663 1.92417097 1.82252657 1.75087464 0.3264299 1.82219279 0.22086267 1.83899653
		 0.22869305 1.85580003 0.22086273 0.9500187 0.13945778 1.16168916 0.29524365 1.14512265
		 0.28741333 1.030012012 0.25501716 1.046064854 0.24718682 1.052714109 0.22828265 1.046064854
		 0.2093785 1.030012012 0.20154814 0.94888794 0.14199668 0.17662245 1.57887411 0.16302913
		 1.57887411 0.16982579 1.5652808 0.14943582 1.57887411 0.15623248 1.5652808 0.19021577
		 1.57887411 0.18341911 1.5652808 0.1358425 1.57887411 0.14263916 1.5652808 0.20380902
		 1.57887411 0.19701236 1.5652808 0.27177554 1.57887411 0.25818223 1.57887411 0.26497889
		 1.5652808 0.21740234 1.57887411 0.21060568 1.5652808 0.24458897 1.57887411 0.25138563
		 1.5652808 0.23099566 1.57887411 0.224199 1.5652808 0.23779231 1.5652808 0.17662245
		 1.60606062 0.16302913 1.60606062 0.16302913 1.59246743 0.17662245 1.59246743 0.17662245
		 1.61965394 0.16302913 1.61965394 0.14943582 1.60606062 0.14943582 1.59246743 0.14943582
		 1.61965394 0.17662245 1.63324726 0.16302913 1.63324726 0.19021577 1.60606062 0.19021577
		 1.59246743 0.4490636 0.9743188 0.44905823 0.97433466 0.43044364 0.96081036 0.43045765
		 0.96080083 0.14943582 1.63324726 0.19021577 1.61965394 0.42333353 0.93892759 0.42335081
		 0.93892831 0.1358425 1.59246743 0.1358425 1.60606062 0.19021577 1.63324726 0.1358425
		 1.61965394 0.20380902 1.59246743 1.013959289 0.20937847 1.0073099136 0.22828265 1.01395905
		 0.24718677 1.12855625 0.29524365 0.47206181 0.9743188 0.47206718 0.97433466 0.20380902
		 1.60606062 0.27177554 1.59246743 0.25818223 1.59246743 0.1358425 1.63324726 0.20380902
		 1.61965394 0.43044364 0.91704482 0.43045765 0.91705567 0.21740234 1.59246743 0.27177554
		 1.60606062 0.25818223 1.60606062 0.24458897 1.59246743 0.20380902 1.63324726 0.23099566
		 1.59246743 0.21740234 1.60606062 0.27177554 1.61965394 0.25818223 1.61965394 0.49066776
		 0.96080083 0.49068177 0.96081036 0.24458897 1.60606062 0.27177554 1.63324726 0.25818223
		 1.63324726 0.21740234 1.61965394 0.23099566 1.60606062 0.44905823 0.90352052 0.4490636
		 0.90353769 0.24458897 1.61965394 0.21740234 1.63324726 0.23099566 1.61965394 0.49777454
		 0.93892831 0.49779189 0.93892759 0.24458897 1.63324726 0.47206718 0.90352052 0.47206181
		 0.90353769 0.23099566 1.63324726 0.49066776 0.91705567 0.49068177 0.91704482 0.65787435
		 1.61286664 0.3986924 1.61286664 0.3986924 1.59482265 0.65787435 1.59482265 0.65787435
		 1.63091075 0.3986924 1.63091075 0.65787435 1.64895487 0.3986924 1.64895487 0.65787435
		 1.57677865;
	setAttr ".uvst[0].uvsp[250:280]" 0.3986924 1.57677865 0.3986924 1.55873442
		 0.65787435 1.55873442 0.65787435 1.4865582 0.3986924 1.4865582 0.3986924 1.4685142
		 0.65787435 1.4685142 0.3986924 1.54069042 0.65787435 1.54069042 0.65787435 1.50460231
		 0.3986924 1.50460231 0.3986924 1.52264643 0.65787435 1.52264643 0.6556142 1.5768187
		 0.6538707 1.57681882 0.42732632 1.5768187 0.42613608 1.5768187 0.42613608 1.59478235
		 0.42732632 1.59478235 0.42807987 1.59478235 0.6556142 1.59478235 0.14442554 0.67109287
		 0.15153572 0.69297564 0.17015031 0.70649993 0.19315925 0.70649993 0.21177384 0.69297564
		 0.21888396 0.67109287 0.21177378 0.6492101 0.19315925 0.6356858 0.17015031 0.6356858
		 0.15153572 0.6492101;
	setAttr ".cuvs" -type "string" "map1";
	setAttr ".dcc" -type "string" "Ambient+Diffuse";
	setAttr ".covm[0]"  0 1 1;
	setAttr ".cdvm[0]"  0 1 1;
	setAttr -s 79 ".pt";
	setAttr ".pt[1]" -type "float3" 0 0 -0.5478825 ;
	setAttr ".pt[2]" -type "float3" 0 0 -0.5478825 ;
	setAttr ".pt[3]" -type "float3" 0 0 -0.5478825 ;
	setAttr ".pt[4]" -type "float3" 0 0 -0.5478825 ;
	setAttr ".pt[5]" -type "float3" 0 0 -0.5478825 ;
	setAttr ".pt[13]" -type "float3" 0 0 -4.7683716e-07 ;
	setAttr ".pt[31]" -type "float3" -1.8626451e-09 -7.4505806e-09 6.519258e-09 ;
	setAttr ".pt[45]" -type "float3" 0 2.2737368e-13 0 ;
	setAttr ".pt[46]" -type "float3" 0 2.2737368e-13 0 ;
	setAttr ".pt[47]" -type "float3" 0 2.2737368e-13 0 ;
	setAttr ".pt[48]" -type "float3" 0 2.2737368e-13 0 ;
	setAttr ".pt[49]" -type "float3" 0 2.2737368e-13 0 ;
	setAttr ".pt[50]" -type "float3" 0 2.2737368e-13 0 ;
	setAttr ".pt[51]" -type "float3" 0 2.2737368e-13 0 ;
	setAttr ".pt[52]" -type "float3" 0 2.2737368e-13 0 ;
	setAttr ".pt[53]" -type "float3" 0 2.2737368e-13 0 ;
	setAttr ".pt[54]" -type "float3" 0 2.2737368e-13 0 ;
	setAttr ".pt[55]" -type "float3" 0 2.2737368e-13 0 ;
	setAttr ".pt[56]" -type "float3" 0 2.2737368e-13 0 ;
	setAttr ".pt[59]" -type "float3" 0 2.2737368e-13 0 ;
	setAttr ".pt[60]" -type "float3" 0 2.2737368e-13 0 ;
	setAttr ".pt[81]" -type "float3" 0 2.2737368e-13 0 ;
	setAttr ".pt[82]" -type "float3" 0 2.2737368e-13 0 ;
	setAttr ".pt[83]" -type "float3" 0 0 -0.5478825 ;
	setAttr ".pt[84]" -type "float3" 0 0 -0.5478825 ;
	setAttr ".pt[85]" -type "float3" 0 0 -0.5478825 ;
	setAttr ".pt[86]" -type "float3" 0 0 -0.55548722 ;
	setAttr ".pt[87]" -type "float3" 0 0 -0.5478825 ;
	setAttr ".pt[88]" -type "float3" 0 0 -0.5478825 ;
	setAttr ".pt[89]" -type "float3" 0 0 -0.5478825 ;
	setAttr ".pt[90]" -type "float3" 0 0 -0.5478825 ;
	setAttr ".pt[92]" -type "float3" 0 0 -0.5478825 ;
	setAttr ".pt[93]" -type "float3" 0 0 -0.5478825 ;
	setAttr ".pt[94]" -type "float3" 0 0 -0.5478825 ;
	setAttr -s 167 ".vt";
	setAttr ".vt[0:165]"  0.1076562 1.32559204 -4.81447411 0.1076562 0.53271633 -0.94501263
		 0.1076562 0.43702751 -0.90537703 0.1076562 0.39739192 -0.80968821 0.1076562 0.43702751 -0.71399939
		 0.1076562 0.53271633 -0.67436379 0.1076562 0.39739192 1.68429041 0.1076562 0.43702751 1.77997923
		 0.1076562 0.53271633 1.81961489 0.1076562 -0.35152742 4.83384466 0.1076562 -0.35152742 -4.81447411
		 -0.1076562 1.33991933 -4.81447411 -0.1076562 1.33991933 4.83384466 0.1076562 1.33991933 4.83384418
		 0.1076562 1.33991933 -4.81447411 0.1076562 0.43702751 1.58860159 0.1076562 0.53271633 1.54896593
		 -0.1076562 0.53271627 1.54896641 -0.1076562 0.43702751 1.58860159 -0.1076562 0.39739192 1.68429041
		 0.1076562 0.62840515 1.58860159 -0.1076562 0.62840515 1.58860159 -0.1076562 0.43702751 1.77997923
		 0.1076562 0.66804075 1.68429041 -0.1076562 0.66804075 1.68429041 -0.1076562 0.53271633 1.81961489
		 0.1076562 0.62840515 1.77997923 -0.1076562 0.62840515 1.77997923 -0.1076562 -0.35152742 4.83384466
		 0.10662688 -0.14371684 4.83384466 -0.10662688 -0.14371684 4.83384466 0.10662688 -0.23468289 4.98049879
		 -0.10662688 -0.23468289 4.98049879 0.10662688 -0.28265414 5.11817741 -0.10662688 -0.28265414 5.11817741
		 0.10662688 -0.28265414 5.27860832 -0.10662688 -0.28265414 5.27860832 0.10662688 -0.23177704 5.47660065
		 -0.10662688 -0.23177704 5.47660065 -0.10662688 1.13210881 4.83384466 -0.10662688 1.22307503 4.98049879
		 0.10662688 1.13210881 4.83384466 0.10662688 -0.097065598 5.79018974 -0.10662688 -0.097065598 5.79018974
		 0.10662688 1.22307503 4.98049879 0.10662688 0.40363953 5.26352501 0.10662688 0.43702751 5.15275335
		 -0.10662688 0.43702751 5.15275335 -0.10662688 0.40363953 5.26352501 0.10662688 0.62840515 5.15275335
		 0.10662688 0.66179311 5.26352501 -0.10662688 0.66179311 5.26352501 -0.10662688 0.62840515 5.15275335
		 0.10662688 0.53271633 5.38376665 0.10662688 0.43702751 5.34413099 -0.10662688 0.43702751 5.34413099
		 -0.10662688 0.53271633 5.38376665 0.10662688 0.074789345 6.052481651 -0.10662688 0.074789345 6.052481651
		 0.10662688 0.62840515 5.34413099 -0.10662688 0.62840515 5.34413099 -0.10662688 1.22016919 5.47660065
		 -0.10662688 1.08545804 5.79018974 0.10662688 1.22016919 5.47660065 0.10662688 1.08545804 5.79018974
		 -0.10662688 1.2710464 5.11817741 0.10662688 1.2710464 5.11817741 -0.10662688 0.91360295 6.052481651
		 0.10662688 0.33498704 6.35211849 -0.10662688 0.33498704 6.35211849 -0.10662688 1.2710464 5.27860832
		 0.10662688 1.2710464 5.27860832 0.10662688 0.91360295 6.052481651 -0.10662688 0.65340525 6.35211849
		 0.10662688 0.44079393 6.45588207 -0.10662688 0.44079393 6.45588207 -0.10662688 0.54759842 6.45588207
		 0.10662688 0.65340525 6.35211849 0.10662688 0.54759842 6.45588207 -0.1076562 1.33114612 -4.81447411
		 0.1076562 1.33114612 -4.81447411 -0.10662688 0.52966255 5.11691236 0.10662688 0.52966255 5.11691236
		 0.1076562 0.62840515 -0.71399939 -0.1076562 0.53271633 -0.67436379 -0.1076562 0.62840515 -0.71399939
		 0.1076562 0.66804075 -0.80968821 -0.1076562 0.66804075 -0.80968821 0.1076562 0.62840515 -0.90537703
		 -0.1076562 0.62840515 -0.90537703 -0.1076562 0.43702751 -0.71399939 -0.1076562 -0.35152742 -4.81447411
		 -0.1076562 0.53271633 -0.94501263 -0.1076562 0.39739192 -0.80968821 -0.1076562 0.43702751 -0.90537703
		 -0.1076562 -0.33867607 -4.81447411 0.033401065 1.87486315 -5.044491768 0.08744511 1.87486315 -5.083757401
		 0 1.89198256 -5.14728975 0.10808811 1.87486315 -5.14728975 -0.033401057 1.87486315 -5.044491768
		 0.087445118 1.87486315 -5.21082211 -0.087445118 1.87486315 -5.083757401 0.033401057 1.87486315 -5.25008774
		 -0.10808811 1.87486315 -5.14728975 -0.033401076 1.87486315 -5.25008774 -0.087445132 1.87486315 -5.21082211
		 0.087445118 1.74779797 -4.87816143 0.22893429 1.74779797 -4.98095894 0.16633049 1.82518053 -5.026443481
		 0.063532598 1.82518053 -4.95175648 0.10279791 1.65029025 -4.83091068 0.26912838 1.65029025 -4.95175648
		 0.28297833 1.74779797 -5.14728975 0.20559578 1.82518053 -5.14728975 0.33266097 1.65029025 -5.14728975
		 0.10808811 1.54220223 -4.8146286 0.28297833 1.54220223 -4.94169426 -0.087445103 1.74779797 -4.87816143
		 -0.063532583 1.82518053 -4.95175648 0.10813844 1.54220223 -4.81447411 0.28311008 1.54220223 -4.94159794
		 0.34978044 1.54220223 -5.14728975 -0.10279789 1.65029025 -4.83091068 0.34994331 1.54220223 -5.14728975
		 0.1663305 1.82518053 -5.26813602 0.22893429 1.74779797 -5.31362057 -0.10808809 1.54220223 -4.8146286
		 0.26912841 1.65029025 -5.34282303 -0.1663305 1.82518053 -5.026443481 -0.10813842 1.54220223 -4.81447411
		 -0.22893429 1.74779797 -4.98095894 0.063532583 1.82518053 -5.34282303 0.28297836 1.54220223 -5.35288525
		 -0.26912841 1.65029025 -4.95175648 0.28311011 1.54220223 -5.35298157 -0.20559581 1.82518053 -5.14728975
		 0.087445095 1.74779797 -5.41641808 -0.063532621 1.82518053 -5.34282303 -0.28297836 1.54220223 -4.94169426
		 -0.16633052 1.82518053 -5.26813602 -0.28297836 1.74779797 -5.14728975 0.10279788 1.65029025 -5.4636693
		 -0.28311011 1.54220223 -4.94159794 -0.087445155 1.74779797 -5.41641808 0.10808808 1.54220223 -5.4799509
		 -0.332661 1.65029025 -5.14728975 -0.22893432 1.74779797 -5.31362057 0.10813841 1.54220223 -5.4801054
		 -0.10279794 1.65029025 -5.46366882 -0.34978047 1.54220223 -5.14728975 -0.26912844 1.65029025 -5.34282303
		 -0.34994334 1.54220223 -5.14728975 -0.10808816 1.54220223 -5.4799509 -0.10813849 1.54220223 -5.4801054
		 -0.28297839 1.54220223 -5.35288525 -0.28311014 1.54220223 -5.35298157 0.28311008 -0.36818653 -4.94159794
		 0.10813844 -0.36818653 -4.81447411 0.34994331 -0.36818653 -5.14728975 0.28311011 -0.36818653 -5.35298157
		 -0.10813842 -0.36818653 -4.81447411 -0.28311011 -0.36818653 -4.94159794 0.10813841 -0.36818653 -5.4801054
		 -0.34994334 -0.36818653 -5.14728975 -0.10813849 -0.36818653 -5.4801054;
	setAttr ".vt[166]" -0.28311014 -0.36818653 -5.35298157;
	setAttr -s 314 ".ed";
	setAttr ".ed[0:165]"  0 1 1 1 2 0 2 3 0 3 4 0 4 5 0 5 6 1 6 7 0 7 8 0 8 9 1
		 9 10 0 10 0 0 11 12 0 12 13 0 13 14 0 14 11 0 15 16 0 16 17 0 17 18 0 18 15 0 6 15 0
		 18 19 0 19 6 0 16 20 0 20 21 0 21 17 0 19 22 0 22 7 0 20 23 0 23 24 0 24 21 0 22 25 0
		 25 8 0 23 26 0 26 27 0 27 24 0 26 8 0 25 27 0 28 9 0 9 29 0 29 30 0 30 28 0 29 31 0
		 31 32 0 32 30 0 31 33 0 33 34 0 34 32 0 33 35 0 35 36 0 36 34 0 35 37 0 37 38 0 38 36 0
		 12 28 0 30 39 0 39 12 0 32 40 0 40 39 0 9 13 0 13 41 0 41 29 0 37 42 0 42 43 0 43 38 0
		 41 44 0 44 31 0 45 46 0 46 47 0 47 48 0 48 45 0 49 50 0 50 51 0 51 52 0 52 49 0 53 54 0
		 54 55 0 55 56 0 56 53 0 42 57 0 57 58 0 58 43 0 59 53 0 56 60 0 60 59 0 61 38 0 43 62 0
		 62 61 0 39 41 0 40 44 0 37 63 0 63 64 0 64 42 0 40 65 0 65 66 0 66 44 0 58 67 0 67 62 0
		 57 68 0 68 69 0 69 58 0 65 70 0 70 71 0 71 66 0 64 72 0 72 57 0 69 73 0 73 67 0 70 61 0
		 61 63 0 63 71 0 68 74 0 74 75 0 75 69 0 62 64 0 75 76 0 76 73 0 72 77 0 77 68 0 67 72 0
		 74 78 0 78 76 0 73 77 0 77 78 0 79 17 1 25 28 1 11 79 0 16 80 1 80 14 0 81 34 1 36 48 1
		 47 81 0 33 82 1 82 46 0 45 35 1 82 81 0 82 49 0 52 81 0 54 45 0 48 55 0 65 81 1 51 70 1
		 50 59 0 60 51 0 82 66 1 71 50 1 83 5 0 5 84 0 84 85 0 85 83 0 86 83 0 85 87 0 87 86 0
		 88 86 0 87 89 0 89 88 0 4 90 0 90 84 0 28 91 0 91 10 0 1 88 0 89 92 0 92 1 0 3 93 0
		 93 90 0 2 94 0 94 93 0;
	setAttr ".ed[166:313]" 92 94 0 0 80 0 19 87 1 93 95 1 95 91 0 96 97 0 97 98 0
		 98 96 0 97 99 0 99 98 0 100 96 0 98 100 0 99 101 0 101 98 0 102 100 0 98 102 0 101 103 0
		 103 98 0 104 102 0 98 104 0 103 105 0 105 98 0 106 104 0 98 106 0 105 106 0 107 108 0
		 108 109 0 109 110 0 110 107 0 111 112 0 112 108 0 107 111 0 108 113 0 113 114 0 114 109 0
		 112 115 0 115 113 0 109 97 0 96 110 0 116 117 0 117 112 0 111 116 0 114 99 0 118 107 0
		 110 119 0 119 118 0 116 120 1 120 121 0 121 117 1 117 122 0 122 115 0 100 119 0 123 111 0
		 118 123 0 121 124 0 124 122 1 114 125 0 125 101 0 113 126 0 126 125 0 127 116 0 123 127 0
		 115 128 0 128 126 0 129 119 0 102 129 0 79 95 0 127 130 1 130 120 0 131 118 0 129 131 0
		 125 132 0 132 103 0 122 133 0 133 128 0 134 123 0 131 134 0 124 135 0 135 133 1 136 129 0
		 104 136 0 126 137 0 137 132 0 132 138 0 138 105 0 139 127 0 134 139 0 140 136 0 106 140 0
		 138 140 0 141 131 0 136 141 0 128 142 0 142 137 0 139 143 1 143 130 0 137 144 0 144 138 0
		 133 145 0 145 142 0 146 134 0 141 146 0 147 141 0 140 147 0 135 148 0 148 145 1 144 147 0
		 142 149 0 149 144 0 150 139 0 146 150 0 151 146 0 147 151 0 150 152 1 152 143 0 149 151 0
		 145 153 0 153 149 0 148 154 0 154 153 1 155 150 0 151 155 0 153 155 0 155 156 1 156 152 0
		 154 156 0 157 121 0 120 158 0 158 157 0 159 124 0 157 159 0 160 135 0 159 160 0 161 130 0
		 143 162 0 162 161 0 163 148 0 160 163 0 152 164 0 164 162 0 165 154 0 163 165 0 156 166 0
		 166 164 0 165 166 0 161 91 1 14 120 1 161 158 0;
	setAttr -s 143 -ch 628 ".fc[0:142]" -type "polyFaces" 
		f 11 0 1 2 3 4 5 6 7 8 9 10
		mu 0 11 0 1 2 3 4 5 6 7 8 9 10
		f 4 11 12 13 14
		mu 0 4 11 12 13 14
		f 4 15 16 17 18
		mu 0 4 15 16 17 18
		f 4 19 -19 20 21
		mu 0 4 19 15 18 20
		f 4 22 23 24 -17
		mu 0 4 16 21 22 17
		f 4 -7 -22 25 26
		mu 0 4 23 19 20 24
		f 4 27 28 29 -24
		mu 0 4 25 26 27 28
		f 4 -8 -27 30 31
		mu 0 4 29 23 24 30
		f 4 32 33 34 -29
		mu 0 4 26 31 32 27
		f 4 35 -32 36 -34
		mu 0 4 31 29 30 32
		f 4 37 38 39 40
		mu 0 4 33 9 34 35
		f 4 -40 41 42 43
		mu 0 4 35 34 36 37
		f 4 -43 44 45 46
		mu 0 4 37 36 38 39
		f 4 -46 47 48 49
		mu 0 4 39 38 40 41
		f 4 -49 50 51 52
		mu 0 4 41 40 42 43
		f 4 53 -41 54 55
		mu 0 4 12 33 35 44
		f 4 -55 -44 56 57
		mu 0 4 44 35 37 45
		f 4 58 59 60 -39
		mu 0 4 9 13 46 34
		f 4 -52 61 62 63
		mu 0 4 43 42 47 48
		f 4 -61 64 65 -42
		mu 0 4 34 46 49 36
		f 4 66 67 68 69
		mu 0 4 50 51 52 53
		f 4 70 71 72 73
		mu 0 4 54 55 56 57
		f 4 74 75 76 77
		mu 0 4 58 59 60 61
		f 4 -63 78 79 80
		mu 0 4 48 47 62 63
		f 4 81 -78 82 83
		mu 0 4 64 58 61 65
		f 4 84 -64 85 86
		mu 0 4 66 43 48 67
		f 4 -13 -56 87 -60
		mu 0 4 13 12 44 46
		f 4 -88 -58 88 -65
		mu 0 4 46 44 45 49
		f 4 89 90 91 -62
		mu 0 4 42 68 69 47
		f 4 -89 92 93 94
		mu 0 4 49 45 70 71
		f 4 -86 -81 95 96
		mu 0 4 67 48 63 72
		f 4 -80 97 98 99
		mu 0 4 63 62 73 74
		f 4 -94 100 101 102
		mu 0 4 71 70 75 76
		f 4 -92 103 104 -79
		mu 0 4 47 69 77 62
		f 4 -96 -100 105 106
		mu 0 4 72 63 74 78
		f 4 -102 107 108 109
		mu 0 4 76 75 66 68
		f 4 -99 110 111 112
		mu 0 4 74 73 79 80
		f 4 -109 -87 113 -91
		mu 0 4 68 66 67 69
		f 4 -106 -113 114 115
		mu 0 4 78 74 80 81
		f 4 -105 116 117 -98
		mu 0 4 62 77 82 73
		f 4 -114 -97 118 -104
		mu 0 4 69 67 72 77
		f 4 -112 119 120 -115
		mu 0 4 80 79 83 81
		f 4 -119 -107 121 -117
		mu 0 4 77 72 78 82
		f 4 -118 122 -120 -111
		mu 0 4 73 82 83 79
		f 4 -122 -116 -121 -123
		mu 0 4 82 78 81 83
		f 9 123 -25 -30 -35 -37 124 -54 -12 125
		mu 0 9 84 85 86 87 88 89 33 12 90
		f 9 -14 -59 -9 -36 -33 -28 -23 126 127
		mu 0 9 91 13 9 8 92 93 94 95 96
		f 5 128 -50 129 -69 130
		mu 0 5 97 39 41 98 99
		f 5 131 132 -67 133 -48
		mu 0 5 38 100 101 102 40
		f 4 -133 134 -131 -68
		mu 0 4 51 103 104 52
		f 4 135 -74 136 -135
		mu 0 4 103 105 106 104
		f 4 137 -70 138 -76
		mu 0 4 59 50 53 60
		f 5 139 -137 -73 140 -101
		mu 0 5 70 97 107 108 75
		f 4 141 -84 142 -72
		mu 0 4 55 64 65 56
		f 5 143 -103 144 -71 -136
		mu 0 5 100 71 76 109 110
		f 5 -57 -47 -129 -140 -93
		mu 0 5 45 37 39 97 70
		f 5 -66 -95 -144 -132 -45
		mu 0 5 36 49 71 100 38
		f 9 -141 -143 -83 -77 -139 -130 -53 -85 -108
		mu 0 9 75 108 111 112 113 98 41 43 66
		f 9 -134 -138 -75 -82 -142 -145 -110 -90 -51
		mu 0 9 40 102 114 115 116 109 76 68 42
		f 4 145 146 147 148
		mu 0 4 117 118 119 120
		f 4 149 -149 150 151
		mu 0 4 121 117 120 122
		f 4 152 -152 153 154
		mu 0 4 123 121 122 124
		f 4 -5 155 156 -147
		mu 0 4 118 125 126 119
		f 4 -10 -38 157 158
		mu 0 4 127 128 129 130
		f 4 159 -155 160 161
		mu 0 4 131 132 133 134
		f 4 -4 162 163 -156
		mu 0 4 125 135 136 126
		f 4 -3 164 165 -163
		mu 0 4 135 137 138 136
		f 4 -2 -162 166 -165
		mu 0 4 137 131 134 138
		f 10 -127 -16 -20 -6 -146 -150 -153 -160 -1 167
		mu 0 10 96 95 139 6 5 140 141 142 1 0
		f 11 -158 -125 -31 -26 168 -151 -148 -157 -164 169 170
		mu 0 11 143 33 89 144 145 146 147 148 149 150 151
		f 3 171 172 173
		mu 0 3 152 153 154
		f 3 174 175 -173
		mu 0 3 153 155 156
		f 3 176 -174 177
		mu 0 3 157 152 158
		f 3 178 179 -176
		mu 0 3 155 159 160
		f 3 180 -178 181
		mu 0 3 161 157 162
		f 3 182 183 -180
		mu 0 3 163 164 165
		f 3 184 -182 185
		mu 0 3 166 161 167
		f 3 186 187 -184
		mu 0 3 164 168 169
		f 3 188 -186 189
		mu 0 3 170 166 171
		f 3 190 -190 -188
		mu 0 3 168 170 172
		f 4 191 192 193 194
		mu 0 4 173 174 175 176
		f 4 195 196 -192 197
		mu 0 4 177 178 174 173
		f 4 198 199 200 -193
		mu 0 4 174 179 180 175
		f 4 201 202 -199 -197
		mu 0 4 178 181 179 174
		f 4 -194 203 -172 204
		mu 0 4 176 175 153 152
		f 4 205 206 -196 207
		mu 0 4 182 183 178 177
		f 4 -201 208 -175 -204
		mu 0 4 175 180 155 153
		f 4 209 -195 210 211
		mu 0 4 184 173 176 185
		f 4 212 213 214 -206
		mu 0 4 186 187 188 189
		f 4 215 216 -202 -207
		mu 0 4 183 190 181 178
		f 4 -211 -205 -177 217
		mu 0 4 185 176 152 157
		f 4 218 -198 -210 219
		mu 0 4 191 177 173 184
		f 4 -215 220 221 -216
		mu 0 4 189 188 192 193
		f 4 222 223 -179 -209
		mu 0 4 180 194 159 155
		f 4 224 225 -223 -200
		mu 0 4 179 195 194 180
		f 4 226 -208 -219 227
		mu 0 4 196 182 177 191
		f 4 228 229 -225 -203
		mu 0 4 181 197 195 179
		f 4 230 -218 -181 231
		mu 0 4 198 185 157 161
		f 10 -170 -166 -167 -161 -154 -169 -21 -18 -124 232
		mu 0 10 151 150 199 200 201 146 145 202 85 84
		f 4 233 234 -213 -227
		mu 0 4 203 204 187 186
		f 4 235 -212 -231 236
		mu 0 4 205 184 185 198
		f 4 237 238 -183 -224
		mu 0 4 206 207 164 163
		f 4 239 240 -229 -217
		mu 0 4 190 208 197 181
		f 4 241 -220 -236 242
		mu 0 4 209 191 184 205
		f 4 -222 243 244 -240
		mu 0 4 193 192 210 211
		f 4 245 -232 -185 246
		mu 0 4 212 198 161 166
		f 4 247 248 -238 -226
		mu 0 4 213 214 207 206
		f 4 249 250 -187 -239
		mu 0 4 207 215 168 164
		f 4 251 -228 -242 252
		mu 0 4 216 196 191 209
		f 4 253 -247 -189 254
		mu 0 4 217 212 166 170
		f 4 255 -255 -191 -251
		mu 0 4 215 217 170 168
		f 4 256 -237 -246 257
		mu 0 4 218 205 198 212
		f 4 258 259 -248 -230
		mu 0 4 219 220 214 213
		f 4 260 261 -234 -252
		mu 0 4 221 222 204 203
		f 4 262 263 -250 -249
		mu 0 4 214 223 215 207
		f 4 264 265 -259 -241
		mu 0 4 224 225 220 219
		f 4 266 -243 -257 267
		mu 0 4 226 209 205 218
		f 4 268 -258 -254 269
		mu 0 4 227 218 212 217
		f 4 -245 270 271 -265
		mu 0 4 211 210 228 229
		f 4 272 -270 -256 -264
		mu 0 4 223 227 217 215
		f 4 273 274 -263 -260
		mu 0 4 220 230 223 214
		f 4 275 -253 -267 276
		mu 0 4 231 216 209 226
		f 4 277 -268 -269 278
		mu 0 4 232 226 218 227
		f 4 279 280 -261 -276
		mu 0 4 233 234 222 221
		f 4 281 -279 -273 -275
		mu 0 4 230 232 227 223
		f 4 282 283 -274 -266
		mu 0 4 225 235 230 220
		f 4 -272 284 285 -283
		mu 0 4 229 228 236 237
		f 4 286 -277 -278 287
		mu 0 4 238 231 226 232
		f 4 288 -288 -282 -284
		mu 0 4 235 238 232 230
		f 4 289 290 -280 -287
		mu 0 4 239 240 234 233
		f 4 -286 291 -290 -289
		mu 0 4 237 236 240 239
		f 4 292 -214 293 294
		mu 0 4 241 242 243 244
		f 4 295 -221 -293 296
		mu 0 4 245 246 242 241
		f 4 297 -244 -296 298
		mu 0 4 247 248 246 245
		f 4 299 -262 300 301
		mu 0 4 249 250 251 252
		f 4 302 -271 -298 303
		mu 0 4 253 254 255 256
		f 4 -301 -281 304 305
		mu 0 4 252 251 257 258
		f 4 306 -285 -303 307
		mu 0 4 259 260 254 253
		f 4 -305 -291 308 309
		mu 0 4 258 257 261 262
		f 4 -309 -292 -307 310
		mu 0 4 262 261 260 259
		f 8 -235 -300 311 -171 -233 -126 -15 312
		mu 0 8 243 250 249 263 264 265 266 267
		f 8 -294 -313 -128 -168 -11 -159 -312 313
		mu 0 8 244 243 267 268 269 270 263 249
		f 10 -310 -311 -308 -304 -299 -297 -295 -314 -302 -306
		mu 0 10 271 272 273 274 275 276 277 278 279 280;
	setAttr ".cd" -type "dataPolyComponent" Index_Data Edge 0 ;
	setAttr ".cvd" -type "dataPolyComponent" Index_Data Vertex 0 ;
	setAttr ".pd[0]" -type "dataPolyComponent" Index_Data UV 0 ;
	setAttr ".hfd" -type "dataPolyComponent" Index_Data Face 0 ;
	setAttr ".ai_translator" -type "string" "polymesh";
createNode transform -n "door_hinge_bottom_original";
	rename -uid "6B23C136-B146-7587-1185-38821015CB1A";
	setAttr ".rp" -type "double3" -0.82641053199768066 0.059131603688001633 -5.1865358352661133 ;
	setAttr ".sp" -type "double3" -0.82641053199768066 0.059131603688001633 -5.1865358352661133 ;
createNode mesh -n "door_hinge_bottom_originalShape" -p "door_hinge_bottom_original";
	rename -uid "EEF86964-9447-4F5F-805D-DEB9614A1F91";
	setAttr -k off ".v";
	setAttr ".vir" yes;
	setAttr ".vif" yes;
	setAttr ".pv" -type "double2" 0.63345295994259354 0.51613096005303727 ;
	setAttr ".uvst[0].uvsn" -type "string" "map1";
	setAttr -s 82 ".uvst[0].uvsp[0:81]" -type "float2" 0.30835372 0.20234306
		 0.32331055 0.15631069 0.3836894 0.20331106 0.32331049 0.24837546 0.36246806 0.12786108
		 0.36246806 0.27682504 0.41086936 0.12786107 0.41086942 0.27682504 0.45002687 0.15631059
		 0.45002687 0.24837549 0.4649837 0.20234306 0.22949828 0.15027912 0.24445517 0.19631147
		 0.16316085 0.19534349 0.22949831 0.24234393 0.1903408 0.12182954 0.1903408 0.2707935
		 0.14193945 0.12182954 0.14193948 0.2707935 0.10278197 0.15027915 0.102782 0.24234393
		 0.087825134 0.19631153 0.74558455 0.7401399 0.52157551 0.73988527 0.52183002 0.51587653
		 0.74583912 0.51613086 0.74533021 0.96414888 0.52132118 0.96389484 0.20701632 0.57111198
		 0.19459723 0.57115686 0.19392169 0.38440374 0.20634075 0.38435879 0.21943539 0.57106704
		 0.21875983 0.38431388 0.18217824 0.5712018 0.18150261 0.38444865 0.23185445 0.57102209
		 0.23117892 0.38426894 0.24359795 0.38422403 0.24359795 0.38422403 0.23117892 0.38426894
		 0.23117892 0.38426894 0.24359795 0.38422403 0.16975911 0.57124674 0.16908354 0.38449356
		 0.96933937 0.96440345 0.96959382 0.74039459 0.23185445 0.57102209 0.25601703 0.38417909
		 0.25601703 0.38417909 0.25601703 0.38417909 0.23185445 0.57102209 0.2684361 0.38413417
		 0.26843616 0.38413417 0.2939499 0.57079738 0.28153083 0.57084239 0.28085524 0.38408923
		 0.29327431 0.38404432 0.26843616 0.38413417 0.26911172 0.57088733 0.24427351 0.57097715
		 0.24427351 0.57097715 0.52208441 0.29186755 0.74609351 0.29212201 0.24427351 0.57097715
		 0.26911172 0.57088733 0.25669262 0.57093227 0.25669262 0.57093227 0.26911172 0.57088733
		 0.25669262 0.57093227 0.52233881 0.06785845 0.74634784 0.068112783 0.46999425 0.88645303
		 0.43622056 0.88641465 0.39447418 0.88636708 0.36070058 0.8863287 0.36061898 0.95812047
		 0.29731208 0.96364021 0.29756668 0.73963112 0.39439252 0.95815885 0.43613905 0.95820642
		 0.46991274 0.95824468;
	setAttr ".cuvs" -type "string" "map1";
	setAttr ".dcc" -type "string" "Ambient+Diffuse";
	setAttr ".covm[0]"  0 1 1;
	setAttr ".cdvm[0]"  0 1 1;
	setAttr -s 46 ".vt[0:45]"  0.25466967 -0.35756981 -4.78661728 0.41663066 -0.35756981 -5.00953722
		 -0.0073885769 -0.35756981 -5.1473093 -0.0073886574 -0.35756981 -4.70146894 0.41663066 -0.35756981 -5.28508186
		 -0.26944733 -0.35756981 -4.78661776 0.25466967 -0.35756981 -5.50800228 -0.4314082 -0.35756981 -5.0095381737
		 -0.0073885829 -0.35756981 -5.59314966 -0.4314082 -0.35756981 -5.28508234 -0.26944718 -0.35756981 -5.50800276
		 0.41663066 -1.2216574 -5.00953722 0.25466967 -1.2216574 -4.78661728 -0.0073885769 -1.2216574 -5.1473093
		 -0.0073886574 -1.2216574 -4.70146894 0.41663066 -1.2216574 -5.28508186 -0.26944733 -1.2216574 -4.78661776
		 0.25466967 -1.2216574 -5.50800228 -0.4314082 -1.2216574 -5.0095381737 -0.0073885829 -1.2216574 -5.59314966
		 -0.4314082 -1.2216574 -5.28508234 -0.26944718 -1.2216574 -5.50800276 -0.82641053 1.40722275 -4.44725752
		 -0.61263752 1.40722275 -4.44725752 -0.61263752 1.40722275 -5.9258132 -0.82641053 1.40722275 -5.9258132
		 -0.82641053 -1.2889595 -4.44725752 -0.61263752 -1.2889595 -4.44725752 -0.55061609 -0.35756981 -5.0095381737
		 -0.55215937 -0.35756981 -4.78661728 -0.61263752 -0.35756981 -4.78661728 -0.61263752 -0.35756981 -5.0095381737
		 -0.82641053 -1.2889595 -5.9258132 -0.55215937 -1.2216574 -4.78661728 -0.55061597 -0.35756981 -5.28508234
		 -0.61263752 -0.35756981 -5.28508234 -0.61263752 -1.2216574 -4.78661728 -0.55215919 -0.35756981 -5.50800228
		 -0.61263752 -0.35756981 -5.50800276 -0.55061609 -1.2216574 -5.0095381737 -0.61263752 -1.2889595 -5.9258132
		 -0.61263752 -1.2216574 -5.0095381737 -0.55215919 -1.2216574 -5.50800228 -0.55061597 -1.2216574 -5.28508234
		 -0.61263752 -1.2216574 -5.50800276 -0.61263752 -1.2216574 -5.28508234;
	setAttr -s 94 ".ed[0:93]"  0 1 0 1 2 1 2 0 1 3 0 0 2 3 1 1 4 0 4 2 1
		 5 3 0 2 5 1 4 6 0 6 2 1 7 5 0 2 7 1 6 8 0 8 2 1 9 7 0 2 9 1 8 10 0 10 2 1 10 9 0
		 11 12 0 12 13 1 13 11 1 12 14 0 14 13 1 15 11 0 13 15 1 14 16 0 16 13 1 17 15 0 13 17 1
		 16 18 0 18 13 1 19 17 0 13 19 1 18 20 0 20 13 1 21 19 0 13 21 1 20 21 0 22 23 0 23 24 0
		 24 25 0 25 22 0 26 27 0 27 23 0 22 26 0 11 1 0 0 12 0 3 14 0 15 4 0 5 16 0 7 28 0
		 28 29 0 29 5 0 30 29 0 28 31 1 31 30 0 17 6 0 32 26 0 25 32 0 29 33 0 33 16 0 9 34 0
		 34 28 0 34 35 1 35 31 0 36 33 0 30 36 0 10 37 0 37 34 0 19 8 0 37 38 0 38 35 0 21 10 0
		 33 39 0 39 18 0 24 40 0 40 32 0 41 39 1 36 41 0 21 42 0 42 37 0 39 43 0 43 20 0 42 44 0
		 44 38 0 45 43 1 41 45 0 43 42 0 40 27 0 45 44 0 44 40 1 23 30 1;
	setAttr -s 50 -ch 188 ".fc[0:49]" -type "polyFaces" 
		f 3 0 1 2
		mu 0 3 0 1 2
		f 3 3 -3 4
		mu 0 3 3 0 2
		f 3 5 6 -2
		mu 0 3 1 4 2
		f 3 7 -5 8
		mu 0 3 5 3 2
		f 3 9 10 -7
		mu 0 3 4 6 2
		f 3 11 -9 12
		mu 0 3 7 5 2
		f 3 13 14 -11
		mu 0 3 6 8 2
		f 3 15 -13 16
		mu 0 3 9 7 2
		f 3 17 18 -15
		mu 0 3 8 10 2
		f 3 19 -17 -19
		mu 0 3 10 9 2
		f 3 20 21 22
		mu 0 3 11 12 13
		f 3 23 24 -22
		mu 0 3 12 14 13
		f 3 25 -23 26
		mu 0 3 15 11 13
		f 3 27 28 -25
		mu 0 3 14 16 13
		f 3 29 -27 30
		mu 0 3 17 15 13
		f 3 31 32 -29
		mu 0 3 16 18 13
		f 3 33 -31 34
		mu 0 3 19 17 13
		f 3 35 36 -33
		mu 0 3 18 20 13
		f 3 37 -35 38
		mu 0 3 21 19 13
		f 3 39 -39 -37
		mu 0 3 20 21 13
		f 4 40 41 42 43
		mu 0 4 22 23 24 25
		f 4 44 45 -41 46
		mu 0 4 26 27 23 22
		f 4 -21 47 -1 48
		mu 0 4 28 29 30 31
		f 4 -24 -49 -4 49
		mu 0 4 32 28 31 33
		f 4 -26 50 -6 -48
		mu 0 4 29 34 35 30
		f 4 -28 -50 -8 51
		mu 0 4 36 32 33 37
		f 4 -12 52 53 54
		mu 0 4 37 38 39 40
		f 4 55 -54 56 57
		mu 0 4 41 40 39 42
		f 4 -30 58 -10 -51
		mu 0 4 34 43 44 35
		f 4 59 -47 -44 60
		mu 0 4 45 26 22 46
		f 4 -52 -55 61 62
		mu 0 4 36 37 40 47
		f 4 -16 63 64 -53
		mu 0 4 38 48 49 39
		f 4 -57 -65 65 66
		mu 0 4 42 39 49 50
		f 4 67 -62 -56 68
		mu 0 4 51 47 40 41
		f 4 -20 69 70 -64
		mu 0 4 48 52 53 49
		f 4 -34 71 -14 -59
		mu 0 4 54 55 56 57
		f 4 -66 -71 72 73
		mu 0 4 50 49 53 58
		f 4 -38 74 -18 -72
		mu 0 4 55 59 52 56
		f 4 -32 -63 75 76
		mu 0 4 60 36 47 61
		f 4 -43 77 78 -61
		mu 0 4 25 24 62 63
		f 4 79 -76 -68 80
		mu 0 4 64 61 47 51
		f 4 -75 81 82 -70
		mu 0 4 52 59 65 53
		f 4 -36 -77 83 84
		mu 0 4 66 60 61 67
		f 4 -73 -83 85 86
		mu 0 4 58 53 65 68
		f 4 87 -84 -80 88
		mu 0 4 69 67 61 64
		f 4 -40 -85 89 -82
		mu 0 4 59 66 67 65
		f 4 -79 90 -45 -60
		mu 0 4 63 62 70 71
		f 4 -86 -90 -88 91
		mu 0 4 68 65 67 69
		f 8 -58 -67 -74 -87 92 -78 -42 93
		mu 0 8 72 73 74 75 76 77 78 23
		f 8 -91 -93 -92 -89 -81 -69 -94 -46
		mu 0 8 27 77 76 79 80 81 72 23;
	setAttr ".cd" -type "dataPolyComponent" Index_Data Edge 0 ;
	setAttr ".cvd" -type "dataPolyComponent" Index_Data Vertex 0 ;
	setAttr ".pd[0]" -type "dataPolyComponent" Index_Data UV 0 ;
	setAttr ".hfd" -type "dataPolyComponent" Index_Data Face 0 ;
	setAttr ".ai_translator" -type "string" "polymesh";
createNode transform -s -n "persp";
	rename -uid "0B3413A3-F249-E76C-B436-B89AE0B0BE2F";
	setAttr ".v" no;
	setAttr ".t" -type "double3" 6.6376568407755059 0.096927277434508685 -11.491638040583041 ;
	setAttr ".r" -type "double3" 0.86164726928621249 1949.8000000001048 0 ;
createNode camera -s -n "perspShape" -p "persp";
	rename -uid "9552CE33-5E45-343E-181E-5996F49E4341";
	setAttr -k off ".v" no;
	setAttr ".fl" 34.999999999999986;
	setAttr ".coi" 13.604471650422488;
	setAttr ".imn" -type "string" "persp";
	setAttr ".den" -type "string" "persp_depth";
	setAttr ".man" -type "string" "persp_mask";
	setAttr ".tp" -type "double3" -0.2048899382352829 0.30151152610778809 0.26503443717956543 ;
	setAttr ".hc" -type "string" "viewSet -p %camera";
	setAttr ".ai_translator" -type "string" "perspective";
createNode transform -s -n "top";
	rename -uid "96CF79E6-E34C-8F78-001B-ED88E8AF97C2";
	setAttr ".v" no;
	setAttr ".t" -type "double3" 0 1000.1 0 ;
	setAttr ".r" -type "double3" -89.999999999999986 0 0 ;
createNode camera -s -n "topShape" -p "top";
	rename -uid "C3BF2E3B-0B43-1690-8107-72AEF7A16D66";
	setAttr -k off ".v" no;
	setAttr ".rnd" no;
	setAttr ".coi" 1000.1;
	setAttr ".ow" 30;
	setAttr ".imn" -type "string" "top";
	setAttr ".den" -type "string" "top_depth";
	setAttr ".man" -type "string" "top_mask";
	setAttr ".hc" -type "string" "viewSet -t %camera";
	setAttr ".o" yes;
	setAttr ".ai_translator" -type "string" "orthographic";
createNode transform -s -n "front";
	rename -uid "465B03BE-B842-4F6C-B49A-2A9617FCD458";
	setAttr ".v" no;
	setAttr ".t" -type "double3" 0 0 1000.1 ;
createNode camera -s -n "frontShape" -p "front";
	rename -uid "A25F7BA8-F14A-B029-A0B6-3AA964975E00";
	setAttr -k off ".v" no;
	setAttr ".rnd" no;
	setAttr ".coi" 1000.1;
	setAttr ".ow" 30;
	setAttr ".imn" -type "string" "front";
	setAttr ".den" -type "string" "front_depth";
	setAttr ".man" -type "string" "front_mask";
	setAttr ".hc" -type "string" "viewSet -f %camera";
	setAttr ".o" yes;
	setAttr ".ai_translator" -type "string" "orthographic";
createNode transform -s -n "side";
	rename -uid "F71E9D22-1243-7392-A755-55A48F83C8FB";
	setAttr ".v" no;
	setAttr ".t" -type "double3" 1000.1 0 0 ;
	setAttr ".r" -type "double3" 0 89.999999999999986 0 ;
createNode camera -s -n "sideShape" -p "side";
	rename -uid "C42CD2FC-6448-5878-753D-4FA1000EDA72";
	setAttr -k off ".v" no;
	setAttr ".rnd" no;
	setAttr ".coi" 1000.1;
	setAttr ".ow" 30;
	setAttr ".imn" -type "string" "side";
	setAttr ".den" -type "string" "side_depth";
	setAttr ".man" -type "string" "side_mask";
	setAttr ".hc" -type "string" "viewSet -s %camera";
	setAttr ".o" yes;
	setAttr ".ai_translator" -type "string" "orthographic";
createNode materialInfo -n "materialInfo11";
	rename -uid "88A0A5DF-4D46-BD41-1A77-A6ADBA94B1CD";
createNode shadingEngine -n "lambert11SG";
	rename -uid "36C47BD4-2F4D-8154-4C3E-BB9FDE67295D";
	setAttr ".ihi" 0;
	setAttr -s 2 ".dsm";
	setAttr ".ro" yes;
createNode lambert -n "lambert11";
	rename -uid "0F4BDCFD-1B4D-4214-7C7F-30B805DED74D";
createNode lightLinker -s -n "lightLinker1";
	rename -uid "4994E23D-4F4B-4457-2876-61A9F06F5F18";
	setAttr -s 3 ".lnk";
	setAttr -s 3 ".slnk";
createNode displayLayerManager -n "layerManager";
	rename -uid "F25E6190-A548-7AE4-965F-2A835136B847";
createNode displayLayer -n "defaultLayer";
	rename -uid "D17B9EC6-D647-1ADB-3053-D680B66D6F23";
createNode renderLayerManager -n "renderLayerManager";
	rename -uid "B9A997D7-494B-9EBD-96E1-33B169EDE4B3";
createNode renderLayer -n "defaultRenderLayer";
	rename -uid "A21A624E-9E41-E787-4992-2DAD6EBC5BEA";
	setAttr ".g" yes;
createNode shapeEditorManager -n "shapeEditorManager";
	rename -uid "86442D6D-C746-4F1E-26CB-249172BF6EA6";
createNode poseInterpolatorManager -n "poseInterpolatorManager";
	rename -uid "8F9700D8-A342-ABCE-FC9D-CDBCDC619AB1";
createNode rmanGlobals -s -n "rmanGlobals";
	rename -uid "B9D9AA7B-7548-5E4E-DC70-67883E60F54C";
	setAttr ".cch" no;
	setAttr ".fzn" no;
	setAttr ".ihi" 2;
	setAttr ".nds" 0;
	setAttr ".hider_minSamples" 0;
	setAttr ".hider_maxSamples" 128;
	setAttr ".ri_pixelVariance" 0.0099999997764825821;
	setAttr ".hider_darkfalloff" 0.02500000037252903;
	setAttr ".hider_incremental" yes;
	setAttr ".ipr_hider_maxSamples" 64;
	setAttr ".ipr_ri_pixelVariance" 0.05000000074505806;
	setAttr ".ri_maxSpecularDepth" 4;
	setAttr ".ri_maxDiffuseDepth" 1;
	setAttr ".ri_displayFilter" -type "string" "gaussian";
	setAttr ".ri_displayFilterSize" -type "float2" 2 2 ;
	setAttr ".motionBlur" 0;
	setAttr ".cameraBlur" no;
	setAttr ".shutterAngle" 180;
	setAttr ".shutterOpenEnd" 0;
	setAttr ".shutterCloseStart" 1;
	setAttr ".shutterTiming" 0;
	setAttr ".motionSamples" 2;
	setAttr ".displayFilters[0]" -type "string" "";
	setAttr ".sampleFilters[0]" -type "string" "";
	setAttr ".outputAllShaders" no;
	setAttr ".reentrantProcedurals" yes;
	setAttr ".outputShadowAOV" 0;
	setAttr ".enableImagePlaneFilter" yes;
	setAttr ".learnLightSelection" no;
	setAttr ".ri_hider_adaptAll" no;
	setAttr ".osl_batched" 0;
	setAttr ".adaptiveSampler" 0;
	setAttr ".opt_bucket_order" -type "string" "circle";
	setAttr ".limits_bucketsize" -type "long2" 16 16 ;
	setAttr ".limits_othreshold" -type "float3" 0.99599999 0.99599999 0.99599999 ;
	setAttr ".rfm_referenceFrame" 0;
	setAttr ".dice_micropolygonlength" 1;
	setAttr ".dice_watertight" no;
	setAttr ".dice_referenceCameraType" 0;
	setAttr ".dice_referenceCamera" -type "string" "";
	setAttr ".hair_minWidth" 0.5;
	setAttr ".trace_autobias" yes;
	setAttr ".trace_bias" 0.0010000000474974513;
	setAttr ".trace_worldorigin" -type "string" "camera";
	setAttr ".trace_worldoffset" -type "float3" 0 0 0 ;
	setAttr ".opt_cropWindowEnable" no;
	setAttr ".opt_cropWindowTopLeft" -type "float2" 0 0 ;
	setAttr ".opt_cropWindowBottomRight" -type "float2" 1 1 ;
	setAttr ".user_sceneUnits" 1;
	setAttr ".user_iesIgnoreWatts" yes;
	setAttr ".limits_texturememory" 4096;
	setAttr ".limits_geocachememory" 4096;
	setAttr ".limits_opacitycachememory" 2048;
	setAttr ".statistics_level" 1;
	setAttr ".statistics_xmlfilename" -type "string" "";
	setAttr ".lpe_diffuse2" -type "string" "Diffuse,HairDiffuse";
	setAttr ".lpe_diffuse3" -type "string" "Subsurface";
	setAttr ".lpe_specular2" -type "string" "Specular,HairSpecularR";
	setAttr ".lpe_specular3" -type "string" "RoughSpecular,HairSpecularTRT";
	setAttr ".lpe_specular4" -type "string" "Clearcoat";
	setAttr ".lpe_specular5" -type "string" "Iridescence";
	setAttr ".lpe_specular6" -type "string" "Fuzz,HairSpecularGLINTS";
	setAttr ".lpe_specular7" -type "string" "SingleScatter,HairSpecularTT";
	setAttr ".lpe_specular8" -type "string" "Glass";
	setAttr ".lpe_user2" -type "string" "Albedo,DiffuseAlbedo,SubsurfaceAlbedo,HairAlbedo";
	setAttr ".lpe_user3" -type "string" "";
	setAttr ".lpe_user4" -type "string" "";
	setAttr ".lpe_user5" -type "string" "";
	setAttr ".lpe_user6" -type "string" "";
	setAttr ".lpe_user7" -type "string" "";
	setAttr ".lpe_user8" -type "string" "";
	setAttr ".lpe_user9" -type "string" "";
	setAttr ".lpe_user10" -type "string" "";
	setAttr ".lpe_user11" -type "string" "";
	setAttr ".lpe_user12" -type "string" "";
	setAttr ".imageFileFormat" -type "string" "<scene>_<layer>_<camera>_<aov>.<f4>.<ext>";
	setAttr ".ribFileFormat" -type "string" "<camera><layer>.<f4>.rib";
	setAttr ".version" 1;
	setAttr ".take" 1;
	setAttr ".imageOutputDir" -type "string" "<ws>/images/<scene>_v<version>_t<take>";
	setAttr ".ribOutputDir" -type "string" "<ws>/renderman/rib/<scene>/v<version>_t<take>";
	setAttr -s 10 ".UserTokens";
	setAttr ".UserTokens[0].userTokenKeys" -type "string" "";
	setAttr ".UserTokens[0].userTokenValues" -type "string" "";
	setAttr ".UserTokens[1].userTokenKeys" -type "string" "";
	setAttr ".UserTokens[1].userTokenValues" -type "string" "";
	setAttr ".UserTokens[2].userTokenKeys" -type "string" "";
	setAttr ".UserTokens[2].userTokenValues" -type "string" "";
	setAttr ".UserTokens[3].userTokenKeys" -type "string" "";
	setAttr ".UserTokens[3].userTokenValues" -type "string" "";
	setAttr ".UserTokens[4].userTokenKeys" -type "string" "";
	setAttr ".UserTokens[4].userTokenValues" -type "string" "";
	setAttr ".UserTokens[5].userTokenKeys" -type "string" "";
	setAttr ".UserTokens[5].userTokenValues" -type "string" "";
	setAttr ".UserTokens[6].userTokenKeys" -type "string" "";
	setAttr ".UserTokens[6].userTokenValues" -type "string" "";
	setAttr ".UserTokens[7].userTokenKeys" -type "string" "";
	setAttr ".UserTokens[7].userTokenValues" -type "string" "";
	setAttr ".UserTokens[8].userTokenKeys" -type "string" "";
	setAttr ".UserTokens[8].userTokenValues" -type "string" "";
	setAttr ".UserTokens[9].userTokenKeys" -type "string" "";
	setAttr ".UserTokens[9].userTokenValues" -type "string" "";
	setAttr ".rlfData" -type "string" "init";
	setAttr ".jobid" -type "string" "";
createNode rmanDisplay -s -n "rmanDefaultDisplay";
	rename -uid "7AFCCF3A-0D46-59E7-D86D-CDB398E8B243";
	setAttr ".cch" no;
	setAttr ".fzn" no;
	setAttr ".ihi" 2;
	setAttr ".nds" 0;
	setAttr ".enable" yes;
	setAttr ".denoise" no;
	setAttr ".frameMode" 0;
	setAttr ".remapBreakPoint" 0;
	setAttr ".remapMaxValue" 0;
	setAttr ".remapSmoothness" 0;
	setAttr -s 2 ".displayChannels";
	setAttr ".name" -type "string" "";
createNode d_openexr -n "d_openexr";
	rename -uid "61B8B78D-3646-0785-3C08-F89166EE4455";
	setAttr ".cch" no;
	setAttr ".fzn" no;
	setAttr ".ihi" 2;
	setAttr ".nds" 0;
	setAttr ".asrgba" yes;
	setAttr ".storage" -type "string" "scanline";
	setAttr ".exrpixeltype" -type "string" "half";
	setAttr ".compression" -type "string" "zips";
	setAttr ".compressionlevel" 45;
createNode rmanDisplayChannel -n "Ci";
	rename -uid "0502782A-BE40-235D-2BD2-7E8225C3131C";
	setAttr ".cch" no;
	setAttr ".fzn" no;
	setAttr ".ihi" 2;
	setAttr ".nds" 0;
	setAttr ".enable" yes;
	setAttr ".channelType" -type "string" "color";
	setAttr ".channelSource" -type "string" "Ci";
	setAttr ".lpeLightGroup" -type "string" "";
	setAttr ".filter" -type "string" "inherit from display";
	setAttr ".filterwidth" -type "float2" -1 -1 ;
	setAttr ".statistics" -type "string" "";
	setAttr ".remapBreakPoint" 0;
	setAttr ".remapMaxValue" 0;
	setAttr ".remapSmoothness" 0;
	setAttr -l on ".name" -type "string" "Ci";
createNode rmanDisplayChannel -n "a";
	rename -uid "AAF52756-7045-36B7-A9F4-13B864775E3F";
	setAttr ".cch" no;
	setAttr ".fzn" no;
	setAttr ".ihi" 2;
	setAttr ".nds" 0;
	setAttr ".enable" yes;
	setAttr ".channelType" -type "string" "float";
	setAttr ".channelSource" -type "string" "a";
	setAttr ".lpeLightGroup" -type "string" "";
	setAttr ".filter" -type "string" "inherit from display";
	setAttr ".filterwidth" -type "float2" -1 -1 ;
	setAttr ".statistics" -type "string" "";
	setAttr ".remapBreakPoint" 0;
	setAttr ".remapMaxValue" 0;
	setAttr ".remapSmoothness" 0;
	setAttr -l on ".name" -type "string" "a";
createNode PxrPathTracer -s -n "PxrPathTracer";
	rename -uid "4FFF490B-7647-147D-86ED-09A70F06C9A6";
	setAttr ".cch" no;
	setAttr ".fzn" no;
	setAttr ".ihi" 2;
	setAttr ".nds" 0;
	setAttr ".maxPathLength" 10;
	setAttr ".maxContinuationLength" -1;
	setAttr ".maxNonStochasticOpacityEvents" 0;
	setAttr ".sampleMode" -type "string" "bxdf";
	setAttr ".numLightSamples" 1;
	setAttr ".numBxdfSamples" 1;
	setAttr ".numIndirectSamples" 1;
	setAttr ".numDiffuseSamples" 1;
	setAttr ".numSpecularSamples" 1;
	setAttr ".numSubsurfaceSamples" 1;
	setAttr ".numRefractionSamples" 1;
	setAttr ".allowCaustics" no;
	setAttr ".accumOpacity" no;
	setAttr ".rouletteDepth" 4;
	setAttr ".rouletteThreshold" 0.20000000298023224;
	setAttr ".clampDepth" 2;
	setAttr ".clampLuminance" 10;
createNode script -n "uiConfigurationScriptNode";
	rename -uid "19DD9FA5-694E-0E1D-36C3-BB992D58E484";
	setAttr ".b" -type "string" (
		"// Maya Mel UI Configuration File.\n//\n//  This script is machine generated.  Edit at your own risk.\n//\n//\n\nglobal string $gMainPane;\nif (`paneLayout -exists $gMainPane`) {\n\n\tglobal int $gUseScenePanelConfig;\n\tint    $useSceneConfig = $gUseScenePanelConfig;\n\tint    $menusOkayInPanels = `optionVar -q allowMenusInPanels`;\tint    $nVisPanes = `paneLayout -q -nvp $gMainPane`;\n\tint    $nPanes = 0;\n\tstring $editorName;\n\tstring $panelName;\n\tstring $itemFilterName;\n\tstring $panelConfig;\n\n\t//\n\t//  get current state of the UI\n\t//\n\tsceneUIReplacement -update $gMainPane;\n\n\t$panelName = `sceneUIReplacement -getNextPanel \"modelPanel\" (localizedPanelLabel(\"Top View\")) `;\n\tif (\"\" != $panelName) {\n\t\t$label = `panel -q -label $panelName`;\n\t\tmodelPanel -edit -l (localizedPanelLabel(\"Top View\")) -mbv $menusOkayInPanels  $panelName;\n\t\t$editorName = $panelName;\n        modelEditor -e \n            -camera \"top\" \n            -useInteractiveMode 0\n            -displayLights \"default\" \n            -displayAppearance \"smoothShaded\" \n            -activeOnly 0\n"
		+ "            -ignorePanZoom 0\n            -wireframeOnShaded 0\n            -headsUpDisplay 1\n            -holdOuts 1\n            -selectionHiliteDisplay 1\n            -useDefaultMaterial 0\n            -bufferMode \"double\" \n            -twoSidedLighting 0\n            -backfaceCulling 0\n            -xray 0\n            -jointXray 0\n            -activeComponentsXray 0\n            -displayTextures 0\n            -smoothWireframe 0\n            -lineWidth 1\n            -textureAnisotropic 0\n            -textureHilight 1\n            -textureSampling 2\n            -textureDisplay \"modulate\" \n            -textureMaxSize 16384\n            -fogging 0\n            -fogSource \"fragment\" \n            -fogMode \"linear\" \n            -fogStart 0\n            -fogEnd 100\n            -fogDensity 0.1\n            -fogColor 0.5 0.5 0.5 1 \n            -depthOfFieldPreview 1\n            -maxConstantTransparency 1\n            -rendererName \"vp2Renderer\" \n            -objectFilterShowInHUD 1\n            -isFiltered 0\n            -colorResolution 256 256 \n"
		+ "            -bumpResolution 512 512 \n            -textureCompression 0\n            -transparencyAlgorithm \"frontAndBackCull\" \n            -transpInShadows 0\n            -cullingOverride \"none\" \n            -lowQualityLighting 0\n            -maximumNumHardwareLights 1\n            -occlusionCulling 0\n            -shadingModel 0\n            -useBaseRenderer 0\n            -useReducedRenderer 0\n            -smallObjectCulling 0\n            -smallObjectThreshold -1 \n            -interactiveDisableShadows 0\n            -interactiveBackFaceCull 0\n            -sortTransparent 1\n            -controllers 1\n            -nurbsCurves 1\n            -nurbsSurfaces 1\n            -polymeshes 1\n            -subdivSurfaces 1\n            -planes 1\n            -lights 1\n            -cameras 1\n            -controlVertices 1\n            -hulls 1\n            -grid 1\n            -imagePlane 1\n            -joints 1\n            -ikHandles 1\n            -deformers 1\n            -dynamics 1\n            -particleInstancers 1\n            -fluids 1\n"
		+ "            -hairSystems 1\n            -follicles 1\n            -nCloths 1\n            -nParticles 1\n            -nRigids 1\n            -dynamicConstraints 1\n            -locators 1\n            -manipulators 1\n            -pluginShapes 1\n            -dimensions 1\n            -handles 1\n            -pivots 1\n            -textures 1\n            -strokes 1\n            -motionTrails 1\n            -clipGhosts 1\n            -greasePencils 1\n            -shadows 0\n            -captureSequenceNumber -1\n            -width 488\n            -height 305\n            -sceneRenderFilter 0\n            $editorName;\n        modelEditor -e -viewSelected 0 $editorName;\n        modelEditor -e \n            -pluginObjects \"gpuCacheDisplayFilter\" 1 \n            $editorName;\n\t\tif (!$useSceneConfig) {\n\t\t\tpanel -e -l $label $panelName;\n\t\t}\n\t}\n\n\n\t$panelName = `sceneUIReplacement -getNextPanel \"modelPanel\" (localizedPanelLabel(\"Side View\")) `;\n\tif (\"\" != $panelName) {\n\t\t$label = `panel -q -label $panelName`;\n\t\tmodelPanel -edit -l (localizedPanelLabel(\"Side View\")) -mbv $menusOkayInPanels  $panelName;\n"
		+ "\t\t$editorName = $panelName;\n        modelEditor -e \n            -camera \"side\" \n            -useInteractiveMode 0\n            -displayLights \"default\" \n            -displayAppearance \"smoothShaded\" \n            -activeOnly 0\n            -ignorePanZoom 0\n            -wireframeOnShaded 0\n            -headsUpDisplay 1\n            -holdOuts 1\n            -selectionHiliteDisplay 1\n            -useDefaultMaterial 0\n            -bufferMode \"double\" \n            -twoSidedLighting 0\n            -backfaceCulling 0\n            -xray 0\n            -jointXray 0\n            -activeComponentsXray 0\n            -displayTextures 0\n            -smoothWireframe 0\n            -lineWidth 1\n            -textureAnisotropic 0\n            -textureHilight 1\n            -textureSampling 2\n            -textureDisplay \"modulate\" \n            -textureMaxSize 16384\n            -fogging 0\n            -fogSource \"fragment\" \n            -fogMode \"linear\" \n            -fogStart 0\n            -fogEnd 100\n            -fogDensity 0.1\n            -fogColor 0.5 0.5 0.5 1 \n"
		+ "            -depthOfFieldPreview 1\n            -maxConstantTransparency 1\n            -rendererName \"vp2Renderer\" \n            -objectFilterShowInHUD 1\n            -isFiltered 0\n            -colorResolution 256 256 \n            -bumpResolution 512 512 \n            -textureCompression 0\n            -transparencyAlgorithm \"frontAndBackCull\" \n            -transpInShadows 0\n            -cullingOverride \"none\" \n            -lowQualityLighting 0\n            -maximumNumHardwareLights 1\n            -occlusionCulling 0\n            -shadingModel 0\n            -useBaseRenderer 0\n            -useReducedRenderer 0\n            -smallObjectCulling 0\n            -smallObjectThreshold -1 \n            -interactiveDisableShadows 0\n            -interactiveBackFaceCull 0\n            -sortTransparent 1\n            -controllers 1\n            -nurbsCurves 1\n            -nurbsSurfaces 1\n            -polymeshes 1\n            -subdivSurfaces 1\n            -planes 1\n            -lights 1\n            -cameras 1\n            -controlVertices 1\n"
		+ "            -hulls 1\n            -grid 1\n            -imagePlane 1\n            -joints 1\n            -ikHandles 1\n            -deformers 1\n            -dynamics 1\n            -particleInstancers 1\n            -fluids 1\n            -hairSystems 1\n            -follicles 1\n            -nCloths 1\n            -nParticles 1\n            -nRigids 1\n            -dynamicConstraints 1\n            -locators 1\n            -manipulators 1\n            -pluginShapes 1\n            -dimensions 1\n            -handles 1\n            -pivots 1\n            -textures 1\n            -strokes 1\n            -motionTrails 1\n            -clipGhosts 1\n            -greasePencils 1\n            -shadows 0\n            -captureSequenceNumber -1\n            -width 487\n            -height 304\n            -sceneRenderFilter 0\n            $editorName;\n        modelEditor -e -viewSelected 0 $editorName;\n        modelEditor -e \n            -pluginObjects \"gpuCacheDisplayFilter\" 1 \n            $editorName;\n\t\tif (!$useSceneConfig) {\n\t\t\tpanel -e -l $label $panelName;\n"
		+ "\t\t}\n\t}\n\n\n\t$panelName = `sceneUIReplacement -getNextPanel \"modelPanel\" (localizedPanelLabel(\"Front View\")) `;\n\tif (\"\" != $panelName) {\n\t\t$label = `panel -q -label $panelName`;\n\t\tmodelPanel -edit -l (localizedPanelLabel(\"Front View\")) -mbv $menusOkayInPanels  $panelName;\n\t\t$editorName = $panelName;\n        modelEditor -e \n            -camera \"front\" \n            -useInteractiveMode 0\n            -displayLights \"default\" \n            -displayAppearance \"smoothShaded\" \n            -activeOnly 0\n            -ignorePanZoom 0\n            -wireframeOnShaded 0\n            -headsUpDisplay 1\n            -holdOuts 1\n            -selectionHiliteDisplay 1\n            -useDefaultMaterial 0\n            -bufferMode \"double\" \n            -twoSidedLighting 0\n            -backfaceCulling 0\n            -xray 0\n            -jointXray 0\n            -activeComponentsXray 0\n            -displayTextures 0\n            -smoothWireframe 0\n            -lineWidth 1\n            -textureAnisotropic 0\n            -textureHilight 1\n            -textureSampling 2\n"
		+ "            -textureDisplay \"modulate\" \n            -textureMaxSize 16384\n            -fogging 0\n            -fogSource \"fragment\" \n            -fogMode \"linear\" \n            -fogStart 0\n            -fogEnd 100\n            -fogDensity 0.1\n            -fogColor 0.5 0.5 0.5 1 \n            -depthOfFieldPreview 1\n            -maxConstantTransparency 1\n            -rendererName \"vp2Renderer\" \n            -objectFilterShowInHUD 1\n            -isFiltered 0\n            -colorResolution 256 256 \n            -bumpResolution 512 512 \n            -textureCompression 0\n            -transparencyAlgorithm \"frontAndBackCull\" \n            -transpInShadows 0\n            -cullingOverride \"none\" \n            -lowQualityLighting 0\n            -maximumNumHardwareLights 1\n            -occlusionCulling 0\n            -shadingModel 0\n            -useBaseRenderer 0\n            -useReducedRenderer 0\n            -smallObjectCulling 0\n            -smallObjectThreshold -1 \n            -interactiveDisableShadows 0\n            -interactiveBackFaceCull 0\n"
		+ "            -sortTransparent 1\n            -controllers 1\n            -nurbsCurves 1\n            -nurbsSurfaces 1\n            -polymeshes 1\n            -subdivSurfaces 1\n            -planes 1\n            -lights 1\n            -cameras 1\n            -controlVertices 1\n            -hulls 1\n            -grid 1\n            -imagePlane 1\n            -joints 1\n            -ikHandles 1\n            -deformers 1\n            -dynamics 1\n            -particleInstancers 1\n            -fluids 1\n            -hairSystems 1\n            -follicles 1\n            -nCloths 1\n            -nParticles 1\n            -nRigids 1\n            -dynamicConstraints 1\n            -locators 1\n            -manipulators 1\n            -pluginShapes 1\n            -dimensions 1\n            -handles 1\n            -pivots 1\n            -textures 1\n            -strokes 1\n            -motionTrails 1\n            -clipGhosts 1\n            -greasePencils 1\n            -shadows 0\n            -captureSequenceNumber -1\n            -width 488\n            -height 304\n"
		+ "            -sceneRenderFilter 0\n            $editorName;\n        modelEditor -e -viewSelected 0 $editorName;\n        modelEditor -e \n            -pluginObjects \"gpuCacheDisplayFilter\" 1 \n            $editorName;\n\t\tif (!$useSceneConfig) {\n\t\t\tpanel -e -l $label $panelName;\n\t\t}\n\t}\n\n\n\t$panelName = `sceneUIReplacement -getNextPanel \"modelPanel\" (localizedPanelLabel(\"Persp View\")) `;\n\tif (\"\" != $panelName) {\n\t\t$label = `panel -q -label $panelName`;\n\t\tmodelPanel -edit -l (localizedPanelLabel(\"Persp View\")) -mbv $menusOkayInPanels  $panelName;\n\t\t$editorName = $panelName;\n        modelEditor -e \n            -camera \"persp\" \n            -useInteractiveMode 0\n            -displayLights \"default\" \n            -displayAppearance \"smoothShaded\" \n            -activeOnly 0\n            -ignorePanZoom 0\n            -wireframeOnShaded 0\n            -headsUpDisplay 1\n            -holdOuts 1\n            -selectionHiliteDisplay 1\n            -useDefaultMaterial 0\n            -bufferMode \"double\" \n            -twoSidedLighting 0\n            -backfaceCulling 0\n"
		+ "            -xray 0\n            -jointXray 0\n            -activeComponentsXray 0\n            -displayTextures 0\n            -smoothWireframe 0\n            -lineWidth 1\n            -textureAnisotropic 0\n            -textureHilight 1\n            -textureSampling 2\n            -textureDisplay \"modulate\" \n            -textureMaxSize 16384\n            -fogging 0\n            -fogSource \"fragment\" \n            -fogMode \"linear\" \n            -fogStart 0\n            -fogEnd 100\n            -fogDensity 0.1\n            -fogColor 0.5 0.5 0.5 1 \n            -depthOfFieldPreview 1\n            -maxConstantTransparency 1\n            -rendererName \"vp2Renderer\" \n            -objectFilterShowInHUD 1\n            -isFiltered 0\n            -colorResolution 256 256 \n            -bumpResolution 512 512 \n            -textureCompression 0\n            -transparencyAlgorithm \"frontAndBackCull\" \n            -transpInShadows 0\n            -cullingOverride \"none\" \n            -lowQualityLighting 0\n            -maximumNumHardwareLights 1\n            -occlusionCulling 0\n"
		+ "            -shadingModel 0\n            -useBaseRenderer 0\n            -useReducedRenderer 0\n            -smallObjectCulling 0\n            -smallObjectThreshold -1 \n            -interactiveDisableShadows 0\n            -interactiveBackFaceCull 0\n            -sortTransparent 1\n            -controllers 1\n            -nurbsCurves 1\n            -nurbsSurfaces 1\n            -polymeshes 1\n            -subdivSurfaces 1\n            -planes 1\n            -lights 1\n            -cameras 1\n            -controlVertices 1\n            -hulls 1\n            -grid 1\n            -imagePlane 1\n            -joints 1\n            -ikHandles 1\n            -deformers 1\n            -dynamics 1\n            -particleInstancers 1\n            -fluids 1\n            -hairSystems 1\n            -follicles 1\n            -nCloths 1\n            -nParticles 1\n            -nRigids 1\n            -dynamicConstraints 1\n            -locators 1\n            -manipulators 1\n            -pluginShapes 1\n            -dimensions 1\n            -handles 1\n            -pivots 1\n"
		+ "            -textures 1\n            -strokes 1\n            -motionTrails 1\n            -clipGhosts 1\n            -greasePencils 1\n            -shadows 0\n            -captureSequenceNumber -1\n            -width 953\n            -height 654\n            -sceneRenderFilter 0\n            $editorName;\n        modelEditor -e -viewSelected 0 $editorName;\n        modelEditor -e \n            -pluginObjects \"gpuCacheDisplayFilter\" 1 \n            $editorName;\n\t\tif (!$useSceneConfig) {\n\t\t\tpanel -e -l $label $panelName;\n\t\t}\n\t}\n\n\n\t$panelName = `sceneUIReplacement -getNextPanel \"outlinerPanel\" (localizedPanelLabel(\"ToggledOutliner\")) `;\n\tif (\"\" != $panelName) {\n\t\t$label = `panel -q -label $panelName`;\n\t\toutlinerPanel -edit -l (localizedPanelLabel(\"ToggledOutliner\")) -mbv $menusOkayInPanels  $panelName;\n\t\t$editorName = $panelName;\n        outlinerEditor -e \n            -docTag \"isolOutln_fromSeln\" \n            -showShapes 0\n            -showAssignedMaterials 0\n            -showTimeEditor 1\n            -showReferenceNodes 1\n            -showReferenceMembers 1\n"
		+ "            -showAttributes 0\n            -showConnected 0\n            -showAnimCurvesOnly 0\n            -showMuteInfo 0\n            -organizeByLayer 1\n            -organizeByClip 1\n            -showAnimLayerWeight 1\n            -autoExpandLayers 1\n            -autoExpand 0\n            -showDagOnly 1\n            -showAssets 1\n            -showContainedOnly 1\n            -showPublishedAsConnected 0\n            -showParentContainers 0\n            -showContainerContents 1\n            -ignoreDagHierarchy 0\n            -expandConnections 0\n            -showUpstreamCurves 1\n            -showUnitlessCurves 1\n            -showCompounds 1\n            -showLeafs 1\n            -showNumericAttrsOnly 0\n            -highlightActive 1\n            -autoSelectNewObjects 0\n            -doNotSelectNewObjects 0\n            -dropIsParent 1\n            -transmitFilters 0\n            -setFilter \"defaultSetFilter\" \n            -showSetMembers 1\n            -allowMultiSelection 1\n            -alwaysToggleSelect 0\n            -directSelect 0\n"
		+ "            -isSet 0\n            -isSetMember 0\n            -displayMode \"DAG\" \n            -expandObjects 0\n            -setsIgnoreFilters 1\n            -containersIgnoreFilters 0\n            -editAttrName 0\n            -showAttrValues 0\n            -highlightSecondary 0\n            -showUVAttrsOnly 0\n            -showTextureNodesOnly 0\n            -attrAlphaOrder \"default\" \n            -animLayerFilterOptions \"allAffecting\" \n            -sortOrder \"none\" \n            -longNames 0\n            -niceNames 1\n            -showNamespace 1\n            -showPinIcons 0\n            -mapMotionTrails 0\n            -ignoreHiddenAttribute 0\n            -ignoreOutlinerColor 0\n            -renderFilterVisible 0\n            -renderFilterIndex 0\n            -selectionOrder \"chronological\" \n            -expandAttribute 0\n            $editorName;\n\t\tif (!$useSceneConfig) {\n\t\t\tpanel -e -l $label $panelName;\n\t\t}\n\t}\n\n\n\t$panelName = `sceneUIReplacement -getNextPanel \"outlinerPanel\" (localizedPanelLabel(\"Outliner\")) `;\n\tif (\"\" != $panelName) {\n"
		+ "\t\t$label = `panel -q -label $panelName`;\n\t\toutlinerPanel -edit -l (localizedPanelLabel(\"Outliner\")) -mbv $menusOkayInPanels  $panelName;\n\t\t$editorName = $panelName;\n        outlinerEditor -e \n            -showShapes 0\n            -showAssignedMaterials 0\n            -showTimeEditor 1\n            -showReferenceNodes 0\n            -showReferenceMembers 0\n            -showAttributes 0\n            -showConnected 0\n            -showAnimCurvesOnly 0\n            -showMuteInfo 0\n            -organizeByLayer 1\n            -organizeByClip 1\n            -showAnimLayerWeight 1\n            -autoExpandLayers 1\n            -autoExpand 0\n            -showDagOnly 1\n            -showAssets 1\n            -showContainedOnly 1\n            -showPublishedAsConnected 0\n            -showParentContainers 0\n            -showContainerContents 1\n            -ignoreDagHierarchy 0\n            -expandConnections 0\n            -showUpstreamCurves 1\n            -showUnitlessCurves 1\n            -showCompounds 1\n            -showLeafs 1\n            -showNumericAttrsOnly 0\n"
		+ "            -highlightActive 1\n            -autoSelectNewObjects 0\n            -doNotSelectNewObjects 0\n            -dropIsParent 1\n            -transmitFilters 0\n            -setFilter \"defaultSetFilter\" \n            -showSetMembers 1\n            -allowMultiSelection 1\n            -alwaysToggleSelect 0\n            -directSelect 0\n            -displayMode \"DAG\" \n            -expandObjects 0\n            -setsIgnoreFilters 1\n            -containersIgnoreFilters 0\n            -editAttrName 0\n            -showAttrValues 0\n            -highlightSecondary 0\n            -showUVAttrsOnly 0\n            -showTextureNodesOnly 0\n            -attrAlphaOrder \"default\" \n            -animLayerFilterOptions \"allAffecting\" \n            -sortOrder \"none\" \n            -longNames 0\n            -niceNames 1\n            -showNamespace 1\n            -showPinIcons 0\n            -mapMotionTrails 0\n            -ignoreHiddenAttribute 0\n            -ignoreOutlinerColor 0\n            -renderFilterVisible 0\n            $editorName;\n\t\tif (!$useSceneConfig) {\n"
		+ "\t\t\tpanel -e -l $label $panelName;\n\t\t}\n\t}\n\n\n\t$panelName = `sceneUIReplacement -getNextScriptedPanel \"graphEditor\" (localizedPanelLabel(\"Graph Editor\")) `;\n\tif (\"\" != $panelName) {\n\t\t$label = `panel -q -label $panelName`;\n\t\tscriptedPanel -edit -l (localizedPanelLabel(\"Graph Editor\")) -mbv $menusOkayInPanels  $panelName;\n\n\t\t\t$editorName = ($panelName+\"OutlineEd\");\n            outlinerEditor -e \n                -showShapes 1\n                -showAssignedMaterials 0\n                -showTimeEditor 1\n                -showReferenceNodes 0\n                -showReferenceMembers 0\n                -showAttributes 1\n                -showConnected 1\n                -showAnimCurvesOnly 1\n                -showMuteInfo 0\n                -organizeByLayer 1\n                -organizeByClip 1\n                -showAnimLayerWeight 1\n                -autoExpandLayers 1\n                -autoExpand 1\n                -showDagOnly 0\n                -showAssets 1\n                -showContainedOnly 0\n                -showPublishedAsConnected 0\n"
		+ "                -showParentContainers 1\n                -showContainerContents 0\n                -ignoreDagHierarchy 0\n                -expandConnections 1\n                -showUpstreamCurves 1\n                -showUnitlessCurves 1\n                -showCompounds 0\n                -showLeafs 1\n                -showNumericAttrsOnly 1\n                -highlightActive 0\n                -autoSelectNewObjects 1\n                -doNotSelectNewObjects 0\n                -dropIsParent 1\n                -transmitFilters 1\n                -setFilter \"0\" \n                -showSetMembers 0\n                -allowMultiSelection 1\n                -alwaysToggleSelect 0\n                -directSelect 0\n                -displayMode \"DAG\" \n                -expandObjects 0\n                -setsIgnoreFilters 1\n                -containersIgnoreFilters 0\n                -editAttrName 0\n                -showAttrValues 0\n                -highlightSecondary 0\n                -showUVAttrsOnly 0\n                -showTextureNodesOnly 0\n                -attrAlphaOrder \"default\" \n"
		+ "                -animLayerFilterOptions \"allAffecting\" \n                -sortOrder \"none\" \n                -longNames 0\n                -niceNames 1\n                -showNamespace 1\n                -showPinIcons 1\n                -mapMotionTrails 1\n                -ignoreHiddenAttribute 0\n                -ignoreOutlinerColor 0\n                -renderFilterVisible 0\n                $editorName;\n\n\t\t\t$editorName = ($panelName+\"GraphEd\");\n            animCurveEditor -e \n                -displayKeys 1\n                -displayTangents 0\n                -displayActiveKeys 0\n                -displayActiveKeyTangents 1\n                -displayInfinities 0\n                -displayValues 0\n                -autoFit 1\n                -snapTime \"integer\" \n                -snapValue \"none\" \n                -showResults \"off\" \n                -showBufferCurves \"off\" \n                -smoothness \"fine\" \n                -resultSamples 1\n                -resultScreenSamples 0\n                -resultUpdate \"delayed\" \n                -showUpstreamCurves 1\n"
		+ "                -showCurveNames 0\n                -showActiveCurveNames 0\n                -stackedCurves 0\n                -stackedCurvesMin -1\n                -stackedCurvesMax 1\n                -stackedCurvesSpace 0.2\n                -displayNormalized 0\n                -preSelectionHighlight 0\n                -constrainDrag 0\n                -classicMode 1\n                -valueLinesToggle 1\n                -outliner \"graphEditor1OutlineEd\" \n                $editorName;\n\t\tif (!$useSceneConfig) {\n\t\t\tpanel -e -l $label $panelName;\n\t\t}\n\t}\n\n\n\t$panelName = `sceneUIReplacement -getNextScriptedPanel \"dopeSheetPanel\" (localizedPanelLabel(\"Dope Sheet\")) `;\n\tif (\"\" != $panelName) {\n\t\t$label = `panel -q -label $panelName`;\n\t\tscriptedPanel -edit -l (localizedPanelLabel(\"Dope Sheet\")) -mbv $menusOkayInPanels  $panelName;\n\n\t\t\t$editorName = ($panelName+\"OutlineEd\");\n            outlinerEditor -e \n                -showShapes 1\n                -showAssignedMaterials 0\n                -showTimeEditor 1\n                -showReferenceNodes 0\n"
		+ "                -showReferenceMembers 0\n                -showAttributes 1\n                -showConnected 1\n                -showAnimCurvesOnly 1\n                -showMuteInfo 0\n                -organizeByLayer 1\n                -organizeByClip 1\n                -showAnimLayerWeight 1\n                -autoExpandLayers 1\n                -autoExpand 0\n                -showDagOnly 0\n                -showAssets 1\n                -showContainedOnly 0\n                -showPublishedAsConnected 0\n                -showParentContainers 1\n                -showContainerContents 0\n                -ignoreDagHierarchy 0\n                -expandConnections 1\n                -showUpstreamCurves 1\n                -showUnitlessCurves 0\n                -showCompounds 1\n                -showLeafs 1\n                -showNumericAttrsOnly 1\n                -highlightActive 0\n                -autoSelectNewObjects 0\n                -doNotSelectNewObjects 1\n                -dropIsParent 1\n                -transmitFilters 0\n                -setFilter \"0\" \n"
		+ "                -showSetMembers 0\n                -allowMultiSelection 1\n                -alwaysToggleSelect 0\n                -directSelect 0\n                -displayMode \"DAG\" \n                -expandObjects 0\n                -setsIgnoreFilters 1\n                -containersIgnoreFilters 0\n                -editAttrName 0\n                -showAttrValues 0\n                -highlightSecondary 0\n                -showUVAttrsOnly 0\n                -showTextureNodesOnly 0\n                -attrAlphaOrder \"default\" \n                -animLayerFilterOptions \"allAffecting\" \n                -sortOrder \"none\" \n                -longNames 0\n                -niceNames 1\n                -showNamespace 1\n                -showPinIcons 0\n                -mapMotionTrails 1\n                -ignoreHiddenAttribute 0\n                -ignoreOutlinerColor 0\n                -renderFilterVisible 0\n                $editorName;\n\n\t\t\t$editorName = ($panelName+\"DopeSheetEd\");\n            dopeSheetEditor -e \n                -displayKeys 1\n                -displayTangents 0\n"
		+ "                -displayActiveKeys 0\n                -displayActiveKeyTangents 0\n                -displayInfinities 0\n                -displayValues 0\n                -autoFit 0\n                -snapTime \"integer\" \n                -snapValue \"none\" \n                -outliner \"dopeSheetPanel1OutlineEd\" \n                -showSummary 1\n                -showScene 0\n                -hierarchyBelow 0\n                -showTicks 1\n                -selectionWindow 0 0 0 0 \n                $editorName;\n\t\tif (!$useSceneConfig) {\n\t\t\tpanel -e -l $label $panelName;\n\t\t}\n\t}\n\n\n\t$panelName = `sceneUIReplacement -getNextScriptedPanel \"timeEditorPanel\" (localizedPanelLabel(\"Time Editor\")) `;\n\tif (\"\" != $panelName) {\n\t\t$label = `panel -q -label $panelName`;\n\t\tscriptedPanel -edit -l (localizedPanelLabel(\"Time Editor\")) -mbv $menusOkayInPanels  $panelName;\n\t\tif (!$useSceneConfig) {\n\t\t\tpanel -e -l $label $panelName;\n\t\t}\n\t}\n\n\n\t$panelName = `sceneUIReplacement -getNextScriptedPanel \"clipEditorPanel\" (localizedPanelLabel(\"Trax Editor\")) `;\n"
		+ "\tif (\"\" != $panelName) {\n\t\t$label = `panel -q -label $panelName`;\n\t\tscriptedPanel -edit -l (localizedPanelLabel(\"Trax Editor\")) -mbv $menusOkayInPanels  $panelName;\n\n\t\t\t$editorName = clipEditorNameFromPanel($panelName);\n            clipEditor -e \n                -displayKeys 0\n                -displayTangents 0\n                -displayActiveKeys 0\n                -displayActiveKeyTangents 0\n                -displayInfinities 0\n                -displayValues 0\n                -autoFit 0\n                -snapTime \"none\" \n                -snapValue \"none\" \n                -initialized 0\n                -manageSequencer 0 \n                $editorName;\n\t\tif (!$useSceneConfig) {\n\t\t\tpanel -e -l $label $panelName;\n\t\t}\n\t}\n\n\n\t$panelName = `sceneUIReplacement -getNextScriptedPanel \"sequenceEditorPanel\" (localizedPanelLabel(\"Camera Sequencer\")) `;\n\tif (\"\" != $panelName) {\n\t\t$label = `panel -q -label $panelName`;\n\t\tscriptedPanel -edit -l (localizedPanelLabel(\"Camera Sequencer\")) -mbv $menusOkayInPanels  $panelName;\n\n\t\t\t$editorName = sequenceEditorNameFromPanel($panelName);\n"
		+ "            clipEditor -e \n                -displayKeys 0\n                -displayTangents 0\n                -displayActiveKeys 0\n                -displayActiveKeyTangents 0\n                -displayInfinities 0\n                -displayValues 0\n                -autoFit 0\n                -snapTime \"none\" \n                -snapValue \"none\" \n                -initialized 0\n                -manageSequencer 1 \n                $editorName;\n\t\tif (!$useSceneConfig) {\n\t\t\tpanel -e -l $label $panelName;\n\t\t}\n\t}\n\n\n\t$panelName = `sceneUIReplacement -getNextScriptedPanel \"hyperGraphPanel\" (localizedPanelLabel(\"Hypergraph Hierarchy\")) `;\n\tif (\"\" != $panelName) {\n\t\t$label = `panel -q -label $panelName`;\n\t\tscriptedPanel -edit -l (localizedPanelLabel(\"Hypergraph Hierarchy\")) -mbv $menusOkayInPanels  $panelName;\n\n\t\t\t$editorName = ($panelName+\"HyperGraphEd\");\n            hyperGraph -e \n                -graphLayoutStyle \"hierarchicalLayout\" \n                -orientation \"horiz\" \n                -mergeConnections 0\n                -zoom 1\n"
		+ "                -animateTransition 0\n                -showRelationships 1\n                -showShapes 0\n                -showDeformers 0\n                -showExpressions 0\n                -showConstraints 0\n                -showConnectionFromSelected 0\n                -showConnectionToSelected 0\n                -showConstraintLabels 0\n                -showUnderworld 0\n                -showInvisible 0\n                -transitionFrames 1\n                -opaqueContainers 0\n                -freeform 0\n                -imagePosition 0 0 \n                -imageScale 1\n                -imageEnabled 0\n                -graphType \"DAG\" \n                -heatMapDisplay 0\n                -updateSelection 1\n                -updateNodeAdded 1\n                -useDrawOverrideColor 0\n                -limitGraphTraversal -1\n                -range 0 0 \n                -iconSize \"smallIcons\" \n                -showCachedConnections 0\n                $editorName;\n\t\tif (!$useSceneConfig) {\n\t\t\tpanel -e -l $label $panelName;\n\t\t}\n\t}\n"
		+ "\n\n\t$panelName = `sceneUIReplacement -getNextScriptedPanel \"hyperShadePanel\" (localizedPanelLabel(\"Hypershade\")) `;\n\tif (\"\" != $panelName) {\n\t\t$label = `panel -q -label $panelName`;\n\t\tscriptedPanel -edit -l (localizedPanelLabel(\"Hypershade\")) -mbv $menusOkayInPanels  $panelName;\n\t\tif (!$useSceneConfig) {\n\t\t\tpanel -e -l $label $panelName;\n\t\t}\n\t}\n\n\n\t$panelName = `sceneUIReplacement -getNextScriptedPanel \"visorPanel\" (localizedPanelLabel(\"Visor\")) `;\n\tif (\"\" != $panelName) {\n\t\t$label = `panel -q -label $panelName`;\n\t\tscriptedPanel -edit -l (localizedPanelLabel(\"Visor\")) -mbv $menusOkayInPanels  $panelName;\n\t\tif (!$useSceneConfig) {\n\t\t\tpanel -e -l $label $panelName;\n\t\t}\n\t}\n\n\n\t$panelName = `sceneUIReplacement -getNextScriptedPanel \"createNodePanel\" (localizedPanelLabel(\"Create Node\")) `;\n\tif (\"\" != $panelName) {\n\t\t$label = `panel -q -label $panelName`;\n\t\tscriptedPanel -edit -l (localizedPanelLabel(\"Create Node\")) -mbv $menusOkayInPanels  $panelName;\n\t\tif (!$useSceneConfig) {\n\t\t\tpanel -e -l $label $panelName;\n\t\t}\n\t}\n"
		+ "\n\n\t$panelName = `sceneUIReplacement -getNextScriptedPanel \"polyTexturePlacementPanel\" (localizedPanelLabel(\"UV Editor\")) `;\n\tif (\"\" != $panelName) {\n\t\t$label = `panel -q -label $panelName`;\n\t\tscriptedPanel -edit -l (localizedPanelLabel(\"UV Editor\")) -mbv $menusOkayInPanels  $panelName;\n\t\tif (!$useSceneConfig) {\n\t\t\tpanel -e -l $label $panelName;\n\t\t}\n\t}\n\n\n\t$panelName = `sceneUIReplacement -getNextScriptedPanel \"renderWindowPanel\" (localizedPanelLabel(\"Render View\")) `;\n\tif (\"\" != $panelName) {\n\t\t$label = `panel -q -label $panelName`;\n\t\tscriptedPanel -edit -l (localizedPanelLabel(\"Render View\")) -mbv $menusOkayInPanels  $panelName;\n\t\tif (!$useSceneConfig) {\n\t\t\tpanel -e -l $label $panelName;\n\t\t}\n\t}\n\n\n\t$panelName = `sceneUIReplacement -getNextPanel \"shapePanel\" (localizedPanelLabel(\"Shape Editor\")) `;\n\tif (\"\" != $panelName) {\n\t\t$label = `panel -q -label $panelName`;\n\t\tshapePanel -edit -l (localizedPanelLabel(\"Shape Editor\")) -mbv $menusOkayInPanels  $panelName;\n\t\tif (!$useSceneConfig) {\n\t\t\tpanel -e -l $label $panelName;\n"
		+ "\t\t}\n\t}\n\n\n\t$panelName = `sceneUIReplacement -getNextPanel \"posePanel\" (localizedPanelLabel(\"Pose Editor\")) `;\n\tif (\"\" != $panelName) {\n\t\t$label = `panel -q -label $panelName`;\n\t\tposePanel -edit -l (localizedPanelLabel(\"Pose Editor\")) -mbv $menusOkayInPanels  $panelName;\n\t\tif (!$useSceneConfig) {\n\t\t\tpanel -e -l $label $panelName;\n\t\t}\n\t}\n\n\n\t$panelName = `sceneUIReplacement -getNextScriptedPanel \"dynRelEdPanel\" (localizedPanelLabel(\"Dynamic Relationships\")) `;\n\tif (\"\" != $panelName) {\n\t\t$label = `panel -q -label $panelName`;\n\t\tscriptedPanel -edit -l (localizedPanelLabel(\"Dynamic Relationships\")) -mbv $menusOkayInPanels  $panelName;\n\t\tif (!$useSceneConfig) {\n\t\t\tpanel -e -l $label $panelName;\n\t\t}\n\t}\n\n\n\t$panelName = `sceneUIReplacement -getNextScriptedPanel \"relationshipPanel\" (localizedPanelLabel(\"Relationship Editor\")) `;\n\tif (\"\" != $panelName) {\n\t\t$label = `panel -q -label $panelName`;\n\t\tscriptedPanel -edit -l (localizedPanelLabel(\"Relationship Editor\")) -mbv $menusOkayInPanels  $panelName;\n\t\tif (!$useSceneConfig) {\n"
		+ "\t\t\tpanel -e -l $label $panelName;\n\t\t}\n\t}\n\n\n\t$panelName = `sceneUIReplacement -getNextScriptedPanel \"referenceEditorPanel\" (localizedPanelLabel(\"Reference Editor\")) `;\n\tif (\"\" != $panelName) {\n\t\t$label = `panel -q -label $panelName`;\n\t\tscriptedPanel -edit -l (localizedPanelLabel(\"Reference Editor\")) -mbv $menusOkayInPanels  $panelName;\n\t\tif (!$useSceneConfig) {\n\t\t\tpanel -e -l $label $panelName;\n\t\t}\n\t}\n\n\n\t$panelName = `sceneUIReplacement -getNextScriptedPanel \"componentEditorPanel\" (localizedPanelLabel(\"Component Editor\")) `;\n\tif (\"\" != $panelName) {\n\t\t$label = `panel -q -label $panelName`;\n\t\tscriptedPanel -edit -l (localizedPanelLabel(\"Component Editor\")) -mbv $menusOkayInPanels  $panelName;\n\t\tif (!$useSceneConfig) {\n\t\t\tpanel -e -l $label $panelName;\n\t\t}\n\t}\n\n\n\t$panelName = `sceneUIReplacement -getNextScriptedPanel \"dynPaintScriptedPanelType\" (localizedPanelLabel(\"Paint Effects\")) `;\n\tif (\"\" != $panelName) {\n\t\t$label = `panel -q -label $panelName`;\n\t\tscriptedPanel -edit -l (localizedPanelLabel(\"Paint Effects\")) -mbv $menusOkayInPanels  $panelName;\n"
		+ "\t\tif (!$useSceneConfig) {\n\t\t\tpanel -e -l $label $panelName;\n\t\t}\n\t}\n\n\n\t$panelName = `sceneUIReplacement -getNextScriptedPanel \"scriptEditorPanel\" (localizedPanelLabel(\"Script Editor\")) `;\n\tif (\"\" != $panelName) {\n\t\t$label = `panel -q -label $panelName`;\n\t\tscriptedPanel -edit -l (localizedPanelLabel(\"Script Editor\")) -mbv $menusOkayInPanels  $panelName;\n\t\tif (!$useSceneConfig) {\n\t\t\tpanel -e -l $label $panelName;\n\t\t}\n\t}\n\n\n\t$panelName = `sceneUIReplacement -getNextScriptedPanel \"profilerPanel\" (localizedPanelLabel(\"Profiler Tool\")) `;\n\tif (\"\" != $panelName) {\n\t\t$label = `panel -q -label $panelName`;\n\t\tscriptedPanel -edit -l (localizedPanelLabel(\"Profiler Tool\")) -mbv $menusOkayInPanels  $panelName;\n\t\tif (!$useSceneConfig) {\n\t\t\tpanel -e -l $label $panelName;\n\t\t}\n\t}\n\n\n\t$panelName = `sceneUIReplacement -getNextScriptedPanel \"contentBrowserPanel\" (localizedPanelLabel(\"Content Browser\")) `;\n\tif (\"\" != $panelName) {\n\t\t$label = `panel -q -label $panelName`;\n\t\tscriptedPanel -edit -l (localizedPanelLabel(\"Content Browser\")) -mbv $menusOkayInPanels  $panelName;\n"
		+ "\t\tif (!$useSceneConfig) {\n\t\t\tpanel -e -l $label $panelName;\n\t\t}\n\t}\n\n\n\t$panelName = `sceneUIReplacement -getNextScriptedPanel \"Stereo\" (localizedPanelLabel(\"Stereo\")) `;\n\tif (\"\" != $panelName) {\n\t\t$label = `panel -q -label $panelName`;\n\t\tscriptedPanel -edit -l (localizedPanelLabel(\"Stereo\")) -mbv $menusOkayInPanels  $panelName;\nstring $editorName = ($panelName+\"Editor\");\n            stereoCameraView -e \n                -camera \"persp\" \n                -useInteractiveMode 0\n                -displayLights \"default\" \n                -displayAppearance \"smoothShaded\" \n                -activeOnly 0\n                -ignorePanZoom 0\n                -wireframeOnShaded 0\n                -headsUpDisplay 1\n                -holdOuts 1\n                -selectionHiliteDisplay 1\n                -useDefaultMaterial 0\n                -bufferMode \"double\" \n                -twoSidedLighting 0\n                -backfaceCulling 0\n                -xray 0\n                -jointXray 0\n                -activeComponentsXray 0\n                -displayTextures 0\n"
		+ "                -smoothWireframe 0\n                -lineWidth 1\n                -textureAnisotropic 0\n                -textureHilight 1\n                -textureSampling 2\n                -textureDisplay \"modulate\" \n                -textureMaxSize 16384\n                -fogging 0\n                -fogSource \"fragment\" \n                -fogMode \"linear\" \n                -fogStart 0\n                -fogEnd 100\n                -fogDensity 0.1\n                -fogColor 0.5 0.5 0.5 1 \n                -depthOfFieldPreview 1\n                -maxConstantTransparency 1\n                -objectFilterShowInHUD 1\n                -isFiltered 0\n                -colorResolution 4 4 \n                -bumpResolution 4 4 \n                -textureCompression 0\n                -transparencyAlgorithm \"frontAndBackCull\" \n                -transpInShadows 0\n                -cullingOverride \"none\" \n                -lowQualityLighting 0\n                -maximumNumHardwareLights 0\n                -occlusionCulling 0\n                -shadingModel 0\n"
		+ "                -useBaseRenderer 0\n                -useReducedRenderer 0\n                -smallObjectCulling 0\n                -smallObjectThreshold -1 \n                -interactiveDisableShadows 0\n                -interactiveBackFaceCull 0\n                -sortTransparent 1\n                -controllers 1\n                -nurbsCurves 1\n                -nurbsSurfaces 1\n                -polymeshes 1\n                -subdivSurfaces 1\n                -planes 1\n                -lights 1\n                -cameras 1\n                -controlVertices 1\n                -hulls 1\n                -grid 1\n                -imagePlane 1\n                -joints 1\n                -ikHandles 1\n                -deformers 1\n                -dynamics 1\n                -particleInstancers 1\n                -fluids 1\n                -hairSystems 1\n                -follicles 1\n                -nCloths 1\n                -nParticles 1\n                -nRigids 1\n                -dynamicConstraints 1\n                -locators 1\n                -manipulators 1\n"
		+ "                -pluginShapes 1\n                -dimensions 1\n                -handles 1\n                -pivots 1\n                -textures 1\n                -strokes 1\n                -motionTrails 1\n                -clipGhosts 1\n                -greasePencils 1\n                -shadows 0\n                -captureSequenceNumber -1\n                -width 0\n                -height 0\n                -sceneRenderFilter 0\n                -displayMode \"centerEye\" \n                -viewColor 0 0 0 1 \n                -useCustomBackground 1\n                $editorName;\n            stereoCameraView -e -viewSelected 0 $editorName;\n            stereoCameraView -e \n                -pluginObjects \"gpuCacheDisplayFilter\" 1 \n                $editorName;\n\t\tif (!$useSceneConfig) {\n\t\t\tpanel -e -l $label $panelName;\n\t\t}\n\t}\n\n\n\t$panelName = `sceneUIReplacement -getNextScriptedPanel \"nodeEditorPanel\" (localizedPanelLabel(\"Node Editor\")) `;\n\tif (\"\" != $panelName) {\n\t\t$label = `panel -q -label $panelName`;\n\t\tscriptedPanel -edit -l (localizedPanelLabel(\"Node Editor\")) -mbv $menusOkayInPanels  $panelName;\n"
		+ "\n\t\t\t$editorName = ($panelName+\"NodeEditorEd\");\n            nodeEditor -e \n                -allAttributes 0\n                -allNodes 0\n                -autoSizeNodes 1\n                -consistentNameSize 1\n                -createNodeCommand \"nodeEdCreateNodeCommand\" \n                -connectNodeOnCreation 0\n                -connectOnDrop 0\n                -highlightConnections 0\n                -copyConnectionsOnPaste 0\n                -connectionStyle \"bezier\" \n                -defaultPinnedState 0\n                -additiveGraphingMode 0\n                -settingsChangedCallback \"nodeEdSyncControls\" \n                -traversalDepthLimit -1\n                -keyPressCommand \"nodeEdKeyPressCommand\" \n                -nodeTitleMode \"name\" \n                -gridSnap 0\n                -gridVisibility 1\n                -crosshairOnEdgeDragging 0\n                -popupMenuScript \"nodeEdBuildPanelMenus\" \n                -showNamespace 1\n                -showShapes 1\n                -showSGShapes 0\n                -showTransforms 1\n"
		+ "                -useAssets 1\n                -syncedSelection 1\n                -extendToShapes 1\n                -activeTab -1\n                -editorMode \"default\" \n                $editorName;\n\t\tif (!$useSceneConfig) {\n\t\t\tpanel -e -l $label $panelName;\n\t\t}\n\t}\n\n\n\tif ($useSceneConfig) {\n        string $configName = `getPanel -cwl (localizedPanelLabel(\"Current Layout\"))`;\n        if (\"\" != $configName) {\n\t\t\tpanelConfiguration -edit -label (localizedPanelLabel(\"Current Layout\")) \n\t\t\t\t-userCreated false\n\t\t\t\t-defaultImage \"vacantCell.xP:/\"\n\t\t\t\t-image \"\"\n\t\t\t\t-sc false\n\t\t\t\t-configString \"global string $gMainPane; paneLayout -e -cn \\\"single\\\" -ps 1 100 100 $gMainPane;\"\n\t\t\t\t-removeAllPanels\n\t\t\t\t-ap false\n\t\t\t\t\t(localizedPanelLabel(\"Persp View\")) \n\t\t\t\t\t\"modelPanel\"\n"
		+ "\t\t\t\t\t\"$panelName = `modelPanel -unParent -l (localizedPanelLabel(\\\"Persp View\\\")) -mbv $menusOkayInPanels `;\\n$editorName = $panelName;\\nmodelEditor -e \\n    -cam `findStartUpCamera persp` \\n    -useInteractiveMode 0\\n    -displayLights \\\"default\\\" \\n    -displayAppearance \\\"smoothShaded\\\" \\n    -activeOnly 0\\n    -ignorePanZoom 0\\n    -wireframeOnShaded 0\\n    -headsUpDisplay 1\\n    -holdOuts 1\\n    -selectionHiliteDisplay 1\\n    -useDefaultMaterial 0\\n    -bufferMode \\\"double\\\" \\n    -twoSidedLighting 0\\n    -backfaceCulling 0\\n    -xray 0\\n    -jointXray 0\\n    -activeComponentsXray 0\\n    -displayTextures 0\\n    -smoothWireframe 0\\n    -lineWidth 1\\n    -textureAnisotropic 0\\n    -textureHilight 1\\n    -textureSampling 2\\n    -textureDisplay \\\"modulate\\\" \\n    -textureMaxSize 16384\\n    -fogging 0\\n    -fogSource \\\"fragment\\\" \\n    -fogMode \\\"linear\\\" \\n    -fogStart 0\\n    -fogEnd 100\\n    -fogDensity 0.1\\n    -fogColor 0.5 0.5 0.5 1 \\n    -depthOfFieldPreview 1\\n    -maxConstantTransparency 1\\n    -rendererName \\\"vp2Renderer\\\" \\n    -objectFilterShowInHUD 1\\n    -isFiltered 0\\n    -colorResolution 256 256 \\n    -bumpResolution 512 512 \\n    -textureCompression 0\\n    -transparencyAlgorithm \\\"frontAndBackCull\\\" \\n    -transpInShadows 0\\n    -cullingOverride \\\"none\\\" \\n    -lowQualityLighting 0\\n    -maximumNumHardwareLights 1\\n    -occlusionCulling 0\\n    -shadingModel 0\\n    -useBaseRenderer 0\\n    -useReducedRenderer 0\\n    -smallObjectCulling 0\\n    -smallObjectThreshold -1 \\n    -interactiveDisableShadows 0\\n    -interactiveBackFaceCull 0\\n    -sortTransparent 1\\n    -controllers 1\\n    -nurbsCurves 1\\n    -nurbsSurfaces 1\\n    -polymeshes 1\\n    -subdivSurfaces 1\\n    -planes 1\\n    -lights 1\\n    -cameras 1\\n    -controlVertices 1\\n    -hulls 1\\n    -grid 1\\n    -imagePlane 1\\n    -joints 1\\n    -ikHandles 1\\n    -deformers 1\\n    -dynamics 1\\n    -particleInstancers 1\\n    -fluids 1\\n    -hairSystems 1\\n    -follicles 1\\n    -nCloths 1\\n    -nParticles 1\\n    -nRigids 1\\n    -dynamicConstraints 1\\n    -locators 1\\n    -manipulators 1\\n    -pluginShapes 1\\n    -dimensions 1\\n    -handles 1\\n    -pivots 1\\n    -textures 1\\n    -strokes 1\\n    -motionTrails 1\\n    -clipGhosts 1\\n    -greasePencils 1\\n    -shadows 0\\n    -captureSequenceNumber -1\\n    -width 953\\n    -height 654\\n    -sceneRenderFilter 0\\n    $editorName;\\nmodelEditor -e -viewSelected 0 $editorName;\\nmodelEditor -e \\n    -pluginObjects \\\"gpuCacheDisplayFilter\\\" 1 \\n    $editorName\"\n"
		+ "\t\t\t\t\t\"modelPanel -edit -l (localizedPanelLabel(\\\"Persp View\\\")) -mbv $menusOkayInPanels  $panelName;\\n$editorName = $panelName;\\nmodelEditor -e \\n    -cam `findStartUpCamera persp` \\n    -useInteractiveMode 0\\n    -displayLights \\\"default\\\" \\n    -displayAppearance \\\"smoothShaded\\\" \\n    -activeOnly 0\\n    -ignorePanZoom 0\\n    -wireframeOnShaded 0\\n    -headsUpDisplay 1\\n    -holdOuts 1\\n    -selectionHiliteDisplay 1\\n    -useDefaultMaterial 0\\n    -bufferMode \\\"double\\\" \\n    -twoSidedLighting 0\\n    -backfaceCulling 0\\n    -xray 0\\n    -jointXray 0\\n    -activeComponentsXray 0\\n    -displayTextures 0\\n    -smoothWireframe 0\\n    -lineWidth 1\\n    -textureAnisotropic 0\\n    -textureHilight 1\\n    -textureSampling 2\\n    -textureDisplay \\\"modulate\\\" \\n    -textureMaxSize 16384\\n    -fogging 0\\n    -fogSource \\\"fragment\\\" \\n    -fogMode \\\"linear\\\" \\n    -fogStart 0\\n    -fogEnd 100\\n    -fogDensity 0.1\\n    -fogColor 0.5 0.5 0.5 1 \\n    -depthOfFieldPreview 1\\n    -maxConstantTransparency 1\\n    -rendererName \\\"vp2Renderer\\\" \\n    -objectFilterShowInHUD 1\\n    -isFiltered 0\\n    -colorResolution 256 256 \\n    -bumpResolution 512 512 \\n    -textureCompression 0\\n    -transparencyAlgorithm \\\"frontAndBackCull\\\" \\n    -transpInShadows 0\\n    -cullingOverride \\\"none\\\" \\n    -lowQualityLighting 0\\n    -maximumNumHardwareLights 1\\n    -occlusionCulling 0\\n    -shadingModel 0\\n    -useBaseRenderer 0\\n    -useReducedRenderer 0\\n    -smallObjectCulling 0\\n    -smallObjectThreshold -1 \\n    -interactiveDisableShadows 0\\n    -interactiveBackFaceCull 0\\n    -sortTransparent 1\\n    -controllers 1\\n    -nurbsCurves 1\\n    -nurbsSurfaces 1\\n    -polymeshes 1\\n    -subdivSurfaces 1\\n    -planes 1\\n    -lights 1\\n    -cameras 1\\n    -controlVertices 1\\n    -hulls 1\\n    -grid 1\\n    -imagePlane 1\\n    -joints 1\\n    -ikHandles 1\\n    -deformers 1\\n    -dynamics 1\\n    -particleInstancers 1\\n    -fluids 1\\n    -hairSystems 1\\n    -follicles 1\\n    -nCloths 1\\n    -nParticles 1\\n    -nRigids 1\\n    -dynamicConstraints 1\\n    -locators 1\\n    -manipulators 1\\n    -pluginShapes 1\\n    -dimensions 1\\n    -handles 1\\n    -pivots 1\\n    -textures 1\\n    -strokes 1\\n    -motionTrails 1\\n    -clipGhosts 1\\n    -greasePencils 1\\n    -shadows 0\\n    -captureSequenceNumber -1\\n    -width 953\\n    -height 654\\n    -sceneRenderFilter 0\\n    $editorName;\\nmodelEditor -e -viewSelected 0 $editorName;\\nmodelEditor -e \\n    -pluginObjects \\\"gpuCacheDisplayFilter\\\" 1 \\n    $editorName\"\n"
		+ "\t\t\t\t$configName;\n\n            setNamedPanelLayout (localizedPanelLabel(\"Current Layout\"));\n        }\n\n        panelHistory -e -clear mainPanelHistory;\n        sceneUIReplacement -clear;\n\t}\n\n\ngrid -spacing 5 -size 12 -divisions 5 -displayAxes yes -displayGridLines yes -displayDivisionLines yes -displayPerspectiveLabels no -displayOrthographicLabels no -displayAxesBold yes -perspectiveLabelPosition axis -orthographicLabelPosition edge;\nviewManip -drawCompass 0 -compassAngle 0 -frontParameters \"\" -homeParameters \"\" -selectionLockParameters \"\";\n}\n");
	setAttr ".st" 3;
createNode script -n "sceneConfigurationScriptNode";
	rename -uid "8E99EDD0-5A45-2957-963C-57AA3198D17D";
	setAttr ".b" -type "string" "playbackOptions -min 1 -max 119.837 -ast 1 -aet 200 ";
	setAttr ".st" 6;
select -ne :time1;
	setAttr ".o" 73;
	setAttr ".unw" 73;
select -ne :hardwareRenderingGlobals;
	setAttr ".otfna" -type "stringArray" 22 "NURBS Curves" "NURBS Surfaces" "Polygons" "Subdiv Surface" "Particles" "Particle Instance" "Fluids" "Strokes" "Image Planes" "UI" "Lights" "Cameras" "Locators" "Joints" "IK Handles" "Deformers" "Motion Trails" "Components" "Hair Systems" "Follicles" "Misc. UI" "Ornaments"  ;
	setAttr ".otfva" -type "Int32Array" 22 0 1 1 1 1 1
		 1 1 1 0 0 0 0 0 0 0 0 0
		 0 0 0 0 ;
	setAttr ".fprt" yes;
select -ne :renderPartition;
	setAttr -s 3 ".st";
select -ne :renderGlobalsList1;
select -ne :defaultShaderList1;
	setAttr -s 5 ".s";
select -ne :postProcessList1;
	setAttr -s 2 ".p";
select -ne :defaultRenderingList1;
	setAttr -s 5 ".r";
select -ne :initialShadingGroup;
	setAttr ".ro" yes;
select -ne :initialParticleSE;
	setAttr ".ro" yes;
select -ne :defaultRenderGlobals;
	setAttr ".ren" -type "string" "arnold";
select -ne :defaultResolution;
	setAttr ".pa" 1;
select -ne :hardwareRenderGlobals;
	setAttr ".ctrs" 256;
connectAttr "lambert11SG.msg" "materialInfo11.sg";
connectAttr "lambert11.msg" "materialInfo11.m";
connectAttr "lambert11.oc" "lambert11SG.ss";
connectAttr "door_hinge_bottom_originalShape.iog" "lambert11SG.dsm" -na;
connectAttr "door_hinge_top_originalShape.iog" "lambert11SG.dsm" -na;
relationship "link" ":lightLinker1" ":initialShadingGroup.message" ":defaultLightSet.message";
relationship "link" ":lightLinker1" ":initialParticleSE.message" ":defaultLightSet.message";
relationship "link" ":lightLinker1" "lambert11SG.message" ":defaultLightSet.message";
relationship "shadowLink" ":lightLinker1" ":initialShadingGroup.message" ":defaultLightSet.message";
relationship "shadowLink" ":lightLinker1" ":initialParticleSE.message" ":defaultLightSet.message";
relationship "shadowLink" ":lightLinker1" "lambert11SG.message" ":defaultLightSet.message";
connectAttr "layerManager.dli[0]" "defaultLayer.id";
connectAttr "renderLayerManager.rlmi[0]" "defaultRenderLayer.rlid";
connectAttr ":rmanDefaultDisplay.msg" ":rmanGlobals.displays[0]";
connectAttr ":PxrPathTracer.msg" ":rmanGlobals.ri_integrator";
connectAttr "d_openexr.msg" ":rmanDefaultDisplay.displayType";
connectAttr "Ci.msg" ":rmanDefaultDisplay.displayChannels[0]";
connectAttr "a.msg" ":rmanDefaultDisplay.displayChannels[1]";
connectAttr "lambert11SG.pa" ":renderPartition.st" -na;
connectAttr "lambert11.msg" ":defaultShaderList1.s" -na;
connectAttr "defaultRenderLayer.msg" ":defaultRenderingList1.r" -na;
connectAttr ":rmanGlobals.msg" ":defaultRenderingList1.r" -na;
connectAttr ":rmanDefaultDisplay.msg" ":defaultRenderingList1.r" -na;
connectAttr "d_openexr.msg" ":defaultRenderingList1.r" -na;
connectAttr ":PxrPathTracer.msg" ":defaultRenderingList1.r" -na;
// End of door_hinge.ma
