//Maya ASCII 2018 scene
//Name: knockahs.ma
//Last modified: Fri, Nov 09, 2018 11:36:02 PM
//Codeset: UTF-8
requires maya "2018";
requires "stereoCamera" "10.0";
currentUnit -l centimeter -a degree -t film;
fileInfo "application" "maya";
fileInfo "product" "Maya 2018";
fileInfo "version" "2018";
fileInfo "cutIdentifier" "201706261615-f9658c4cfc";
fileInfo "osv" "Mac OS X 10.13.6";
fileInfo "license" "student";
createNode transform -n "door_knocker";
	rename -uid "AC9217CF-8145-1A19-4A81-56A63AC5B6FA";
	setAttr ".rp" -type "double3" -0.16515713930130005 -3.5762788286319847e-08 -1.4901161193847656e-08 ;
	setAttr ".sp" -type "double3" -0.16515713930130005 -3.5762788286319847e-08 -1.4901161193847656e-08 ;
createNode transform -n "knocker" -p "door_knocker";
	rename -uid "7C5F014D-E34F-8CEC-A284-5C8F3AB2EF2C";
	setAttr ".t" -type "double3" 1.5 0 0 ;
	setAttr ".r" -type "double3" 0 0 -83.779640086971042 ;
	setAttr ".rp" -type "double3" -1.002207287689417 0 0 ;
	setAttr ".sp" -type "double3" -1.002207287689417 0 0 ;
createNode mesh -n "knockerShape" -p "|door_knocker|knocker";
	rename -uid "6D16769E-5243-D05E-77AB-D1B2178485B7";
	setAttr -k off ".v";
	setAttr ".vir" yes;
	setAttr ".vif" yes;
	setAttr ".pv" -type "double2" 0.90000009536743164 0.25 ;
	setAttr ".uvst[0].uvsn" -type "string" "map1";
	setAttr -s 133 ".uvst[0].uvsp[0:132]" -type "float2" 0 1 0.1 1 0.2 1 0.30000001
		 1 0.40000001 1 0.5 1 0.60000002 1 0.70000005 1 0.80000007 1 0.9000001 1 1.000000119209
		 1 0 0.875 0.1 0.875 0.2 0.875 0.30000001 0.875 0.40000001 0.875 0.5 0.875 0.60000002
		 0.875 0.70000005 0.875 0.80000007 0.875 0.9000001 0.875 1.000000119209 0.875 0 0.75
		 0.1 0.75 0.2 0.75 0.30000001 0.75 0.40000001 0.75 0.5 0.75 0.60000002 0.75 0.70000005
		 0.75 0.80000007 0.75 0.9000001 0.75 1.000000119209 0.75 0 0.625 0.1 0.625 0.2 0.625
		 0.30000001 0.625 0.40000001 0.625 0.5 0.625 0.60000002 0.625 0.70000005 0.625 0.80000007
		 0.625 0.9000001 0.625 1.000000119209 0.625 0 0.5 0.1 0.5 0.2 0.5 0.30000001 0.5 0.40000001
		 0.5 0.5 0.5 0.60000002 0.5 0.70000005 0.5 0.80000007 0.5 0.9000001 0.5 1.000000119209
		 0.5 0 0.375 0.1 0.375 0.2 0.375 0.30000001 0.375 0.40000001 0.375 0.5 0.375 0.60000002
		 0.375 0.70000005 0.375 0.80000007 0.375 0.9000001 0.375 1.000000119209 0.375 0 0.25
		 0.1 0.25 0.2 0.25 0.30000001 0.25 0.40000001 0.25 0.5 0.25 0.60000002 0.25 0.70000005
		 0.25 0.80000007 0.25 0.9000001 0.25 1.000000119209 0.25 0 0.125 0.1 0.125 0.2 0.125
		 0.30000001 0.125 0.40000001 0.125 0.5 0.125 0.60000002 0.125 0.70000005 0.125 0.80000007
		 0.125 0.9000001 0.125 1.000000119209 0.125 0 0 0.1 0 0.2 0 0.30000001 0 0.40000001
		 0 0.5 0 0.60000002 0 0.70000005 0 0.80000007 0 0.9000001 0 1.000000119209 0 0.93234885
		 0.75 0.93234885 0.875 0.93234885 0 0.93234885 1 0.93234885 0.125 0.93234885 0.25
		 0.93234885 0.375 0.93234885 0.5 0.93234885 0.625 0.86765134 0.75 0.86765134 0.875
		 0.86765134 0 0.86765134 1 0.86765134 0.125 0.86765134 0.25 0.86765134 0.375 0.86765134
		 0.5 0.86765134 0.625 0.93234885 0.875 0.9000001 0.875 0.93234885 0.75 0.93234885
		 0.625 0.93234885 0.5 0.93234885 0.375 0.93234885 0.25 0.9000001 0.125 0.93234885
		 0.125 0.86765134 0.875 0.86765134 0.75 0.86765134 0.25 0.86765134 0.125 0.86765134
		 0.375 0.86765134 0.5 0.86765134 0.625;
	setAttr ".cuvs" -type "string" "map1";
	setAttr ".dcc" -type "string" "Ambient+Diffuse";
	setAttr ".covm[0]"  0 1 1;
	setAttr ".cdvm[0]"  0 1 1;
	setAttr -s 27 ".pt";
	setAttr ".pt[19]" -type "float3" -0.081780151 0 0 ;
	setAttr ".pt[74]" -type "float3" -0.081780151 0 0 ;
	setAttr ".pt[76]" -type "float3" -1.4901161e-08 0 0 ;
	setAttr ".pt[78]" -type "float3" -1.4901161e-08 0 0 ;
	setAttr ".pt[84]" -type "float3" -1.4901161e-08 0 0 ;
	setAttr ".pt[86]" -type "float3" -1.4901161e-08 0 0 ;
	setAttr ".pt[91]" -type "float3" -0.04077287 0.16764879 0 ;
	setAttr ".pt[92]" -type "float3" 0.035666656 0.11723724 0.083099492 ;
	setAttr ".pt[93]" -type "float3" -0.0074158506 0.16579828 0 ;
	setAttr ".pt[94]" -type "float3" -0.048388314 0.11728255 0.10486044 ;
	setAttr ".pt[95]" -type "float3" 0.061605789 0.11723724 0 ;
	setAttr ".pt[96]" -type "float3" 0.10982123 0.11723724 0 ;
	setAttr ".pt[97]" -type "float3" 0.15838243 -4.9411737e-09 0 ;
	setAttr ".pt[98]" -type "float3" 0.10716691 -4.9411737e-09 0 ;
	setAttr ".pt[99]" -type "float3" 0.10982123 -0.11723725 0 ;
	setAttr ".pt[100]" -type "float3" 0.061605789 -0.11723725 0 ;
	setAttr ".pt[101]" -type "float3" -0.074476093 -0.16579829 0 ;
	setAttr ".pt[102]" -type "float3" -0.02508002 -0.12463196 0.046218731 ;
	setAttr ".pt[103]" -type "float3" -0.04077287 -0.16764879 0 ;
	setAttr ".pt[104]" -type "float3" 0.035666656 -0.11723725 0.050727461 ;
	setAttr ".pt[105]" -type "float3" 0.035666656 0.11723724 -0.083099492 ;
	setAttr ".pt[106]" -type "float3" -0.048388314 0.11728255 -0.10486044 ;
	setAttr ".pt[107]" -type "float3" -0.02508002 -0.12463196 -0.046218731 ;
	setAttr ".pt[108]" -type "float3" 0.035666656 -0.11723725 -0.050727461 ;
	setAttr ".pt[109]" -type "float3" 0.061605789 -0.11723725 0 ;
	setAttr ".pt[110]" -type "float3" 0.10716691 -4.9411737e-09 0 ;
	setAttr ".pt[111]" -type "float3" 0.061605789 0.11723724 0 ;
	setAttr -s 112 ".vt[0:111]"  0.60676277 0 -0.44083905 0.23176265 0 -0.71329254
		 -0.23176289 0 -0.71329248 -0.65151846 -0.01348877 -0.60914147 -0.75000012 0 4.4703484e-08
		 -0.65151834 -0.01348877 0.60914147 -0.23176277 0 0.71329248 0.23176277 0 0.71329242
		 0.60676277 0 0.44083893 0.75 0 0 0.66600168 0.17677689 -0.48387864 0.25439 0.17677689 -0.78293204
		 -0.25439012 0.17677689 -0.78293192 -0.6894716 0.16328812 -0.67176104 -0.82322341 0.17677689 4.9067932e-08
		 -0.68947148 0.16328812 0.67176104 -0.25439 0.17677689 0.78293192 0.25439 0.17677689 0.78293192
		 0.66600156 0.17677689 0.48387849 0.82322335 0.17677689 0 0.80901706 0.25 -0.58778542
		 0.30901694 0.25 -0.95105672 -0.30901718 0.25 -0.9510566 -0.78109866 0.23651123 -0.82293802
		 -1.000000119209 0.25 5.9604645e-08 -0.78109848 0.23651123 0.82293808 -0.30901694 0.25 0.9510566
		 0.30901706 0.25 0.95105654 0.80901694 0.25 0.58778524 0.95203233 0.17677689 -0.69169217
		 0.36364388 0.17677689 -1.11918139 -0.36364412 0.17677689 -1.11918116 -0.90064418 0.17677689 -1.10400414
		 -1.17677677 0.17677689 7.0141354e-08 -0.900644 0.17677689 1.10400414 -0.36364394 0.17677689 1.11918116
		 0.363644 0.17677689 1.11918116 0.95203233 0.17677689 0.69169194 1.011271477 0 -0.73473179
		 0.38627124 0 -1.18882084 -0.38627148 0 -1.18882072 -0.93859738 0 -1.16662383 -1.25000012 0 7.4505806e-08
		 -0.9385972 0 1.16662395 -0.38627124 0 1.18882072 0.38627124 0 1.18882072 1.011271238 0 0.73473155
		 0.95203233 -0.17677689 -0.69169217 0.36364388 -0.17677689 -1.11918139 -0.36364412 -0.17677689 -1.11918116
		 -0.90064418 -0.17677689 -1.10400414 -1.17677677 -0.17677689 7.0141354e-08 -0.900644 -0.17677689 1.10400414
		 -0.36364394 -0.17677689 1.11918116 0.363644 -0.17677689 1.11918116 0.95203233 -0.17677689 0.69169194
		 0.80901706 -0.25 -0.58778542 0.30901694 -0.25 -0.95105672 -0.30901718 -0.25 -0.9510566
		 -0.78109866 -0.26348877 -0.82293802 -1.000000119209 -0.25 5.9604645e-08 -0.78109848 -0.26348877 0.82293808
		 -0.30901694 -0.25 0.9510566 0.30901706 -0.25 0.95105654 0.80901694 -0.25 0.58778524
		 0.6660018 -0.17677689 -0.48387867 0.25439 -0.17677689 -0.7829321 -0.25439012 -0.17677689 -0.78293198
		 -0.6894716 -0.19026518 -0.67176116 -0.82322347 -0.17677689 4.9067935e-08 -0.68947154 -0.19026518 0.6717611
		 -0.25439 -0.17677689 0.78293198 0.25439 -0.17677689 0.78293192 0.66600168 -0.17677689 0.48387855
		 0.82322335 -0.17677689 0 0.93821943 0.25 -0.29094613 0.77236414 0.17677689 -0.25641826
		 0.70366454 0 -0.14260586 0.77236414 -0.17677689 -0.15652862 0.93821943 -0.25 -0.19014114
		 1.10407472 -0.17677689 -0.22375366 1.17277431 0 -0.23767644 1.10407472 0.17677689 -0.22375366
		 0.93821943 0.25 0.29094604 0.77236414 0.17677689 0.25641823 0.70366454 0 0.14260581
		 0.77236414 -0.17677689 0.15652859 0.93821943 -0.25 0.19014108 1.10407472 -0.17677689 0.22375359
		 1.17277431 0 0.23767635 1.10407472 0.17677689 0.22375359 0.82322335 0.17677689 0
		 0.77236414 0.17677689 -0.25641826 1 0.25 0 0.93821943 0.25 -0.29094613 1.10407472 0.17677689 -0.22375366
		 1.17677665 0.17677689 0 1.25 0 0 1.17277431 0 -0.23767644 1.17677665 -0.17677689 0
		 1.10407472 -0.17677689 -0.22375366 1 -0.25 0 0.93821943 -0.25 -0.19014114 0.82322335 -0.17677689 0
		 0.77236414 -0.17677689 -0.15652862 0.77236414 0.17677689 0.25641823 0.93821943 0.25 0.29094604
		 0.93821943 -0.25 0.19014108 0.77236414 -0.17677689 0.15652859 1.10407472 -0.17677689 0.22375359
		 1.17277431 0 0.23767635 1.10407472 0.17677689 0.22375359;
	setAttr -s 224 ".ed";
	setAttr ".ed[0:165]"  0 1 0 1 2 0 2 3 0 3 4 0 4 5 0 5 6 0 6 7 0 7 8 0 8 85 0
		 9 77 0 10 11 0 11 12 0 12 13 0 13 14 0 14 15 0 15 16 0 16 17 0 17 18 0 18 84 0 19 76 0
		 20 21 0 21 22 0 22 23 0 23 24 0 24 25 0 25 26 0 26 27 0 27 28 0 28 83 0 29 30 0 30 31 0
		 31 32 0 32 33 0 33 34 0 34 35 0 35 36 0 36 37 0 37 90 0 38 39 0 39 40 0 40 41 0 41 42 0
		 42 43 0 43 44 0 44 45 0 45 46 0 46 89 0 47 48 0 48 49 0 49 50 0 50 51 0 51 52 0 52 53 0
		 53 54 0 54 55 0 55 88 0 56 57 0 57 58 0 58 59 0 59 60 0 60 61 0 61 62 0 62 63 0 63 64 0
		 64 87 0 65 66 0 66 67 0 67 68 0 68 69 0 69 70 0 70 71 0 71 72 0 72 73 0 73 86 0 74 78 0
		 0 10 0 1 11 0 2 12 0 3 13 0 4 14 0 5 15 0 6 16 0 7 17 0 8 18 0 9 19 0 10 20 0 11 21 0
		 12 22 0 13 23 0 14 24 0 15 25 0 16 26 0 17 27 0 18 28 0 20 29 0 21 30 0 22 31 0 23 32 0
		 24 33 0 25 34 0 26 35 0 27 36 0 28 37 0 29 38 0 30 39 0 31 40 0 32 41 0 33 42 0 34 43 0
		 35 44 0 36 45 0 37 46 0 38 47 0 39 48 0 40 49 0 41 50 0 42 51 0 43 52 0 44 53 0 45 54 0
		 46 55 0 47 56 0 48 57 0 49 58 0 50 59 0 51 60 0 52 61 0 53 62 0 54 63 0 55 64 0 56 65 0
		 57 66 0 58 67 0 59 68 0 60 69 0 61 70 0 62 71 0 63 72 0 64 73 0 65 0 0 66 1 0 67 2 0
		 68 3 0 69 4 0 70 5 0 71 6 0 72 7 0 73 8 0 74 9 0 75 20 0 76 10 0 75 76 0 77 0 0 76 77 1
		 78 65 0 77 78 1 79 56 0 78 79 0 80 47 0 79 80 0 81 38 0 80 81 0 82 29 0 81 82 0 82 75 0
		 84 19 0;
	setAttr ".ed[166:223]" 83 84 0 85 9 0 84 85 1 86 74 0 85 86 1 86 87 0 87 88 0
		 88 89 0 89 90 0 90 83 0 19 91 0 76 92 0 91 92 0 91 93 0 75 94 0 93 94 0 94 92 0 82 95 0
		 95 94 0 93 96 0 96 95 0 96 97 0 81 98 0 97 98 0 98 95 0 97 99 0 80 100 0 99 100 0
		 100 98 0 99 101 0 79 102 0 101 102 0 102 100 0 74 103 0 101 103 0 78 104 0 103 104 0
		 104 102 0 84 105 0 105 91 0 83 106 0 106 105 0 106 93 0 87 107 0 107 101 0 86 108 0
		 108 107 0 108 103 0 88 109 0 109 99 0 107 109 0 89 110 0 110 97 0 109 110 0 90 111 0
		 111 96 0 110 111 0 111 106 0;
	setAttr -s 112 -ch 448 ".fc[0:111]" -type "polyFaces" 
		f 4 -1 75 10 -77
		mu 0 4 1 0 11 12
		f 4 -2 76 11 -78
		mu 0 4 2 1 12 13
		f 4 -3 77 12 -79
		mu 0 4 3 2 13 14
		f 4 -4 78 13 -80
		mu 0 4 4 3 14 15
		f 4 -5 79 14 -81
		mu 0 4 5 4 15 16
		f 4 -6 80 15 -82
		mu 0 4 6 5 16 17
		f 4 -7 81 16 -83
		mu 0 4 7 6 17 18
		f 4 -8 82 17 -84
		mu 0 4 8 7 18 19
		f 4 -9 83 18 168
		mu 0 4 111 8 19 109
		f 4 -10 84 19 153
		mu 0 4 102 9 20 100
		f 4 -11 85 20 -87
		mu 0 4 12 11 22 23
		f 4 -12 86 21 -88
		mu 0 4 13 12 23 24
		f 4 -13 87 22 -89
		mu 0 4 14 13 24 25
		f 4 -14 88 23 -90
		mu 0 4 15 14 25 26
		f 4 -15 89 24 -91
		mu 0 4 16 15 26 27
		f 4 -16 90 25 -92
		mu 0 4 17 16 27 28
		f 4 -17 91 26 -93
		mu 0 4 18 17 28 29
		f 4 -18 92 27 -94
		mu 0 4 19 18 29 30
		f 4 -19 93 28 166
		mu 0 4 109 19 30 108
		f 4 -179 179 181 182
		mu 0 4 117 118 31 119
		f 4 -21 94 29 -96
		mu 0 4 23 22 33 34
		f 4 -22 95 30 -97
		mu 0 4 24 23 34 35
		f 4 -23 96 31 -98
		mu 0 4 25 24 35 36
		f 4 -24 97 32 -99
		mu 0 4 26 25 36 37
		f 4 -25 98 33 -100
		mu 0 4 27 26 37 38
		f 4 -26 99 34 -101
		mu 0 4 28 27 38 39
		f 4 -27 100 35 -102
		mu 0 4 29 28 39 40
		f 4 -28 101 36 -103
		mu 0 4 30 29 40 41
		f 4 175 -29 102 37
		mu 0 4 116 108 30 41
		f 4 184 -182 185 186
		mu 0 4 120 119 31 42
		f 4 -30 103 38 -105
		mu 0 4 34 33 44 45
		f 4 -31 104 39 -106
		mu 0 4 35 34 45 46
		f 4 -32 105 40 -107
		mu 0 4 36 35 46 47
		f 4 -33 106 41 -108
		mu 0 4 37 36 47 48
		f 4 -34 107 42 -109
		mu 0 4 38 37 48 49
		f 4 -35 108 43 -110
		mu 0 4 39 38 49 50
		f 4 -36 109 44 -111
		mu 0 4 40 39 50 51
		f 4 -37 110 45 -112
		mu 0 4 41 40 51 52
		f 4 -38 111 46 174
		mu 0 4 116 41 52 115
		f 4 -187 187 189 190
		mu 0 4 120 42 53 121
		f 4 -39 112 47 -114
		mu 0 4 45 44 55 56
		f 4 -40 113 48 -115
		mu 0 4 46 45 56 57
		f 4 -41 114 49 -116
		mu 0 4 47 46 57 58
		f 4 -42 115 50 -117
		mu 0 4 48 47 58 59
		f 4 -43 116 51 -118
		mu 0 4 49 48 59 60
		f 4 -44 117 52 -119
		mu 0 4 50 49 60 61
		f 4 -45 118 53 -120
		mu 0 4 51 50 61 62
		f 4 -46 119 54 -121
		mu 0 4 52 51 62 63
		f 4 -47 120 55 173
		mu 0 4 115 52 63 114
		f 4 -190 191 193 194
		mu 0 4 121 53 64 122
		f 4 -48 121 56 -123
		mu 0 4 56 55 66 67
		f 4 -49 122 57 -124
		mu 0 4 57 56 67 68
		f 4 -50 123 58 -125
		mu 0 4 58 57 68 69
		f 4 -51 124 59 -126
		mu 0 4 59 58 69 70
		f 4 -52 125 60 -127
		mu 0 4 60 59 70 71
		f 4 -53 126 61 -128
		mu 0 4 61 60 71 72
		f 4 -54 127 62 -129
		mu 0 4 62 61 72 73
		f 4 -55 128 63 -130
		mu 0 4 63 62 73 74
		f 4 -56 129 64 172
		mu 0 4 114 63 74 113
		f 4 -194 195 197 198
		mu 0 4 122 64 75 123
		f 4 -57 130 65 -132
		mu 0 4 67 66 77 78
		f 4 -58 131 66 -133
		mu 0 4 68 67 78 79
		f 4 -59 132 67 -134
		mu 0 4 69 68 79 80
		f 4 -60 133 68 -135
		mu 0 4 70 69 80 81
		f 4 -61 134 69 -136
		mu 0 4 71 70 81 82
		f 4 -62 135 70 -137
		mu 0 4 72 71 82 83
		f 4 -63 136 71 -138
		mu 0 4 73 72 83 84
		f 4 -64 137 72 -139
		mu 0 4 74 73 84 85
		f 4 -65 138 73 171
		mu 0 4 113 74 85 112
		f 4 -198 200 202 203
		mu 0 4 123 75 124 125
		f 4 -66 139 0 -141
		mu 0 4 78 77 88 89
		f 4 -67 140 1 -142
		mu 0 4 79 78 89 90
		f 4 -68 141 2 -143
		mu 0 4 80 79 90 91
		f 4 -69 142 3 -144
		mu 0 4 81 80 91 92
		f 4 -70 143 4 -145
		mu 0 4 82 81 92 93
		f 4 -71 144 5 -146
		mu 0 4 83 82 93 94
		f 4 -72 145 6 -147
		mu 0 4 84 83 94 95
		f 4 -73 146 7 -148
		mu 0 4 85 84 95 96
		f 4 -74 147 8 170
		mu 0 4 112 85 96 110
		f 4 -75 148 9 155
		mu 0 4 103 86 97 101
		f 4 -151 -152 149 -86
		mu 0 4 21 100 99 32
		f 4 -153 -154 150 -76
		mu 0 4 10 102 100 21
		f 4 -155 -156 152 -140
		mu 0 4 87 103 101 98
		f 4 -157 -158 154 -131
		mu 0 4 76 104 103 87
		f 4 -159 -160 156 -122
		mu 0 4 65 105 104 76
		f 4 -161 -162 158 -113
		mu 0 4 54 106 105 65
		f 4 -163 -164 160 -104
		mu 0 4 43 107 106 54
		f 4 -150 -165 162 -95
		mu 0 4 32 99 107 43
		f 4 -206 -208 208 -180
		mu 0 4 118 126 127 31
		f 4 -168 -169 165 -85
		mu 0 4 9 111 109 20
		f 4 -170 -171 167 -149
		mu 0 4 86 112 110 97
		f 4 -211 -213 213 -201
		mu 0 4 75 128 129 124
		f 4 -216 -217 210 -196
		mu 0 4 64 130 128 75
		f 4 -219 -220 215 -192
		mu 0 4 53 131 130 64
		f 4 -222 -223 218 -188
		mu 0 4 42 132 131 53
		f 4 -209 -224 221 -186
		mu 0 4 31 127 132 42
		f 4 -20 176 178 -178
		mu 0 4 100 20 118 117
		f 4 151 177 -183 -181
		mu 0 4 99 100 117 119
		f 4 164 180 -185 -184
		mu 0 4 107 99 119 120
		f 4 163 183 -191 -189
		mu 0 4 106 107 120 121
		f 4 161 188 -195 -193
		mu 0 4 105 106 121 122
		f 4 159 192 -199 -197
		mu 0 4 104 105 122 123
		f 4 74 201 -203 -200
		mu 0 4 86 103 125 124
		f 4 157 196 -204 -202
		mu 0 4 103 104 123 125
		f 4 -166 204 205 -177
		mu 0 4 20 109 126 118
		f 4 -167 206 207 -205
		mu 0 4 109 108 127 126
		f 4 -172 211 212 -210
		mu 0 4 113 112 129 128
		f 4 169 199 -214 -212
		mu 0 4 112 86 124 129
		f 4 -173 209 216 -215
		mu 0 4 114 113 128 130
		f 4 -174 214 219 -218
		mu 0 4 115 114 130 131
		f 4 -175 217 222 -221
		mu 0 4 116 115 131 132
		f 4 -176 220 223 -207
		mu 0 4 108 116 132 127;
	setAttr ".cd" -type "dataPolyComponent" Index_Data Edge 0 ;
	setAttr ".cvd" -type "dataPolyComponent" Index_Data Vertex 0 ;
	setAttr ".pd[0]" -type "dataPolyComponent" Index_Data UV 0 ;
	setAttr ".hfd" -type "dataPolyComponent" Index_Data Face 0 ;
	setAttr ".dr" 1;
	setAttr ".ai_translator" -type "string" "polymesh";
createNode transform -n "knocker_handle" -p "door_knocker";
	rename -uid "E8BB4A75-4D4A-2000-DD87-A790E3BCC274";
	setAttr ".rp" -type "double3" 0.44943650811910629 -2.1867607840298806 0 ;
	setAttr ".sp" -type "double3" 0.44943650811910629 -2.1867607840298806 0 ;
createNode mesh -n "knocker_handleShape" -p "|door_knocker|knocker_handle";
	rename -uid "03F29D8C-0446-0905-F3AB-2DA2237CB77F";
	setAttr -k off ".v";
	setAttr ".iog[0].og[0].gcl" -type "componentList" 1 "f[0:94]";
	setAttr ".vir" yes;
	setAttr ".vif" yes;
	setAttr ".pv" -type "double2" 0.40639528632164001 0.76609492301940918 ;
	setAttr ".uvst[0].uvsn" -type "string" "map1";
	setAttr -s 160 ".uvst[0].uvsp[0:159]" -type "float2" 0.59742022 0.03408879
		 0.46523106 0.0039175153 0.3592236 0.088455707 0.35922363 0.22404438 0.46523112 0.30858248
		 0.59742028 0.27841115 0.65625 0.15625 0.375 0.3125 0.4107143 0.3125 0.4464286 0.3125
		 0.4821429 0.3125 0.51785719 0.3125 0.55357146 0.3125 0.58928573 0.3125 0.625 0.3125
		 0.375 0.68843985 0.4107143 0.68843985 0.4464286 0.68843985 0.4821429 0.68843985 0.51785719
		 0.68843985 0.55357146 0.68843985 0.58928573 0.68843985 0.625 0.68843985 0.59742022
		 0.72158879 0.46523106 0.69141752 0.3592236 0.77595568 0.35922363 0.91154438 0.46523112
		 0.99608248 0.59742028 0.96591115 0.65625 0.84375 0.5 0.15000001 0.5 0.83749998 0.45966986
		 0.3125 0.3592236 0.13872594 0.3592236 0.86127412 0.45966986 0.68843985 0.41792375
		 0.1141181 0.46904057 0.3125 0.35922363 0.17430153 0.3592236 0.82569849 0.46904057
		 0.68843985 0.41792378 0.88066977 0.46875 0.3125 0.5 0.3125 0.5 0.68843985 0.46875
		 0.68843985 0.70000005 0.83333331 0.60000002 0.83333331 0.60000002 0.66666663 0.70000005
		 0.66666663 0.61048543 0.04576458 0.65625 0.15625 0.5 0.14999999 0.70000005 1 0.60000002
		 1 0.38951457 0.26673543 0.34375 0.15625 0.80000007 0.33333325 0.70000005 0.33333325
		 0.70000005 0.16666658 0.80000007 0.16666658 0.80000007 0.49999994 0.70000005 0.49999994
		 0.70000005 -8.9406967e-08 0.80000007 -8.9406967e-08 0.80000007 0.66666663 0.80000007
		 1 0.80000007 0.83333331 0.5 0.3125 0.61048543 0.73326457 0.65625 0.84375 0.49950805
		 0.8381086 0.38951457 0.73326457 0.5 0.6875 0.27356493 0.16666658 0.2 0.16666658 0.2
		 -8.9406967e-08 0.29049879 -8.9406967e-08 0.24893385 0.33333325 0.2 0.33333325 0.61048543
		 0.26673543 0.29049879 1 0.2 1 0.2 0.83333331 0.27356493 0.83333325 0.9000001 0.16666658
		 0.9000001 -8.9406967e-08 0.23969719 0.49999994 0.2 0.49999994 0.9000001 0.33333325
		 0.2 0.66666663 0.24893384 0.66666663 0.9000001 1 0.9000001 0.83333331 0.9000001 0.49999994
		 0.1 0.16666658 0.1 -8.9406967e-08 0.1 0.33333325 0.9000001 0.66666663 0.1 1 0.1 0.83333331
		 0.5625 0.3125 0.59375 0.3125 0.59375 0.68843985 0.5625 0.68843985 1.000000119209
		 0.16666658 1.000000119209 -8.9406967e-08 0.1 0.49999994 1.000000119209 0.33333325
		 0.53125 0.3125 0.53125 0.68843985 0 0.16666658 0 -8.9406967e-08 1.000000119209 1
		 1.000000119209 0.83333331 0.1 0.66666663 0 0.33333325 0 1 0 0.83333331 1.000000119209
		 0.49999994 1.000000119209 0.66666663 0 0.49999994 0 0.66666663 0.56622154 0.16756344
		 0.54943597 0.15929478 0.53553939 0.16750687 0.53842831 0.18398765 0.55521393 0.19225633
		 0.56911051 0.18404423 0.60000002 0.16666658 0.60000002 -8.9406967e-08 0.625 0.3125
		 0.625 0.68843985 0.60000002 0.49999994 0.52631575 0.83333331 0.50939262 1 0.34375
		 0.84375 0.60000002 0.33333325 0.55093122 0.66666663 0.61048543 0.95423543 0.50939262
		 -8.9406967e-08 0.52631575 0.16666658 0.56016207 0.49999994 0.5 1.4901161e-08 0.55093122
		 0.33333325 0.38951457 0.04576458 0.46449938 0.13587601 0.46161574 0.12016194 0.44484079
		 0.11348799 0.43094948 0.12252812 0.5 1 0.38951457 0.95423543 0.375 0.3125 0.40625
		 0.3125 0.40625 0.68843985 0.375 0.68843985 0.43383315 0.13824221 0.45060807 0.14491615
		 0.4375 0.3125 0.4375 0.68843985;
	setAttr ".cuvs" -type "string" "map1";
	setAttr ".dcc" -type "string" "Ambient+Diffuse";
	setAttr ".covm[0]"  0 1 1;
	setAttr ".cdvm[0]"  0 1 1;
	setAttr -s 90 ".vt[0:89]"  0.1351046 -4.057262421 -1.91492438 0.1351046 -2.61819267 -1.97448945
		 0.1351046 -0.94649696 -1.36344576 0.1351046 -0.94649696 1.36344552 0.1351046 -2.61819243 1.97448945
		 0.1351046 -4.057262421 1.91492462 0.1351046 -5.30715847 0 -0.13289541 -4.057262421 -1.91492438
		 -0.13289541 -2.61819267 -1.97448945 -0.13289541 -0.94649696 -1.36344576 -0.13289541 -0.94649696 1.36344552
		 -0.13289541 -2.61819243 1.97448945 -0.13289541 -4.057262421 1.91492462 -0.13289541 -5.30715847 0
		 0.1351046 -3.16648412 0 -0.13289541 -3.16648412 0 0.13241354 -0.94006693 -0.36636943
		 -0.13171631 -0.94001019 -0.36261523 0.1351046 -1.87217462 -0.7949239 0.13241792 -0.93004948 0.37849522
		 -0.13171193 -0.92999268 0.38068402 -0.13289541 -1.87217462 -0.7949239 0.12997347 -0.35842463 0.93358028
		 -0.13028622 -0.35831109 0.93358028 0.57390058 -0.42797545 0.086602546 0.29578531 -0.42797545 0.086602546
		 0.26488361 -0.52308112 0.086602539 0.60480231 -0.52308112 0.086602539 0.13028622 0.35831109 -0.93358028
		 0.13052845 0.91348851 -0.40673664 0.13012984 -5.6779856e-05 6.011186e-18 0.55844975 -0.38042262 8.4470791e-17
		 0.31123614 -0.38042265 8.4470797e-17 0.87980235 -0.32328188 -0.086602554 0.60480231 -0.52308112 -0.086602554
		 0.57390058 -0.42797545 -0.086602531 0.7989006 -0.26450336 -0.086602531 0.92025316 -0.35267115 -1.4901161e-08
		 0.62025321 -0.57063395 -1.4901161e-08 0.75844979 -0.2351141 5.2205817e-17 0.87980235 -0.32328188 0.086602539
		 0.7989006 -0.26450336 0.086602546 0.13030732 0.40667978 0.91354537 -0.12972249 0.93363708 0.35836792
		 -0.12973124 0.91360211 -0.40673664 -0.13596995 -0.0050403979 0.00017267826 -0.12995237 0.40679333 0.91354537
		 0.13026413 0.30771732 -0.086602531 0.29578525 0.42797545 -0.086602531 0.31123608 0.38042265 -8.4470797e-17
		 0.13023847 0.24892016 -5.5271378e-17 0.13031544 0.42531168 -0.086602554 0.26488352 0.52308112 -0.086602554
		 0.1305372 0.93352348 0.35836792 0.29578525 0.42797545 0.086602546 0.13026413 0.30771732 0.086602546
		 0.88484293 -9.0740808e-16 -0.086602531 0.83484292 -8.8817842e-16 0 0.1303411 0.4841089 -1.4901161e-08
		 0.24943265 0.57063401 -1.4901161e-08 0.98484296 -9.0740808e-16 -0.086602554 0.26488352 0.52308112 0.086602539
		 0.13031545 0.42531168 0.086602539 0.88484293 -8.6894881e-16 0.086602546 1.034842968 -8.8817842e-16 -1.4901161e-08
		 0.57390058 0.42797551 -0.086602531 0.55844975 0.38042268 -8.4470804e-17 0.60480225 0.52308118 -0.086602554
		 0.98484296 -8.6894881e-16 0.086602539 0.57390058 0.42797551 0.086602546 0.7989006 0.26450342 -0.086602531
		 0.75844979 0.23511417 -5.2205833e-17 0.62025309 0.57063407 -1.4901161e-08 0.87980235 0.323282 -0.086602554
		 0.7989006 0.26450342 0.086602546 0.60480225 0.52308118 0.086602539 0.92025316 0.35267127 -1.4901161e-08
		 0.87980235 0.323282 0.086602539 0.29578531 -0.42797545 -0.086602531 -0.12997347 0.35842463 -0.93358028
		 0.24943276 -0.57063401 -1.4901161e-08 0.12999569 -0.30752227 0.086602546 0.13002132 -0.24876238 5.5236345e-17
		 0.26488361 -0.52308112 -0.086602554 0.12994441 -0.42504209 0.086602539 0.12999569 -0.30752227 -0.086602531
		 0.12991877 -0.48380202 -1.4901161e-08 0.12995237 -0.4067933 -0.91354531 0.12994441 -0.42504209 -0.086602554
		 -0.13030732 -0.40667975 -0.91354531;
	setAttr -s 185 ".ed";
	setAttr ".ed[0:165]"  0 1 0 1 2 0 2 16 0 3 4 0 4 5 0 5 6 0 6 0 0 7 8 0 8 9 0
		 9 17 0 10 11 0 11 12 0 12 13 0 13 7 0 0 7 0 1 8 0 2 9 0 3 10 0 4 11 0 5 12 0 6 13 0
		 14 0 1 14 1 1 14 18 1 14 3 1 14 4 1 14 5 1 14 6 1 7 15 1 8 15 1 9 21 1 10 15 1 11 15 1
		 12 15 1 13 15 1 16 19 0 17 20 0 16 17 0 18 2 1 19 3 0 20 10 0 19 20 0 21 15 1 19 22 0
		 22 23 0 23 20 0 24 25 0 25 26 0 26 27 0 27 24 0 28 29 0 29 30 1 30 28 1 31 32 0 32 25 0
		 24 31 0 19 30 1 30 22 1 33 34 0 34 35 0 35 36 0 36 33 0 37 38 0 38 34 0 33 37 0 35 31 0
		 31 39 0 39 36 0 40 27 0 27 38 0 37 40 0 24 41 0 41 39 0 40 41 0 42 22 0 30 42 1 43 44 0
		 44 45 1 45 43 1 23 46 0 46 45 1 45 23 1 47 48 0 48 49 0 49 50 0 50 47 0 51 52 0 52 48 0
		 47 51 0 46 43 0 53 42 0 30 53 1 49 54 0 54 55 0 55 50 0 56 36 0 39 57 0 57 56 0 58 59 0
		 59 52 0 51 58 0 60 33 0 56 60 0 54 61 0 61 62 0 62 55 0 41 63 0 63 57 0 61 59 0 58 62 0
		 64 37 0 60 64 0 48 65 0 65 66 0 66 49 0 52 67 0 67 65 0 40 68 0 68 63 0 64 68 0 66 69 0
		 69 54 0 53 29 0 29 44 0 43 53 0 70 56 0 57 71 0 71 70 0 59 72 0 72 67 0 73 60 0 70 73 0
		 42 46 0 65 70 0 71 66 0 63 74 0 74 71 0 69 75 0 75 61 0 67 73 0 75 72 0 74 69 0 76 64 0
		 73 76 0 68 77 0 77 74 0 72 76 0 76 77 0 77 75 0 53 51 1 50 30 1 35 78 0 78 32 0 28 79 0
		 79 44 0 26 80 0 80 38 0 81 25 0 32 82 0 82 81 0 45 20 1 34 83 0 83 78 0 84 26 0 81 84 0
		 79 45 1;
	setAttr ".ed[166:184]" 80 83 0 78 85 0 85 82 0 86 80 0 84 86 0 87 28 0 30 87 1
		 83 88 0 88 85 0 86 88 0 16 87 0 30 16 1 86 16 1 30 82 1 45 89 1 89 17 0 17 45 1 79 89 0
		 87 89 0;
	setAttr -s 95 -ch 370 ".fc[0:94]" -type "polyFaces" 
		f 4 14 7 -16 -1
		mu 0 4 7 15 16 8
		f 4 15 8 -17 -2
		mu 0 4 8 16 17 9
		f 4 16 9 -38 -3
		mu 0 4 9 17 35 32
		f 4 17 10 -19 -4
		mu 0 4 10 18 19 11
		f 4 18 11 -20 -5
		mu 0 4 11 19 20 12
		f 4 19 12 -21 -6
		mu 0 4 12 20 21 13
		f 4 20 13 -15 -7
		mu 0 4 13 21 22 14
		f 3 -23 21 0
		mu 0 3 1 30 0
		f 4 -39 -24 22 1
		mu 0 4 2 36 30 1
		f 6 39 -25 23 38 2 35
		mu 0 6 38 3 30 36 2 33
		f 3 -26 24 3
		mu 0 3 4 30 3
		f 3 -27 25 4
		mu 0 3 5 30 4
		f 3 -28 26 5
		mu 0 3 6 30 5
		f 3 -22 27 6
		mu 0 3 0 30 6
		f 3 28 -30 -8
		mu 0 3 28 31 27
		f 4 29 -43 -31 -9
		mu 0 4 27 31 41 26
		f 6 42 -32 -41 -37 -10 30
		mu 0 6 41 31 25 39 34 26
		f 3 31 -33 -11
		mu 0 3 25 31 24
		f 3 32 -34 -12
		mu 0 3 24 31 23
		f 3 33 -35 -13
		mu 0 3 23 31 29
		f 3 34 -29 -14
		mu 0 3 29 31 28
		f 4 40 -18 -40 41
		mu 0 4 40 18 10 37
		f 4 43 44 45 -42
		mu 0 4 42 43 44 45
		f 4 46 47 48 49
		mu 0 4 46 47 48 49
		f 3 50 51 52
		mu 0 3 50 51 52
		f 4 53 54 -47 55
		mu 0 4 53 54 47 46
		f 3 -44 56 57
		mu 0 3 55 56 52
		f 4 58 59 60 61
		mu 0 4 57 58 59 60
		f 4 62 63 -59 64
		mu 0 4 61 62 58 57
		f 4 -61 65 66 67
		mu 0 4 60 59 63 64
		f 4 68 69 -63 70
		mu 0 4 65 49 62 61
		f 4 -67 -56 71 72
		mu 0 4 66 53 46 67
		f 4 -72 -50 -69 73
		mu 0 4 67 46 49 65
		f 3 74 -58 75
		mu 0 3 68 55 52
		f 3 76 77 78
		mu 0 3 69 70 71
		f 3 79 80 81
		mu 0 3 72 73 71
		f 4 82 83 84 85
		mu 0 4 74 75 76 77
		f 4 86 87 -83 88
		mu 0 4 78 79 75 74
		f 3 -81 89 -79
		mu 0 3 71 73 69
		f 3 90 -76 91
		mu 0 3 80 68 52
		f 4 -85 92 93 94
		mu 0 4 81 82 83 84
		f 4 95 -68 96 97
		mu 0 4 85 60 64 86
		f 4 98 99 -87 100
		mu 0 4 87 88 79 78
		f 4 101 -62 -96 102
		mu 0 4 89 57 60 85
		f 4 -94 103 104 105
		mu 0 4 84 83 90 91
		f 4 -97 -73 106 107
		mu 0 4 92 66 67 93
		f 4 -105 108 -99 109
		mu 0 4 91 90 88 87
		f 4 110 -65 -102 111
		mu 0 4 94 61 57 89
		f 4 112 113 114 -84
		mu 0 4 75 95 96 76
		f 4 115 116 -113 -88
		mu 0 4 79 97 95 75
		f 4 -107 -74 117 118
		mu 0 4 93 67 65 98
		f 4 -118 -71 -111 119
		mu 0 4 98 65 61 94
		f 4 -115 120 121 -93
		mu 0 4 82 99 100 83
		f 4 122 123 -77 124
		mu 0 4 101 102 103 104
		f 4 125 -98 126 127
		mu 0 4 105 85 86 106
		f 4 128 129 -116 -100
		mu 0 4 88 107 97 79
		f 4 130 -103 -126 131
		mu 0 4 108 89 85 105
		f 4 -75 132 -80 -45
		mu 0 4 43 109 110 44
		f 4 133 -128 134 -114
		mu 0 4 95 111 112 96
		f 4 -127 -108 135 136
		mu 0 4 113 92 93 114
		f 4 -122 137 138 -104
		mu 0 4 83 100 115 90
		f 4 139 -132 -134 -117
		mu 0 4 97 116 111 95
		f 4 -139 140 -129 -109
		mu 0 4 90 115 107 88
		f 4 -135 -137 141 -121
		mu 0 4 99 117 118 100
		f 4 142 -112 -131 143
		mu 0 4 119 94 89 108
		f 4 -136 -119 144 145
		mu 0 4 114 93 98 120
		f 4 146 -144 -140 -130
		mu 0 4 107 121 116 97
		f 4 -145 -120 -143 147
		mu 0 4 120 98 94 119
		f 4 -142 -146 148 -138
		mu 0 4 100 118 122 115
		f 4 -149 -148 -147 -141
		mu 0 4 115 122 121 107
		f 6 -123 149 -89 -86 150 -52
		mu 0 6 51 80 123 124 125 52
		f 4 -91 -125 -90 -133
		mu 0 4 109 101 104 110
		f 7 -92 -151 -95 -106 -110 -101 -150
		mu 0 7 80 52 125 126 127 128 123
		f 4 151 152 -54 -66
		mu 0 4 59 129 130 63
		f 4 -51 153 154 -124
		mu 0 4 102 131 132 103
		f 4 -49 155 156 -70
		mu 0 4 49 48 133 62
		f 4 157 -55 158 159
		mu 0 4 134 47 54 135
		f 3 160 -46 -82
		mu 0 3 71 136 72
		f 4 161 162 -152 -60
		mu 0 4 58 137 129 59
		f 4 163 -48 -158 164
		mu 0 4 138 48 47 134
		f 3 -78 -155 165
		mu 0 3 71 70 139
		f 4 -157 166 -162 -64
		mu 0 4 62 133 137 58
		f 4 -159 -153 167 168
		mu 0 4 140 130 129 141
		f 4 169 -156 -164 170
		mu 0 4 142 133 48 138
		f 3 171 -53 172
		mu 0 3 143 50 52
		f 4 -168 -163 173 174
		mu 0 4 141 129 137 144
		f 4 -174 -167 -170 175
		mu 0 4 144 137 133 142
		f 3 176 -173 177
		mu 0 3 145 143 52
		f 6 -169 -175 -176 178 -178 179
		mu 0 6 146 147 148 149 145 52
		f 3 180 181 182
		mu 0 3 71 150 151
		f 3 36 -161 -183
		mu 0 3 151 136 71
		f 3 183 -181 -166
		mu 0 3 139 150 71
		f 4 -172 184 -184 -154
		mu 0 4 152 153 154 155
		f 7 -36 -179 -171 -165 -160 -180 -57
		mu 0 7 56 145 149 156 157 146 52
		f 4 -177 37 -182 -185
		mu 0 4 153 158 159 154;
	setAttr ".cd" -type "dataPolyComponent" Index_Data Edge 0 ;
	setAttr ".cvd" -type "dataPolyComponent" Index_Data Vertex 0 ;
	setAttr ".pd[0]" -type "dataPolyComponent" Index_Data UV 0 ;
	setAttr ".hfd" -type "dataPolyComponent" Index_Data Face 0 ;
	setAttr ".ai_translator" -type "string" "polymesh";
createNode materialInfo -n "materialInfo11";
	rename -uid "88A0A5DF-4D46-BD41-1A77-A6ADBA94B1CD";
createNode shadingEngine -n "lambert11SG";
	rename -uid "36C47BD4-2F4D-8154-4C3E-BB9FDE67295D";
	setAttr ".ihi" 0;
	setAttr -s 38 ".dsm";
	setAttr ".ro" yes;
	setAttr -s 3 ".gn";
createNode lambert -n "lambert11";
	rename -uid "0F4BDCFD-1B4D-4214-7C7F-30B805DED74D";
createNode lightLinker -s -n "lightLinker1";
	rename -uid "2C8647E8-0C42-7061-BE36-2C9CCE0EC501";
	setAttr -s 13 ".lnk";
	setAttr -s 13 ".slnk";
select -ne :time1;
	setAttr ".o" 73;
	setAttr ".unw" 73;
select -ne :hardwareRenderingGlobals;
	setAttr ".otfna" -type "stringArray" 22 "NURBS Curves" "NURBS Surfaces" "Polygons" "Subdiv Surface" "Particles" "Particle Instance" "Fluids" "Strokes" "Image Planes" "UI" "Lights" "Cameras" "Locators" "Joints" "IK Handles" "Deformers" "Motion Trails" "Components" "Hair Systems" "Follicles" "Misc. UI" "Ornaments"  ;
	setAttr ".otfva" -type "Int32Array" 22 0 1 1 1 1 1
		 1 1 1 0 0 0 0 0 0 0 0 0
		 0 0 0 0 ;
	setAttr ".fprt" yes;
select -ne :renderPartition;
	setAttr -s 8 ".st";
select -ne :renderGlobalsList1;
select -ne :defaultShaderList1;
	setAttr -s 10 ".s";
select -ne :postProcessList1;
	setAttr -s 2 ".p";
select -ne :defaultRenderingList1;
	setAttr -s 5 ".r";
select -ne :initialShadingGroup;
	setAttr -s 16 ".dsm";
	setAttr ".ro" yes;
	setAttr -s 13 ".gn";
select -ne :initialParticleSE;
	setAttr ".ro" yes;
select -ne :defaultRenderGlobals;
	setAttr ".ren" -type "string" "arnold";
select -ne :defaultResolution;
	setAttr ".pa" 1;
select -ne :hardwareRenderGlobals;
	setAttr ".ctrs" 256;
connectAttr "lambert11SG.msg" "materialInfo11.sg";
connectAttr "lambert11.msg" "materialInfo11.m";
connectAttr "lambert11.oc" "lambert11SG.ss";
connectAttr "|knocker_handleShape.iog" "lambert11SG.dsm" -na;
connectAttr "|knockerShape.iog" "lambert11SG.dsm" -na;
connectAttr "|knocker_handleShape.iog" "lambert11SG.dsm" -na;
connectAttr "|knockerShape.iog" "lambert11SG.dsm" -na;
connectAttr "|door_knocker|knocker_handle|knocker_handleShape.iog" "lambert11SG.dsm"
		 -na;
connectAttr "|door_knocker|knocker|knockerShape.iog" "lambert11SG.dsm" -na;
connectAttr "door_hinge_left_top_coloredShape.iog" "lambert11SG.dsm" -na;
connectAttr "door_hinge_left_bottom_coloredShape.iog" "lambert11SG.dsm" -na;
connectAttr "door_hinge_right_top_coloredShape.iog" "lambert11SG.dsm" -na;
connectAttr "door_hinge_right_bottom_coloredShape.iog" "lambert11SG.dsm" -na;
connectAttr "|knocker_handleShape.iog" "lambert11SG.dsm" -na;
connectAttr "|knockerShape.iog" "lambert11SG.dsm" -na;
connectAttr "|door_tempShape.iog" "lambert11SG.dsm" -na;
connectAttr "|door_temp_hinge_bottomShape.iog" "lambert11SG.dsm" -na;
connectAttr "|door_temp_hinge_topShape.iog" "lambert11SG.dsm" -na;
connectAttr "|knocker_handleShape.iog" "lambert11SG.dsm" -na;
connectAttr "|knockerShape.iog" "lambert11SG.dsm" -na;
connectAttr "|door_tempShape.iog" "lambert11SG.dsm" -na;
connectAttr "|door_temp_hinge_bottomShape.iog" "lambert11SG.dsm" -na;
connectAttr "|door_temp_hinge_topShape.iog" "lambert11SG.dsm" -na;
connectAttr "door_frame_coloredShape.iog" "lambert11SG.dsm" -na;
connectAttr "door_hinge_right_bottomShape.iog" "lambert11SG.dsm" -na;
connectAttr "door_hinge_right_topShape.iog" "lambert11SG.dsm" -na;
connectAttr "|door_tempShape.iog" "lambert11SG.dsm" -na;
connectAttr "|door_temp_hinge_bottomShape.iog" "lambert11SG.dsm" -na;
connectAttr "|door_temp_hinge_topShape.iog" "lambert11SG.dsm" -na;
connectAttr "door_hinge_left_bottomShape.iog" "lambert11SG.dsm" -na;
connectAttr "door_hinge_left_topShape.iog" "lambert11SG.dsm" -na;
connectAttr "|door_temp_hinge_bottomShape.iog" "lambert11SG.dsm" -na;
connectAttr "|door_temp_hinge_topShape.iog" "lambert11SG.dsm" -na;
connectAttr "pCube23Shape.iog" "lambert11SG.dsm" -na;
connectAttr "pCube22Shape.iog" "lambert11SG.dsm" -na;
connectAttr "door_hinge_bottom_originalShape.iog" "lambert11SG.dsm" -na;
connectAttr "door_hinge_top_originalShape.iog" "lambert11SG.dsm" -na;
connectAttr "door_frameShape.iog.og[1]" "lambert11SG.dsm" -na;
connectAttr "door_frameShape.ciog.cog[1]" "lambert11SG.dsm" -na;
connectAttr "pSphere8Shape.iog.og[1]" "lambert11SG.dsm" -na;
connectAttr "door_temp1Shape.iog" "lambert11SG.dsm" -na;
connectAttr "groupId107.msg" "lambert11SG.gn" -na;
connectAttr "groupId108.msg" "lambert11SG.gn" -na;
connectAttr "groupId110.msg" "lambert11SG.gn" -na;
relationship "link" ":lightLinker1" ":initialShadingGroup.message" ":defaultLightSet.message";
relationship "link" ":lightLinker1" ":initialParticleSE.message" ":defaultLightSet.message";
relationship "link" ":lightLinker1" "lambert11SG.message" ":defaultLightSet.message";
relationship "shadowLink" ":lightLinker1" ":initialShadingGroup.message" ":defaultLightSet.message";
relationship "shadowLink" ":lightLinker1" ":initialParticleSE.message" ":defaultLightSet.message";
relationship "shadowLink" ":lightLinker1" "lambert11SG.message" ":defaultLightSet.message";
connectAttr "lambert11SG.pa" ":renderPartition.st" -na;
connectAttr "lambert11.msg" ":defaultShaderList1.s" -na;
// End of knockahs.ma
