//Maya ASCII 2018 scene
//Name: paper.ma
//Last modified: Sun, Nov 04, 2018 10:45:35 AM
//Codeset: UTF-8
requires maya "2018";
requires "stereoCamera" "10.0";
requires "stereoCamera" "10.0";
currentUnit -l centimeter -a degree -t film;
fileInfo "application" "maya";
fileInfo "product" "Maya 2018";
fileInfo "version" "2018";
fileInfo "cutIdentifier" "201706261615-f9658c4cfc";
fileInfo "osv" "Mac OS X 10.13.6";
fileInfo "license" "student";
createNode transform -s -n "persp";
	rename -uid "E2E181D7-974B-653E-2C51-98B3793B6120";
	setAttr ".v" no;
	setAttr ".t" -type "double3" 22.005951844166571 7.276900612113379 14.073393426492627 ;
	setAttr ".r" -type "double3" -14.738352729604463 57.400000000000986 0 ;
createNode camera -s -n "perspShape" -p "persp";
	rename -uid "3BAA0DAB-4C41-5D00-56F2-B887A0A1643B";
	setAttr -k off ".v" no;
	setAttr ".fl" 34.999999999999986;
	setAttr ".coi" 27.009991743117943;
	setAttr ".imn" -type "string" "persp";
	setAttr ".den" -type "string" "persp_depth";
	setAttr ".man" -type "string" "persp_mask";
	setAttr ".tp" -type "double3" -1.4156103134155273e-07 0.40541397323352812 0 ;
	setAttr ".hc" -type "string" "viewSet -p %camera";
createNode transform -s -n "top";
	rename -uid "FC52F7A9-9C42-092F-75CB-C6B8FD927B14";
	setAttr ".v" no;
	setAttr ".t" -type "double3" -0.34877256028428283 1000.1 0.62779060851171076 ;
	setAttr ".r" -type "double3" -89.999999999999986 0 0 ;
createNode camera -s -n "topShape" -p "top";
	rename -uid "5888E47D-D84E-F58C-6AF2-27BE7550DE37";
	setAttr -k off ".v" no;
	setAttr ".rnd" no;
	setAttr ".coi" 1000.1;
	setAttr ".ow" 16.82827603371668;
	setAttr ".imn" -type "string" "top";
	setAttr ".den" -type "string" "top_depth";
	setAttr ".man" -type "string" "top_mask";
	setAttr ".hc" -type "string" "viewSet -t %camera";
	setAttr ".o" yes;
createNode transform -s -n "front";
	rename -uid "0EA9FB3B-3243-DAF0-2178-5E9B675AF010";
	setAttr ".v" no;
	setAttr ".t" -type "double3" 0 0 1000.1 ;
createNode camera -s -n "frontShape" -p "front";
	rename -uid "EA43D77C-7647-8099-1F64-58A346872CBF";
	setAttr -k off ".v" no;
	setAttr ".rnd" no;
	setAttr ".coi" 1000.1;
	setAttr ".ow" 30;
	setAttr ".imn" -type "string" "front";
	setAttr ".den" -type "string" "front_depth";
	setAttr ".man" -type "string" "front_mask";
	setAttr ".hc" -type "string" "viewSet -f %camera";
	setAttr ".o" yes;
createNode transform -s -n "side";
	rename -uid "EA638E9E-A549-4423-3B5F-D18CF1CD83A7";
	setAttr ".v" no;
	setAttr ".t" -type "double3" 1000.1 0 0 ;
	setAttr ".r" -type "double3" 0 89.999999999999986 0 ;
createNode camera -s -n "sideShape" -p "side";
	rename -uid "5B382F7E-5D49-08BD-2124-26A7333AA9A6";
	setAttr -k off ".v" no;
	setAttr ".rnd" no;
	setAttr ".coi" 1000.1;
	setAttr ".ow" 30;
	setAttr ".imn" -type "string" "side";
	setAttr ".den" -type "string" "side_depth";
	setAttr ".man" -type "string" "side_mask";
	setAttr ".hc" -type "string" "viewSet -s %camera";
	setAttr ".o" yes;
createNode transform -n "paper";
	rename -uid "25DEEB94-6F41-B0D4-775C-8B9A5F6986A8";
	setAttr ".t" -type "double3" 0 0.22838532199604034 0 ;
	setAttr ".s" -type "double3" 9.5 0.01 12 ;
createNode mesh -n "paperShape" -p "paper";
	rename -uid "C6FD8AD4-2647-8CB1-8062-09813F69D513";
	setAttr -k off ".v";
	setAttr ".vir" yes;
	setAttr ".vif" yes;
	setAttr ".pv" -type "double2" 0.47500002384185791 0.62499994039535522 ;
	setAttr ".uvst[0].uvsn" -type "string" "map1";
	setAttr -s 339 ".uvst[0].uvsp";
	setAttr ".uvst[0].uvsp[0:249]" -type "float2" 0.375 0 0.40000001 0 0.42500001
		 0 0.45000002 0 0.47500002 0 0.5 0 0.52499998 0 0.54999995 0 0.57499993 0 0.5999999
		 0 0.62499988 0 0.375 0.25 0.40000001 0.25 0.42500001 0.25 0.45000002 0.25 0.47500002
		 0.25 0.5 0.25 0.52499998 0.25 0.54999995 0.25 0.57499993 0.25 0.5999999 0.25 0.62499988
		 0.25 0.375 0.27500001 0.40000001 0.27500001 0.42500001 0.27500001 0.45000002 0.27500001
		 0.47500002 0.27500001 0.5 0.27500001 0.52499998 0.27500001 0.54999995 0.27500001
		 0.57499993 0.27500001 0.5999999 0.27500001 0.62499988 0.27500001 0.375 0.30000001
		 0.40000001 0.30000001 0.42500001 0.30000001 0.45000002 0.30000001 0.47500002 0.30000001
		 0.5 0.30000001 0.52499998 0.30000001 0.54999995 0.30000001 0.57499993 0.30000001
		 0.5999999 0.30000001 0.62499988 0.30000001 0.375 0.32500002 0.40000001 0.32500002
		 0.42500001 0.32500002 0.45000002 0.32500002 0.47500002 0.32500002 0.5 0.32500002
		 0.52499998 0.32500002 0.54999995 0.32500002 0.57499993 0.32500002 0.5999999 0.32500002
		 0.62499988 0.32500002 0.375 0.35000002 0.40000001 0.35000002 0.42500001 0.35000002
		 0.45000002 0.35000002 0.47500002 0.35000002 0.5 0.35000002 0.52499998 0.35000002
		 0.54999995 0.35000002 0.57499993 0.35000002 0.5999999 0.35000002 0.62499988 0.35000002
		 0.375 0.37500003 0.40000001 0.37500003 0.42500001 0.37500003 0.45000002 0.37500003
		 0.47500002 0.37500003 0.5 0.37500003 0.52499998 0.37500003 0.54999995 0.37500003
		 0.57499993 0.37500003 0.5999999 0.37500003 0.62499988 0.37500003 0.375 0.40000004
		 0.40000001 0.40000004 0.42500001 0.40000004 0.45000002 0.40000004 0.47500002 0.40000004
		 0.5 0.40000004 0.52499998 0.40000004 0.54999995 0.40000004 0.57499993 0.40000004
		 0.5999999 0.40000004 0.62499988 0.40000004 0.375 0.42500004 0.40000001 0.42500004
		 0.42500001 0.42500004 0.45000002 0.42500004 0.47500002 0.42500004 0.5 0.42500004
		 0.52499998 0.42500004 0.54999995 0.42500004 0.57499993 0.42500004 0.5999999 0.42500004
		 0.62499988 0.42500004 0.375 0.45000005 0.40000001 0.45000005 0.42500001 0.45000005
		 0.45000002 0.45000005 0.47500002 0.45000005 0.5 0.45000005 0.52499998 0.45000005
		 0.54999995 0.45000005 0.57499993 0.45000005 0.5999999 0.45000005 0.62499988 0.45000005
		 0.375 0.47500005 0.40000001 0.47500005 0.42500001 0.47500005 0.45000002 0.47500005
		 0.47500002 0.47500005 0.5 0.47500005 0.52499998 0.47500005 0.54999995 0.47500005
		 0.57499993 0.47500005 0.5999999 0.47500005 0.62499988 0.47500005 0.375 0.50000006
		 0.40000001 0.50000006 0.42500001 0.50000006 0.45000002 0.50000006 0.47500002 0.50000006
		 0.5 0.50000006 0.52499998 0.50000006 0.54999995 0.50000006 0.57499993 0.50000006
		 0.5999999 0.50000006 0.62499988 0.50000006 0.375 0.75000006 0.40000001 0.75000006
		 0.42500001 0.75000006 0.45000002 0.75000006 0.47500002 0.75000006 0.5 0.75000006
		 0.52499998 0.75000006 0.54999995 0.75000006 0.57499993 0.75000006 0.5999999 0.75000006
		 0.62499988 0.75000006 0.375 0.77500004 0.40000001 0.77500004 0.42500001 0.77500004
		 0.45000002 0.77500004 0.47500002 0.77500004 0.5 0.77500004 0.52499998 0.77500004
		 0.54999995 0.77500004 0.57499993 0.77500004 0.5999999 0.77500004 0.62499988 0.77500004
		 0.375 0.80000001 0.40000001 0.80000001 0.42500001 0.80000001 0.45000002 0.80000001
		 0.47500002 0.80000001 0.5 0.80000001 0.52499998 0.80000001 0.54999995 0.80000001
		 0.57499993 0.80000001 0.5999999 0.80000001 0.62499988 0.80000001 0.375 0.82499999
		 0.40000001 0.82499999 0.42500001 0.82499999 0.45000002 0.82499999 0.47500002 0.82499999
		 0.5 0.82499999 0.52499998 0.82499999 0.54999995 0.82499999 0.57499993 0.82499999
		 0.5999999 0.82499999 0.62499988 0.82499999 0.375 0.84999996 0.40000001 0.84999996
		 0.42500001 0.84999996 0.45000002 0.84999996 0.47500002 0.84999996 0.5 0.84999996
		 0.52499998 0.84999996 0.54999995 0.84999996 0.57499993 0.84999996 0.5999999 0.84999996
		 0.62499988 0.84999996 0.375 0.87499994 0.40000001 0.87499994 0.42500001 0.87499994
		 0.45000002 0.87499994 0.47500002 0.87499994 0.5 0.87499994 0.52499998 0.87499994
		 0.54999995 0.87499994 0.57499993 0.87499994 0.5999999 0.87499994 0.62499988 0.87499994
		 0.375 0.89999992 0.40000001 0.89999992 0.42500001 0.89999992 0.45000002 0.89999992
		 0.47500002 0.89999992 0.5 0.89999992 0.52499998 0.89999992 0.54999995 0.89999992
		 0.57499993 0.89999992 0.5999999 0.89999992 0.62499988 0.89999992 0.375 0.92499989
		 0.40000001 0.92499989 0.42500001 0.92499989 0.45000002 0.92499989 0.47500002 0.92499989
		 0.5 0.92499989 0.52499998 0.92499989 0.54999995 0.92499989 0.57499993 0.92499989
		 0.5999999 0.92499989 0.62499988 0.92499989 0.375 0.94999987 0.40000001 0.94999987
		 0.42500001 0.94999987 0.45000002 0.94999987 0.47500002 0.94999987 0.5 0.94999987
		 0.52499998 0.94999987 0.54999995 0.94999987 0.57499993 0.94999987 0.5999999 0.94999987
		 0.62499988 0.94999987 0.375 0.97499985 0.40000001 0.97499985 0.42500001 0.97499985
		 0.45000002 0.97499985 0.47500002 0.97499985 0.5 0.97499985 0.52499998 0.97499985
		 0.54999995 0.97499985 0.57499993 0.97499985 0.5999999 0.97499985 0.62499988 0.97499985
		 0.375 0.99999982 0.40000001 0.99999982 0.42500001 0.99999982 0.45000002 0.99999982
		 0.47500002 0.99999982 0.5 0.99999982 0.52499998 0.99999982 0.54999995 0.99999982;
	setAttr ".uvst[0].uvsp[250:338]" 0.57499993 0.99999982 0.5999999 0.99999982
		 0.62499988 0.99999982 0.875 0 0.85000002 0 0.82500005 0 0.80000007 0 0.7750001 0
		 0.75000012 0 0.72500014 0 0.70000017 0 0.67500019 0 0.65000021 0 0.875 0.25 0.85000002
		 0.25 0.82500005 0.25 0.80000007 0.25 0.7750001 0.25 0.75000012 0.25 0.72500014 0.25
		 0.70000017 0.25 0.67500019 0.25 0.65000021 0.25 0.125 0 0.15000001 0 0.17500001 0
		 0.20000002 0 0.22500002 0 0.25000003 0 0.27500004 0 0.30000004 0 0.32500005 0 0.35000005
		 0 0.125 0.25 0.15000001 0.25 0.17500001 0.25 0.20000002 0.25 0.22500002 0.25 0.25000003
		 0.25 0.27500004 0.25 0.30000004 0.25 0.32500005 0.25 0.35000005 0.25 0.62459487 0.40000004
		 0.62459487 0.42500004 0.62459487 0.45000005 0.62459487 0.47500005 0.62459487 0.50000006
		 0.62459487 0.75000006 0.62459487 0.77500004 0.62459487 0.80000001 0.62459487 0.82499999
		 0.62459487 0.84999996 0.62459487 0.87499994 0.62459487 0.89999992 0.62459487 0.92499989
		 0.62459487 0.94999987 0.62459487 0.97499985 0.62459487 0 0.62459487 0.99999982 0.62459487
		 0.25 0.62459487 0.27500001 0.62459487 0.30000001 0.62459487 0.32500002 0.62459487
		 0.35000002 0.62459487 0.37500003 0.37613901 0.40000004 0.37613901 0.42500004 0.37613901
		 0.45000005 0.37613901 0.47500008 0.37613901 0.50000006 0.37613901 0.75000006 0.37613901
		 0.77500004 0.37613901 0.80000001 0.37613901 0.82499999 0.37613901 0.84999996 0.37613901
		 0.87499994 0.37613901 0.89999992 0.37613901 0.92499989 0.37613901 0.94999987 0.37613901
		 0.97499985 0.37613901 0 0.37613901 0.99999982 0.37613901 0.25 0.37613901 0.27500001
		 0.37613901 0.30000001 0.37613901 0.32500002 0.37613901 0.35000002 0.37613901 0.37500003;
	setAttr ".cuvs" -type "string" "map1";
	setAttr ".dcc" -type "string" "Ambient+Diffuse";
	setAttr ".covm[0]"  0 1 1;
	setAttr ".cdvm[0]"  0 1 1;
	setAttr -s 194 ".pt";
	setAttr ".pt[24]" -type "float3" 0 -0.19100897 0 ;
	setAttr ".pt[25]" -type "float3" 0 -3.9800131 0 ;
	setAttr ".pt[26]" -type "float3" 0 -6.7922926 0 ;
	setAttr ".pt[27]" -type "float3" 0 -4.2035255 0 ;
	setAttr ".pt[28]" -type "float3" 0 -0.47118741 0 ;
	setAttr ".pt[29]" -type "float3" 0 -0.28017846 0 ;
	setAttr ".pt[30]" -type "float3" 0 -0.22857167 0 ;
	setAttr ".pt[31]" -type "float3" 0 -0.10781137 0 ;
	setAttr ".pt[32]" -type "float3" 0 -0.008443526 0 ;
	setAttr ".pt[35]" -type "float3" 0 -1.5865129 0 ;
	setAttr ".pt[36]" -type "float3" 0 -7.0888586 0 ;
	setAttr ".pt[37]" -type "float3" 0 -11.001643 0 ;
	setAttr ".pt[38]" -type "float3" 0 -9.9244919 0 ;
	setAttr ".pt[39]" -type "float3" 0 -2.8186772 0 ;
	setAttr ".pt[40]" -type "float3" 0 -1.3151445 0 ;
	setAttr ".pt[41]" -type "float3" 0 -1.1837057 0 ;
	setAttr ".pt[42]" -type "float3" 0 -0.8370145 0 ;
	setAttr ".pt[43]" -type "float3" 0 -0.41254449 0 ;
	setAttr ".pt[45]" -type "float3" 0 -0.057108488 0 ;
	setAttr ".pt[46]" -type "float3" 0 -0.67360014 0 ;
	setAttr ".pt[47]" -type "float3" 0 -5.1578321 0 ;
	setAttr ".pt[48]" -type "float3" 0 -8.6099558 0 ;
	setAttr ".pt[49]" -type "float3" 0 -6.4625473 0 ;
	setAttr ".pt[50]" -type "float3" 0 -2.8868716 0 ;
	setAttr ".pt[51]" -type "float3" 0 -2.6958625 0 ;
	setAttr ".pt[52]" -type "float3" 0 -2.4875937 0 ;
	setAttr ".pt[53]" -type "float3" 0 -1.9254746 0 ;
	setAttr ".pt[54]" -type "float3" 0 -1.1828786 0 ;
	setAttr ".pt[56]" -type "float3" 0 -0.22539945 0 ;
	setAttr ".pt[57]" -type "float3" 0 -0.91983187 0 ;
	setAttr ".pt[58]" -type "float3" 0 -1.8895823 0 ;
	setAttr ".pt[59]" -type "float3" 0 -2.8672178 0 ;
	setAttr ".pt[60]" -type "float3" 0 -3.585453 0 ;
	setAttr ".pt[61]" -type "float3" 0 -3.8487198 0 ;
	setAttr ".pt[62]" -type "float3" 0 -3.8487198 0 ;
	setAttr ".pt[63]" -type "float3" 0 -3.5276637 0 ;
	setAttr ".pt[64]" -type "float3" 0 -1.6735468 0 ;
	setAttr ".pt[65]" -type "float3" 0 -1.8342741 0 ;
	setAttr ".pt[67]" -type "float3" 0 -0.30987364 0 ;
	setAttr ".pt[68]" -type "float3" 0 -1.1040367 0 ;
	setAttr ".pt[69]" -type "float3" 0 -2.173543 0 ;
	setAttr ".pt[70]" -type "float3" 0 -3.2361474 0 ;
	setAttr ".pt[71]" -type "float3" 0 -4.0114236 0 ;
	setAttr ".pt[72]" -type "float3" 0 -4.294775 0 ;
	setAttr ".pt[73]" -type "float3" 0 -4.294775 0 ;
	setAttr ".pt[74]" -type "float3" 0 -1.2046633 0 ;
	setAttr ".pt[75]" -type "float3" 0 9.184226 0 ;
	setAttr ".pt[76]" -type "float3" 0 0.62107897 0 ;
	setAttr ".pt[78]" -type "float3" 0 -0.22539945 0 ;
	setAttr ".pt[79]" -type "float3" 0 -0.91983187 0 ;
	setAttr ".pt[80]" -type "float3" 0 -1.8895823 0 ;
	setAttr ".pt[81]" -type "float3" 0 -2.8672178 0 ;
	setAttr ".pt[82]" -type "float3" 0 -3.585453 0 ;
	setAttr ".pt[83]" -type "float3" 0 -3.8487198 0 ;
	setAttr ".pt[84]" -type "float3" 0 -3.8487198 0 ;
	setAttr ".pt[85]" -type "float3" 0 -3.5276637 0 ;
	setAttr ".pt[86]" -type "float3" 0 -1.673547 0 ;
	setAttr ".pt[87]" -type "float3" 0 -1.8342742 0 ;
	setAttr ".pt[89]" -type "float3" 0 -0.18928528 0 ;
	setAttr ".pt[90]" -type "float3" 0 -3.1645184 0 ;
	setAttr ".pt[91]" -type "float3" 0 -5.6929436 0 ;
	setAttr ".pt[92]" -type "float3" 0 -4.6074018 0 ;
	setAttr ".pt[93]" -type "float3" 0 -2.6197705 0 ;
	setAttr ".pt[94]" -type "float3" 0 -2.6958625 0 ;
	setAttr ".pt[95]" -type "float3" 0 -2.6958625 0 ;
	setAttr ".pt[96]" -type "float3" 0 -2.4875937 0 ;
	setAttr ".pt[97]" -type "float3" 0 -1.9254748 0 ;
	setAttr ".pt[98]" -type "float3" 0 -1.1828786 0 ;
	setAttr ".pt[100]" -type "float3" 0 -1.0158687 0 ;
	setAttr ".pt[101]" -type "float3" 0 -5.9811144 0 ;
	setAttr ".pt[102]" -type "float3" 0 -9.2179699 0 ;
	setAttr ".pt[103]" -type "float3" 0 -6.7351489 0 ;
	setAttr ".pt[104]" -type "float3" 0 -2.1995745 0 ;
	setAttr ".pt[105]" -type "float3" 0 -1.3151445 0 ;
	setAttr ".pt[106]" -type "float3" 0 -1.3151445 0 ;
	setAttr ".pt[107]" -type "float3" 0 -1.1828786 0 ;
	setAttr ".pt[108]" -type "float3" 0 -0.8370145 0 ;
	setAttr ".pt[109]" -type "float3" 0 -0.41254449 0 ;
	setAttr ".pt[111]" -type "float3" 0 -0.13217679 0 ;
	setAttr ".pt[112]" -type "float3" 0 -2.6819272 0 ;
	setAttr ".pt[113]" -type "float3" 0 -4.5185084 0 ;
	setAttr ".pt[114]" -type "float3" 0 -2.7897387 0 ;
	setAttr ".pt[115]" -type "float3" 0 -0.36074847 0 ;
	setAttr ".pt[116]" -type "float3" 0 -0.28017846 0 ;
	setAttr ".pt[117]" -type "float3" 0 -0.28017846 0 ;
	setAttr ".pt[118]" -type "float3" 0 -0.22857167 0 ;
	setAttr ".pt[119]" -type "float3" 0 -0.10781137 0 ;
	setAttr ".pt[120]" -type "float3" 0 -0.008443526 0 ;
	setAttr ".pt[144]" -type "float3" 0 -0.13217679 0 ;
	setAttr ".pt[145]" -type "float3" 0 -2.6819272 0 ;
	setAttr ".pt[146]" -type "float3" 0 -4.5185084 0 ;
	setAttr ".pt[147]" -type "float3" 0 -2.7897387 0 ;
	setAttr ".pt[148]" -type "float3" 0 -0.36074847 0 ;
	setAttr ".pt[149]" -type "float3" 0 -0.28017846 0 ;
	setAttr ".pt[150]" -type "float3" 0 -0.28017846 0 ;
	setAttr ".pt[151]" -type "float3" 0 -0.22857167 0 ;
	setAttr ".pt[152]" -type "float3" 0 -0.10781137 0 ;
	setAttr ".pt[153]" -type "float3" 0 -0.008443526 0 ;
	setAttr ".pt[155]" -type "float3" 0 -1.0158687 0 ;
	setAttr ".pt[156]" -type "float3" 0 -5.9811144 0 ;
	setAttr ".pt[157]" -type "float3" 0 -9.2179699 0 ;
	setAttr ".pt[158]" -type "float3" 0 -6.7351489 0 ;
	setAttr ".pt[159]" -type "float3" 0 -2.1995745 0 ;
	setAttr ".pt[160]" -type "float3" 0 -1.3151445 0 ;
	setAttr ".pt[161]" -type "float3" 0 -1.3151445 0 ;
	setAttr ".pt[162]" -type "float3" 0 -1.1837057 0 ;
	setAttr ".pt[163]" -type "float3" 0 -0.8370145 0 ;
	setAttr ".pt[164]" -type "float3" 0 -0.41254449 0 ;
	setAttr ".pt[166]" -type "float3" 0 -0.18928528 0 ;
	setAttr ".pt[167]" -type "float3" 0 -3.1645184 0 ;
	setAttr ".pt[168]" -type "float3" 0 -5.6929436 0 ;
	setAttr ".pt[169]" -type "float3" 0 -4.6074018 0 ;
	setAttr ".pt[170]" -type "float3" 0 -2.6197705 0 ;
	setAttr ".pt[171]" -type "float3" 0 -2.6958625 0 ;
	setAttr ".pt[172]" -type "float3" 0 -2.6958625 0 ;
	setAttr ".pt[173]" -type "float3" 0 -2.4875937 0 ;
	setAttr ".pt[174]" -type "float3" 0 -1.9254748 0 ;
	setAttr ".pt[175]" -type "float3" 0 -1.1828786 0 ;
	setAttr ".pt[177]" -type "float3" 0 -0.22539945 0 ;
	setAttr ".pt[178]" -type "float3" 0 -0.91983187 0 ;
	setAttr ".pt[179]" -type "float3" 0 -1.8895823 0 ;
	setAttr ".pt[180]" -type "float3" 0 -2.8672178 0 ;
	setAttr ".pt[181]" -type "float3" 0 -3.585453 0 ;
	setAttr ".pt[182]" -type "float3" 0 -3.8487198 0 ;
	setAttr ".pt[183]" -type "float3" 0 -3.8487198 0 ;
	setAttr ".pt[184]" -type "float3" 0 -3.5276637 0 ;
	setAttr ".pt[185]" -type "float3" 0 -1.6730771 0 ;
	setAttr ".pt[186]" -type "float3" 0 -1.8342742 0 ;
	setAttr ".pt[188]" -type "float3" 0 -0.30987364 0 ;
	setAttr ".pt[189]" -type "float3" 0 -1.1040367 0 ;
	setAttr ".pt[190]" -type "float3" 0 -2.173543 0 ;
	setAttr ".pt[191]" -type "float3" 0 -3.2361474 0 ;
	setAttr ".pt[192]" -type "float3" 0 -4.0114236 0 ;
	setAttr ".pt[193]" -type "float3" 0 -4.294775 0 ;
	setAttr ".pt[194]" -type "float3" 0 -4.294775 0 ;
	setAttr ".pt[195]" -type "float3" 0 -1.2021093 0 ;
	setAttr ".pt[196]" -type "float3" 0 9.184226 0 ;
	setAttr ".pt[197]" -type "float3" 0 0.62799072 0 ;
	setAttr ".pt[199]" -type "float3" 0 -0.22539945 0 ;
	setAttr ".pt[200]" -type "float3" 0 -0.91983187 0 ;
	setAttr ".pt[201]" -type "float3" 0 -1.8895823 0 ;
	setAttr ".pt[202]" -type "float3" 0 -2.8672178 0 ;
	setAttr ".pt[203]" -type "float3" 0 -3.585453 0 ;
	setAttr ".pt[204]" -type "float3" 0 -3.8487198 0 ;
	setAttr ".pt[205]" -type "float3" 0 -3.8487198 0 ;
	setAttr ".pt[206]" -type "float3" 0 -3.5276637 0 ;
	setAttr ".pt[207]" -type "float3" 0 -1.6730769 0 ;
	setAttr ".pt[208]" -type "float3" 0 -1.8342743 0 ;
	setAttr ".pt[210]" -type "float3" 0 -0.057108488 0 ;
	setAttr ".pt[211]" -type "float3" 0 -0.67360014 0 ;
	setAttr ".pt[212]" -type "float3" 0 -5.1578321 0 ;
	setAttr ".pt[213]" -type "float3" 0 -8.6099558 0 ;
	setAttr ".pt[214]" -type "float3" 0 -6.4625473 0 ;
	setAttr ".pt[215]" -type "float3" 0 -2.8868716 0 ;
	setAttr ".pt[216]" -type "float3" 0 -2.6958625 0 ;
	setAttr ".pt[217]" -type "float3" 0 -2.4875937 0 ;
	setAttr ".pt[218]" -type "float3" 0 -1.9254748 0 ;
	setAttr ".pt[219]" -type "float3" 0 -1.1828786 0 ;
	setAttr ".pt[222]" -type "float3" 0 -1.5865129 0 ;
	setAttr ".pt[223]" -type "float3" 0 -7.0888586 0 ;
	setAttr ".pt[224]" -type "float3" 0 -11.001643 0 ;
	setAttr ".pt[225]" -type "float3" 0 -9.9244919 0 ;
	setAttr ".pt[226]" -type "float3" 0 -2.8186772 0 ;
	setAttr ".pt[227]" -type "float3" 0 -1.3151445 0 ;
	setAttr ".pt[228]" -type "float3" 0 -1.1837057 0 ;
	setAttr ".pt[229]" -type "float3" 0 -0.8370145 0 ;
	setAttr ".pt[230]" -type "float3" 0 -0.41254449 0 ;
	setAttr ".pt[233]" -type "float3" 0 -0.19100897 0 ;
	setAttr ".pt[234]" -type "float3" 0 -3.9800131 0 ;
	setAttr ".pt[235]" -type "float3" 0 -6.7922926 0 ;
	setAttr ".pt[236]" -type "float3" 0 -4.2035255 0 ;
	setAttr ".pt[237]" -type "float3" 0 -0.47118741 0 ;
	setAttr ".pt[238]" -type "float3" 0 -0.28017846 0 ;
	setAttr ".pt[239]" -type "float3" 0 -0.22857167 0 ;
	setAttr ".pt[240]" -type "float3" 0 -0.10781137 0 ;
	setAttr ".pt[241]" -type "float3" 0 -0.008443526 0 ;
	setAttr ".pt[242]" -type "float3" 0 -1.8383008 0 ;
	setAttr ".pt[243]" -type "float3" 0 -1.1932571 0 ;
	setAttr ".pt[244]" -type "float3" 0 -0.41925266 0 ;
	setAttr ".pt[245]" -type "float3" 0 -0.008443526 0 ;
	setAttr ".pt[248]" -type "float3" 0 -0.008443526 0 ;
	setAttr ".pt[249]" -type "float3" 0 -0.41925266 0 ;
	setAttr ".pt[250]" -type "float3" 0 -1.1932571 0 ;
	setAttr ".pt[251]" -type "float3" 0 -1.8383008 0 ;
	setAttr ".pt[252]" -type "float3" 0 0.72213638 0 ;
	setAttr ".pt[253]" -type "float3" 0 -1.8383009 0 ;
	setAttr ".pt[254]" -type "float3" 0 -1.1932571 0 ;
	setAttr ".pt[255]" -type "float3" 0 -0.41925266 0 ;
	setAttr ".pt[256]" -type "float3" 0 -0.008443526 0 ;
	setAttr ".pt[259]" -type "float3" 0 -0.008443526 0 ;
	setAttr ".pt[260]" -type "float3" 0 -0.41925266 0 ;
	setAttr ".pt[261]" -type "float3" 0 -1.1932571 0 ;
	setAttr ".pt[262]" -type "float3" 0 -1.8383009 0 ;
	setAttr ".pt[263]" -type "float3" 0 0.71523416 0 ;
	setAttr -s 286 ".vt";
	setAttr ".vt[0:165]"  -0.5 48.41268539 0.5 -0.40000001 30.50421143 0.5 -0.30000001 13.0097932816 0.5
		 -0.20000002 4.85480738 0.5 -0.10000002 -0.068397343 0.5 -1.4901161e-08 -0.5 0.5 0.099999987 -0.37187392 0.5
		 0.19999999 1.043193936 0.5 0.29999998 3.37602949 0.5 0.39999998 6.51158428 0.5 0.49999997 24.07012558 0.5
		 -0.5 49.41268539 0.5 -0.40000001 31.50421143 0.5 -0.30000001 14.021242142 0.5 -0.20000002 5.85480738 0.5
		 -0.10000002 0.93160266 0.5 -1.4901161e-08 0.5 0.5 0.099999987 0.62812608 0.5 0.19999999 2.043193817 0.5
		 0.29999998 4.37602949 0.5 0.39999998 7.51158428 0.5 0.49999997 25.07012558 0.5 -0.5 24.60899734 0.40000001
		 -0.40000001 17.74914551 0.40000001 -0.30000001 10.90535355 0.40000001 -0.20000002 4.15900326 0.40000001
		 -0.10000002 0.60152566 0.40000001 -1.4901161e-08 0.5 0.40000001 0.099999987 0.53125536 0.40000001
		 0.19999999 1.55568576 0.40000001 0.29999998 3.48581839 0.40000001 0.39999998 5.28703403 0.40000001
		 0.49999997 6.013727188 0.40000001 -0.5 9.5544157 0.30000001 -0.40000001 8.0029802322 0.30000001
		 -0.30000001 4.36436844 0.30000001 -0.20000002 1.12929547 0.30000001 -0.10000002 0.5 0.30000001
		 -1.4901161e-08 0.5 0.30000001 0.099999987 0.5 0.30000001 0.19999999 0.68496454 0.30000001
		 0.29999998 1.61453736 0.30000001 0.39999998 2.65603662 0.30000001 0.49999997 3.099662542 0.30000001
		 -0.5 1.54349256 0.20000002 -0.40000001 1.13707495 0.20000002 -0.30000001 0.52584922 0.20000002
		 -0.20000002 0.5 0.20000002 -0.10000002 0.5 0.20000002 -1.4901161e-08 0.5 0.20000002
		 0.099999987 0.5 0.20000002 0.19999999 0.5 0.20000002 0.29999998 0.50856602 0.20000002
		 0.39999998 0.68496454 0.20000002 0.49999997 0.80455184 0.20000002 -0.5 0.5 0.10000002
		 -0.40000001 0.5 0.10000002 -0.30000001 0.5 0.10000002 -0.20000002 0.5 0.10000002
		 -0.10000002 0.5 0.10000002 -1.4901161e-08 0.5 0.10000002 0.099999987 0.5 0.10000002
		 0.19999999 0.5 0.10000002 0.29999998 0.015479088 0.10000002 0.39999998 -3.86798429 0.10000002
		 0.49999997 0.015479088 0.10000002 -0.5 0.5 1.4901161e-08 -0.40000001 0.5 1.4901161e-08
		 -0.30000001 0.5 1.4901161e-08 -0.20000002 0.5 1.4901161e-08 -0.10000002 0.5 1.4901161e-08
		 -1.4901161e-08 0.5 1.4901161e-08 0.099999987 0.5 1.4901161e-08 0.19999999 0.5 1.4901161e-08
		 0.29999998 -8.62331963 1.4901161e-08 0.39999998 -22.19118118 1.4901161e-08 0.49999997 -8.62331963 1.4901161e-08
		 -0.5 0.5 -0.099999987 -0.40000001 0.5 -0.099999987 -0.30000001 0.5 -0.099999987 -0.20000002 0.5 -0.099999987
		 -0.10000002 0.5 -0.099999987 -1.4901161e-08 0.5 -0.099999987 0.099999987 0.5 -0.099999987
		 0.19999999 0.49999952 -0.099999987 0.29999998 0.015479088 -0.099999994 0.39999998 -3.86798477 -0.099999987
		 0.49999997 0.015479088 -0.099999987 -0.5 0.5 -0.19999999 -0.40000001 0.5 -0.19999999
		 -0.30000001 0.5 -0.19999999 -0.20000002 0.5 -0.19999999 -0.10000002 0.5 -0.19999999
		 -1.4901161e-08 0.5 -0.19999999 0.099999987 0.5 -0.19999999 0.19999999 0.5 -0.19999997
		 0.30000001 0.82597762 -0.20000005 0.39999998 3.43839526 -0.19999997 0.49999997 0.82595474 -0.19999999
		 -0.5 0.5 -0.29999998 -0.40000001 0.5 -0.29999998 -0.30000001 0.5 -0.29999998 -0.20000002 0.5 -0.29999998
		 -0.10000002 0.5 -0.29999998 -1.4901161e-08 0.5 -0.29999998 0.099999987 0.5 -0.29999998
		 0.19999999 0.49999952 -0.29999998 0.29999998 6.63738012 -0.29999998 0.39999998 15.76463223 -0.29999998
		 0.49999997 6.63738012 -0.29999998 -0.5 0.5 -0.39999998 -0.40000001 0.5 -0.39999998
		 -0.30000001 0.5 -0.39999998 -0.20000002 0.5 -0.39999998 -0.10000002 0.5 -0.39999998
		 -1.4901161e-08 0.5 -0.39999998 0.099999987 0.5 -0.39999998 0.19999999 0.5 -0.39999998
		 0.29999998 0.82594711 -0.39999998 0.39999998 3.43838 -0.39999998 0.49999997 0.82594711 -0.39999998
		 -0.5 0.5 -0.5 -0.40000001 0.5 -0.5 -0.30000001 0.5 -0.5 -0.20000002 0.5 -0.5 -0.10000002 0.5 -0.5
		 -1.4901161e-08 0.5 -0.5 0.099999987 0.5 -0.5 0.19999999 0.5 -0.5 0.29999998 0.5 -0.5
		 0.39999998 0.5 -0.5 0.49999997 0.5 -0.5 -0.5 -0.5 -0.5 -0.40000001 -0.5 -0.5 -0.30000001 -0.5 -0.5
		 -0.20000002 -0.5 -0.5 -0.10000002 -0.5 -0.5 -1.4901161e-08 -0.5 -0.5 0.099999987 -0.5 -0.5
		 0.19999999 -0.5 -0.5 0.29999998 -0.5 -0.5 0.39999998 -0.5 -0.5 0.49999997 -0.5 -0.5
		 -0.5 -0.5 -0.40000001 -0.40000001 -0.5 -0.40000001 -0.30000001 -0.5 -0.40000001 -0.20000002 -0.5 -0.40000001
		 -0.10000002 -0.5 -0.40000001 -1.4901161e-08 -0.5 -0.40000001 0.099999987 -0.5 -0.40000001
		 0.19999999 -0.5 -0.40000001 0.29999998 -0.17405289 -0.40000001 0.39999998 2.43838 -0.40000001
		 0.49999997 -0.17405289 -0.40000001 -0.5 -0.5 -0.30000001 -0.40000001 -0.5 -0.30000001
		 -0.30000001 -0.5 -0.30000001 -0.20000002 -0.5 -0.30000001 -0.10000002 -0.5 -0.30000001
		 -1.4901161e-08 -0.5 -0.30000001 0.099999987 -0.5 -0.30000001 0.19999999 -0.50000048 -0.30000001
		 0.29999998 5.63738012 -0.30000001 0.39999998 14.76463223 -0.30000001 0.49999997 5.63738012 -0.30000001
		 -0.5 -0.5 -0.20000002;
	setAttr ".vt[166:285]" -0.40000001 -0.5 -0.20000002 -0.30000001 -0.5 -0.20000002
		 -0.20000002 -0.5 -0.20000002 -0.10000002 -0.5 -0.20000002 -1.4901161e-08 -0.5 -0.20000002
		 0.099999987 -0.5 -0.20000002 0.19999999 -0.5 -0.2 0.30000001 -0.17402238 -0.20000008
		 0.39999998 2.43839526 -0.2 0.49999997 -0.17404526 -0.20000002 -0.5 -0.5 -0.10000002
		 -0.40000001 -0.5 -0.10000002 -0.30000001 -0.5 -0.10000002 -0.20000002 -0.5 -0.10000002
		 -0.10000002 -0.5 -0.10000002 -1.4901161e-08 -0.5 -0.10000002 0.099999987 -0.5 -0.10000002
		 0.19999999 -0.50000048 -0.10000002 0.29999998 -0.98452091 -0.10000002 0.39999998 -4.86798477 -0.10000002
		 0.49999997 -0.98452091 -0.10000002 -0.5 -0.5 -1.4901161e-08 -0.40000001 -0.5 -1.4901161e-08
		 -0.30000001 -0.5 -1.4901161e-08 -0.20000002 -0.5 -1.4901161e-08 -0.10000002 -0.5 -1.4901161e-08
		 -1.4901161e-08 -0.5 -1.4901161e-08 0.099999987 -0.5 -1.4901161e-08 0.19999999 -0.5 -1.4901161e-08
		 0.29999998 -9.62331963 -1.4901161e-08 0.39999998 -23.19118118 -1.4901161e-08 0.49999997 -9.62331963 -1.4901161e-08
		 -0.5 -0.5 0.099999987 -0.40000001 -0.5 0.099999987 -0.30000001 -0.5 0.099999987 -0.20000002 -0.5 0.099999987
		 -0.10000002 -0.5 0.099999987 -1.4901161e-08 -0.5 0.099999987 0.099999987 -0.5 0.099999987
		 0.19999999 -0.5 0.099999987 0.29999998 -0.98452091 0.099999987 0.39999998 -4.86798429 0.099999987
		 0.49999997 -0.98452091 0.099999987 -0.5 0.54349256 0.19999999 -0.40000001 0.12929547 0.19999999
		 -0.30000001 -0.47415081 0.19999999 -0.20000002 -0.5 0.19999999 -0.10000002 -0.5 0.19999999
		 -1.4901161e-08 -0.5 0.19999999 0.099999987 -0.5 0.19999999 0.19999999 -0.5 0.19999999
		 0.29999998 -0.49143398 0.19999999 0.39999998 -0.31503546 0.19999999 0.49999997 -0.19544819 0.19999999
		 -0.5 8.5544157 0.29999998 -0.40000001 7.0029802322 0.29999998 -0.30000001 3.36436844 0.29999998
		 -0.20000002 0.12929547 0.29999998 -0.10000002 -0.5 0.29999998 -1.4901161e-08 -0.5 0.29999998
		 0.099999987 -0.5 0.29999998 0.19999999 -0.31503546 0.29999998 0.29999998 0.61453736 0.29999998
		 0.39999998 1.65603662 0.29999998 0.49999997 2.099662542 0.29999998 -0.5 23.60899734 0.39999998
		 -0.40000001 16.73630142 0.39999998 -0.30000001 9.90535355 0.39999998 -0.20000002 3.1590035 0.39999998
		 -0.10000002 -0.39847431 0.39999998 -1.4901161e-08 -0.5 0.39999998 0.099999987 -0.46874461 0.39999998
		 0.19999999 0.55568576 0.39999998 0.29999998 2.48581839 0.39999998 0.39999998 4.28703403 0.39999998
		 0.49999997 5.013727188 0.39999998 0.49837995 -0.047433741 -0.099999987 0.49837995 0.86827672 -0.19999999
		 0.49837995 6.78524351 -0.29999998 0.49837995 0.86826903 -0.39999998 0.49837995 0.5 -0.5
		 0.49837995 -0.5 -0.5 0.49837995 -0.131731 -0.40000001 0.49837995 5.78524303 -0.30000001
		 0.49837995 -0.13172324 -0.20000002 0.49837995 -1.047433734 -0.10000002 0.49837995 -9.84312057 -1.4901161e-08
		 0.49837995 -1.047433734 0.099999987 0.49837995 -0.19738552 0.19999999 0.49837995 2.092475653 0.29999998
		 0.49837995 5.0019545555 0.39999998 0.49837995 23.78567505 0.5 0.49837995 24.78567314 0.5
		 0.49837995 6.0019545555 0.40000001 0.49837995 3.092475891 0.30000001 0.49837995 0.80261451 0.20000002
		 0.49837995 -0.047433734 0.10000002 0.49837995 -8.84312153 1.4901161e-08 -0.495444 0.5 -0.099999979
		 -0.495444 0.5 -0.19999999 -0.495444 0.5 -0.29999998 -0.495444 0.5 -0.39999998 -0.495444 0.5 -0.5
		 -0.495444 -0.5 -0.5 -0.495444 -0.5 -0.40000001 -0.495444 -0.5 -0.30000001 -0.495444 -0.5 -0.20000002
		 -0.495444 -0.5 -0.10000002 -0.495444 -0.5 -1.4901161e-08 -0.495444 -0.5 0.099999979
		 -0.495444 0.52462173 0.19999999 -0.495444 8.48373222 0.29999998 -0.495444 23.29587746 0.39999998
		 -0.495444 47.59677124 0.5 -0.495444 48.59677505 0.5 -0.495444 24.29646111 0.40000001
		 -0.495444 9.48373222 0.30000001 -0.495444 1.52497613 0.20000002 -0.495444 0.5 0.10000002
		 -0.495444 0.5 1.4901161e-08;
	setAttr -s 568 ".ed";
	setAttr ".ed[0:165]"  0 279 0 1 2 0 2 3 0 3 4 0 4 5 0 5 6 0 6 7 0 7 8 0 8 9 0
		 9 257 0 11 280 0 12 13 0 13 14 0 14 15 0 15 16 0 16 17 0 17 18 0 18 19 0 19 20 0
		 20 258 0 22 281 1 23 24 1 24 25 1 25 26 1 26 27 1 27 28 1 28 29 1 29 30 1 30 31 1
		 31 259 1 33 282 1 34 35 1 35 36 1 36 37 1 37 38 1 38 39 1 39 40 1 40 41 1 41 42 1
		 42 260 1 44 283 1 45 46 1 46 47 1 47 48 1 48 49 1 49 50 1 50 51 1 51 52 1 52 53 1
		 53 261 1 55 284 1 56 57 1 57 58 1 58 59 1 59 60 1 60 61 1 61 62 1 62 63 1 63 64 1
		 64 262 1 66 285 1 67 68 1 68 69 1 69 70 1 70 71 1 71 72 1 72 73 1 73 74 1 74 75 1
		 75 263 1 77 264 1 78 79 1 79 80 1 80 81 1 81 82 1 82 83 1 83 84 1 84 85 1 85 86 1
		 86 242 1 88 265 1 89 90 1 90 91 1 91 92 1 92 93 1 93 94 1 94 95 1 95 96 1 96 97 1
		 97 243 1 99 266 1 100 101 1 101 102 1 102 103 1 103 104 1 104 105 1 105 106 1 106 107 1
		 107 108 1 108 244 1 110 267 1 111 112 1 112 113 1 113 114 1 114 115 1 115 116 1 116 117 1
		 117 118 1 118 119 1 119 245 1 121 268 0 122 123 0 123 124 0 124 125 0 125 126 0 126 127 0
		 127 128 0 128 129 0 129 130 0 130 246 0 132 269 0 133 134 0 134 135 0 135 136 0 136 137 0
		 137 138 0 138 139 0 139 140 0 140 141 0 141 247 0 143 270 1 144 145 1 145 146 1 146 147 1
		 147 148 1 148 149 1 149 150 1 150 151 1 151 152 1 152 248 1 154 271 1 155 156 1 156 157 1
		 157 158 1 158 159 1 159 160 1 160 161 1 161 162 1 162 163 1 163 249 1 165 272 1 166 167 1
		 167 168 1 168 169 1 169 170 1 170 171 1 171 172 1 172 173 1 173 174 1 174 250 1 176 273 1
		 177 178 1 178 179 1 179 180 1 180 181 1 181 182 1;
	setAttr ".ed[166:331]" 182 183 1 183 184 1 184 185 1 185 251 1 187 274 1 188 189 1
		 189 190 1 190 191 1 191 192 1 192 193 1 193 194 1 194 195 1 195 196 1 196 252 1 198 275 1
		 199 200 1 200 201 1 201 202 1 202 203 1 203 204 1 204 205 1 205 206 1 206 207 1 207 253 1
		 209 276 1 210 211 1 211 212 1 212 213 1 213 214 1 214 215 1 215 216 1 216 217 1 217 218 1
		 218 254 1 220 277 1 221 222 1 222 223 1 223 224 1 224 225 1 225 226 1 226 227 1 227 228 1
		 228 229 1 229 255 1 231 278 1 232 233 1 233 234 1 234 235 1 235 236 1 236 237 1 237 238 1
		 238 239 1 239 240 1 240 256 1 0 11 0 1 12 1 2 13 1 3 14 1 4 15 1 5 16 1 6 17 1 7 18 1
		 8 19 1 9 20 1 10 21 0 11 22 0 12 23 1 13 24 1 14 25 1 15 26 1 16 27 1 17 28 1 18 29 1
		 19 30 1 20 31 1 21 32 0 22 33 0 23 34 1 24 35 1 25 36 1 26 37 1 27 38 1 28 39 1 29 40 1
		 30 41 1 31 42 1 32 43 0 33 44 0 34 45 1 35 46 1 36 47 1 37 48 1 38 49 1 39 50 1 40 51 1
		 41 52 1 42 53 1 43 54 0 44 55 0 45 56 1 46 57 1 47 58 1 48 59 1 49 60 1 50 61 1 51 62 1
		 52 63 1 53 64 1 54 65 0 55 66 0 56 67 1 57 68 1 58 69 1 59 70 1 60 71 1 61 72 1 62 73 1
		 63 74 1 64 75 1 65 76 0 66 77 0 67 78 1 68 79 1 69 80 1 70 81 1 71 82 1 72 83 1 73 84 1
		 74 85 1 75 86 1 76 87 0 77 88 0 78 89 1 79 90 1 80 91 1 81 92 1 82 93 1 83 94 1 84 95 1
		 85 96 1 86 97 1 87 98 0 88 99 0 89 100 1 90 101 1 91 102 1 92 103 1 93 104 1 94 105 1
		 95 106 1 96 107 1 97 108 1 98 109 0 99 110 0 100 111 1 101 112 1 102 113 1 103 114 1
		 104 115 1 105 116 1 106 117 1 107 118 1 108 119 1 109 120 0 110 121 0 111 122 1;
	setAttr ".ed[332:497]" 112 123 1 113 124 1 114 125 1 115 126 1 116 127 1 117 128 1
		 118 129 1 119 130 1 120 131 0 121 132 0 122 133 1 123 134 1 124 135 1 125 136 1 126 137 1
		 127 138 1 128 139 1 129 140 1 130 141 1 131 142 0 132 143 0 133 144 1 134 145 1 135 146 1
		 136 147 1 137 148 1 138 149 1 139 150 1 140 151 1 141 152 1 142 153 0 143 154 0 144 155 1
		 145 156 1 146 157 1 147 158 1 148 159 1 149 160 1 150 161 1 151 162 1 152 163 1 153 164 0
		 154 165 0 155 166 1 156 167 1 157 168 1 158 169 1 159 170 1 160 171 1 161 172 1 162 173 1
		 163 174 1 164 175 0 165 176 0 166 177 1 167 178 1 168 179 1 169 180 1 170 181 1 171 182 1
		 172 183 1 173 184 1 174 185 1 175 186 0 176 187 0 177 188 1 178 189 1 179 190 1 180 191 1
		 181 192 1 182 193 1 183 194 1 184 195 1 185 196 1 186 197 0 187 198 0 188 199 1 189 200 1
		 190 201 1 191 202 1 192 203 1 193 204 1 194 205 1 195 206 1 196 207 1 197 208 0 198 209 0
		 199 210 1 200 211 1 201 212 1 202 213 1 203 214 1 204 215 1 205 216 1 206 217 1 207 218 1
		 208 219 0 209 220 0 210 221 1 211 222 1 212 223 1 213 224 1 214 225 1 215 226 1 216 227 1
		 217 228 1 218 229 1 219 230 0 220 231 0 221 232 1 222 233 1 223 234 1 224 235 1 225 236 1
		 226 237 1 227 238 1 228 239 1 229 240 1 230 241 0 231 0 0 232 1 1 233 2 1 234 3 1
		 235 4 1 236 5 1 237 6 1 238 7 1 239 8 1 240 9 1 241 10 0 153 120 1 164 109 1 175 98 1
		 186 87 1 197 76 1 208 65 1 219 54 1 230 43 1 241 32 1 143 110 1 154 99 1 165 88 1
		 176 77 1 187 66 1 198 55 1 209 44 1 220 33 1 231 22 1 242 87 1 243 98 1 242 243 1
		 244 109 1 243 244 1 245 120 1 244 245 1 246 131 0 245 246 0 247 142 0 246 247 1 248 153 1
		 247 248 0 249 164 1 248 249 1 250 175 1 249 250 1 251 186 1;
	setAttr ".ed[498:567]" 250 251 1 252 197 1 251 252 1 253 208 1 252 253 1 254 219 1
		 253 254 0 255 230 1 254 255 1 256 241 1 255 256 1 257 10 0 256 257 1 258 21 0 257 258 1
		 259 32 1 258 259 1 260 43 1 259 260 1 261 54 1 260 261 1 262 65 1 261 262 0 263 76 1
		 262 263 1 263 242 1 264 78 1 265 89 1 264 265 1 266 100 1 265 266 1 267 111 1 266 267 1
		 268 122 0 267 268 1 269 133 0 268 269 1 270 144 1 269 270 1 271 155 1 270 271 1 272 166 1
		 271 272 1 273 177 1 272 273 1 274 188 1 273 274 1 275 199 1 274 275 1 276 210 1 275 276 1
		 277 221 1 276 277 1 278 232 1 277 278 1 279 1 0 278 279 1 280 12 0 279 280 1 281 23 1
		 280 281 1 282 34 1 281 282 1 283 45 1 282 283 1 284 56 1 283 284 1 285 67 1 284 285 1
		 285 264 1;
	setAttr -s 284 -ch 1136 ".fc[0:283]" -type "polyFaces" 
		f 4 0 556 -11 -221
		mu 0 4 0 331 333 11
		f 4 1 222 -12 -222
		mu 0 4 1 2 13 12
		f 4 2 223 -13 -223
		mu 0 4 2 3 14 13
		f 4 3 224 -14 -224
		mu 0 4 3 4 15 14
		f 4 4 225 -15 -225
		mu 0 4 4 5 16 15
		f 4 5 226 -16 -226
		mu 0 4 5 6 17 16
		f 4 6 227 -17 -227
		mu 0 4 6 7 18 17
		f 4 7 228 -18 -228
		mu 0 4 7 8 19 18
		f 4 8 229 -19 -229
		mu 0 4 8 9 20 19
		f 4 9 512 -20 -230
		mu 0 4 9 308 310 20
		f 4 10 558 -21 -232
		mu 0 4 11 333 334 22
		f 4 11 233 -22 -233
		mu 0 4 12 13 24 23
		f 4 12 234 -23 -234
		mu 0 4 13 14 25 24
		f 4 13 235 -24 -235
		mu 0 4 14 15 26 25
		f 4 14 236 -25 -236
		mu 0 4 15 16 27 26
		f 4 15 237 -26 -237
		mu 0 4 16 17 28 27
		f 4 16 238 -27 -238
		mu 0 4 17 18 29 28
		f 4 17 239 -28 -239
		mu 0 4 18 19 30 29
		f 4 18 240 -29 -240
		mu 0 4 19 20 31 30
		f 4 19 514 -30 -241
		mu 0 4 20 310 311 31
		f 4 20 560 -31 -243
		mu 0 4 22 334 335 33
		f 4 21 244 -32 -244
		mu 0 4 23 24 35 34
		f 4 22 245 -33 -245
		mu 0 4 24 25 36 35
		f 4 23 246 -34 -246
		mu 0 4 25 26 37 36
		f 4 24 247 -35 -247
		mu 0 4 26 27 38 37
		f 4 25 248 -36 -248
		mu 0 4 27 28 39 38
		f 4 26 249 -37 -249
		mu 0 4 28 29 40 39
		f 4 27 250 -38 -250
		mu 0 4 29 30 41 40
		f 4 28 251 -39 -251
		mu 0 4 30 31 42 41
		f 4 29 516 -40 -252
		mu 0 4 31 311 312 42
		f 4 30 562 -41 -254
		mu 0 4 33 335 336 44
		f 4 31 255 -42 -255
		mu 0 4 34 35 46 45
		f 4 32 256 -43 -256
		mu 0 4 35 36 47 46
		f 4 33 257 -44 -257
		mu 0 4 36 37 48 47
		f 4 34 258 -45 -258
		mu 0 4 37 38 49 48
		f 4 35 259 -46 -259
		mu 0 4 38 39 50 49
		f 4 36 260 -47 -260
		mu 0 4 39 40 51 50
		f 4 37 261 -48 -261
		mu 0 4 40 41 52 51
		f 4 38 262 -49 -262
		mu 0 4 41 42 53 52
		f 4 39 518 -50 -263
		mu 0 4 42 312 313 53
		f 4 40 564 -51 -265
		mu 0 4 44 336 337 55
		f 4 41 266 -52 -266
		mu 0 4 45 46 57 56
		f 4 42 267 -53 -267
		mu 0 4 46 47 58 57
		f 4 43 268 -54 -268
		mu 0 4 47 48 59 58
		f 4 44 269 -55 -269
		mu 0 4 48 49 60 59
		f 4 45 270 -56 -270
		mu 0 4 49 50 61 60
		f 4 46 271 -57 -271
		mu 0 4 50 51 62 61
		f 4 47 272 -58 -272
		mu 0 4 51 52 63 62
		f 4 48 273 -59 -273
		mu 0 4 52 53 64 63
		f 4 49 520 -60 -274
		mu 0 4 53 313 314 64
		f 4 50 566 -61 -276
		mu 0 4 55 337 338 66
		f 4 51 277 -62 -277
		mu 0 4 56 57 68 67
		f 4 52 278 -63 -278
		mu 0 4 57 58 69 68
		f 4 53 279 -64 -279
		mu 0 4 58 59 70 69
		f 4 54 280 -65 -280
		mu 0 4 59 60 71 70
		f 4 55 281 -66 -281
		mu 0 4 60 61 72 71
		f 4 56 282 -67 -282
		mu 0 4 61 62 73 72
		f 4 57 283 -68 -283
		mu 0 4 62 63 74 73
		f 4 58 284 -69 -284
		mu 0 4 63 64 75 74
		f 4 59 522 -70 -285
		mu 0 4 64 314 315 75
		f 4 60 567 -71 -287
		mu 0 4 66 338 316 77
		f 4 61 288 -72 -288
		mu 0 4 67 68 79 78
		f 4 62 289 -73 -289
		mu 0 4 68 69 80 79
		f 4 63 290 -74 -290
		mu 0 4 69 70 81 80
		f 4 64 291 -75 -291
		mu 0 4 70 71 82 81
		f 4 65 292 -76 -292
		mu 0 4 71 72 83 82
		f 4 66 293 -77 -293
		mu 0 4 72 73 84 83
		f 4 67 294 -78 -294
		mu 0 4 73 74 85 84
		f 4 68 295 -79 -295
		mu 0 4 74 75 86 85
		f 4 69 523 -80 -296
		mu 0 4 75 315 293 86
		f 4 70 526 -81 -298
		mu 0 4 77 316 317 88
		f 4 71 299 -82 -299
		mu 0 4 78 79 90 89
		f 4 72 300 -83 -300
		mu 0 4 79 80 91 90
		f 4 73 301 -84 -301
		mu 0 4 80 81 92 91
		f 4 74 302 -85 -302
		mu 0 4 81 82 93 92
		f 4 75 303 -86 -303
		mu 0 4 82 83 94 93
		f 4 76 304 -87 -304
		mu 0 4 83 84 95 94
		f 4 77 305 -88 -305
		mu 0 4 84 85 96 95
		f 4 78 306 -89 -306
		mu 0 4 85 86 97 96
		f 4 79 482 -90 -307
		mu 0 4 86 293 294 97
		f 4 80 528 -91 -309
		mu 0 4 88 317 318 99
		f 4 81 310 -92 -310
		mu 0 4 89 90 101 100
		f 4 82 311 -93 -311
		mu 0 4 90 91 102 101
		f 4 83 312 -94 -312
		mu 0 4 91 92 103 102
		f 4 84 313 -95 -313
		mu 0 4 92 93 104 103
		f 4 85 314 -96 -314
		mu 0 4 93 94 105 104
		f 4 86 315 -97 -315
		mu 0 4 94 95 106 105
		f 4 87 316 -98 -316
		mu 0 4 95 96 107 106
		f 4 88 317 -99 -317
		mu 0 4 96 97 108 107
		f 4 89 484 -100 -318
		mu 0 4 97 294 295 108
		f 4 90 530 -101 -320
		mu 0 4 99 318 319 110
		f 4 91 321 -102 -321
		mu 0 4 100 101 112 111
		f 4 92 322 -103 -322
		mu 0 4 101 102 113 112
		f 4 93 323 -104 -323
		mu 0 4 102 103 114 113
		f 4 94 324 -105 -324
		mu 0 4 103 104 115 114
		f 4 95 325 -106 -325
		mu 0 4 104 105 116 115
		f 4 96 326 -107 -326
		mu 0 4 105 106 117 116
		f 4 97 327 -108 -327
		mu 0 4 106 107 118 117
		f 4 98 328 -109 -328
		mu 0 4 107 108 119 118
		f 4 99 486 -110 -329
		mu 0 4 108 295 296 119
		f 4 100 532 -111 -331
		mu 0 4 110 319 320 121
		f 4 101 332 -112 -332
		mu 0 4 111 112 123 122
		f 4 102 333 -113 -333
		mu 0 4 112 113 124 123
		f 4 103 334 -114 -334
		mu 0 4 113 114 125 124
		f 4 104 335 -115 -335
		mu 0 4 114 115 126 125
		f 4 105 336 -116 -336
		mu 0 4 115 116 127 126
		f 4 106 337 -117 -337
		mu 0 4 116 117 128 127
		f 4 107 338 -118 -338
		mu 0 4 117 118 129 128
		f 4 108 339 -119 -339
		mu 0 4 118 119 130 129
		f 4 109 488 -120 -340
		mu 0 4 119 296 297 130
		f 4 110 534 -121 -342
		mu 0 4 121 320 321 132
		f 4 111 343 -122 -343
		mu 0 4 122 123 134 133
		f 4 112 344 -123 -344
		mu 0 4 123 124 135 134
		f 4 113 345 -124 -345
		mu 0 4 124 125 136 135
		f 4 114 346 -125 -346
		mu 0 4 125 126 137 136
		f 4 115 347 -126 -347
		mu 0 4 126 127 138 137
		f 4 116 348 -127 -348
		mu 0 4 127 128 139 138
		f 4 117 349 -128 -349
		mu 0 4 128 129 140 139
		f 4 118 350 -129 -350
		mu 0 4 129 130 141 140
		f 4 119 490 -130 -351
		mu 0 4 130 297 298 141
		f 4 120 536 -131 -353
		mu 0 4 132 321 322 143
		f 4 121 354 -132 -354
		mu 0 4 133 134 145 144
		f 4 122 355 -133 -355
		mu 0 4 134 135 146 145
		f 4 123 356 -134 -356
		mu 0 4 135 136 147 146
		f 4 124 357 -135 -357
		mu 0 4 136 137 148 147
		f 4 125 358 -136 -358
		mu 0 4 137 138 149 148
		f 4 126 359 -137 -359
		mu 0 4 138 139 150 149
		f 4 127 360 -138 -360
		mu 0 4 139 140 151 150
		f 4 128 361 -139 -361
		mu 0 4 140 141 152 151
		f 4 129 492 -140 -362
		mu 0 4 141 298 299 152
		f 4 130 538 -141 -364
		mu 0 4 143 322 323 154
		f 4 131 365 -142 -365
		mu 0 4 144 145 156 155
		f 4 132 366 -143 -366
		mu 0 4 145 146 157 156
		f 4 133 367 -144 -367
		mu 0 4 146 147 158 157
		f 4 134 368 -145 -368
		mu 0 4 147 148 159 158
		f 4 135 369 -146 -369
		mu 0 4 148 149 160 159
		f 4 136 370 -147 -370
		mu 0 4 149 150 161 160
		f 4 137 371 -148 -371
		mu 0 4 150 151 162 161
		f 4 138 372 -149 -372
		mu 0 4 151 152 163 162
		f 4 139 494 -150 -373
		mu 0 4 152 299 300 163
		f 4 140 540 -151 -375
		mu 0 4 154 323 324 165
		f 4 141 376 -152 -376
		mu 0 4 155 156 167 166
		f 4 142 377 -153 -377
		mu 0 4 156 157 168 167
		f 4 143 378 -154 -378
		mu 0 4 157 158 169 168
		f 4 144 379 -155 -379
		mu 0 4 158 159 170 169
		f 4 145 380 -156 -380
		mu 0 4 159 160 171 170
		f 4 146 381 -157 -381
		mu 0 4 160 161 172 171
		f 4 147 382 -158 -382
		mu 0 4 161 162 173 172
		f 4 148 383 -159 -383
		mu 0 4 162 163 174 173
		f 4 149 496 -160 -384
		mu 0 4 163 300 301 174
		f 4 150 542 -161 -386
		mu 0 4 165 324 325 176
		f 4 151 387 -162 -387
		mu 0 4 166 167 178 177
		f 4 152 388 -163 -388
		mu 0 4 167 168 179 178
		f 4 153 389 -164 -389
		mu 0 4 168 169 180 179
		f 4 154 390 -165 -390
		mu 0 4 169 170 181 180
		f 4 155 391 -166 -391
		mu 0 4 170 171 182 181
		f 4 156 392 -167 -392
		mu 0 4 171 172 183 182
		f 4 157 393 -168 -393
		mu 0 4 172 173 184 183
		f 4 158 394 -169 -394
		mu 0 4 173 174 185 184
		f 4 159 498 -170 -395
		mu 0 4 174 301 302 185
		f 4 160 544 -171 -397
		mu 0 4 176 325 326 187
		f 4 161 398 -172 -398
		mu 0 4 177 178 189 188
		f 4 162 399 -173 -399
		mu 0 4 178 179 190 189
		f 4 163 400 -174 -400
		mu 0 4 179 180 191 190
		f 4 164 401 -175 -401
		mu 0 4 180 181 192 191
		f 4 165 402 -176 -402
		mu 0 4 181 182 193 192
		f 4 166 403 -177 -403
		mu 0 4 182 183 194 193
		f 4 167 404 -178 -404
		mu 0 4 183 184 195 194
		f 4 168 405 -179 -405
		mu 0 4 184 185 196 195
		f 4 169 500 -180 -406
		mu 0 4 185 302 303 196
		f 4 170 546 -181 -408
		mu 0 4 187 326 327 198
		f 4 171 409 -182 -409
		mu 0 4 188 189 200 199
		f 4 172 410 -183 -410
		mu 0 4 189 190 201 200
		f 4 173 411 -184 -411
		mu 0 4 190 191 202 201
		f 4 174 412 -185 -412
		mu 0 4 191 192 203 202
		f 4 175 413 -186 -413
		mu 0 4 192 193 204 203
		f 4 176 414 -187 -414
		mu 0 4 193 194 205 204
		f 4 177 415 -188 -415
		mu 0 4 194 195 206 205
		f 4 178 416 -189 -416
		mu 0 4 195 196 207 206
		f 4 179 502 -190 -417
		mu 0 4 196 303 304 207
		f 4 180 548 -191 -419
		mu 0 4 198 327 328 209
		f 4 181 420 -192 -420
		mu 0 4 199 200 211 210
		f 4 182 421 -193 -421
		mu 0 4 200 201 212 211
		f 4 183 422 -194 -422
		mu 0 4 201 202 213 212
		f 4 184 423 -195 -423
		mu 0 4 202 203 214 213
		f 4 185 424 -196 -424
		mu 0 4 203 204 215 214
		f 4 186 425 -197 -425
		mu 0 4 204 205 216 215
		f 4 187 426 -198 -426
		mu 0 4 205 206 217 216
		f 4 188 427 -199 -427
		mu 0 4 206 207 218 217
		f 4 189 504 -200 -428
		mu 0 4 207 304 305 218
		f 4 190 550 -201 -430
		mu 0 4 209 328 329 220
		f 4 191 431 -202 -431
		mu 0 4 210 211 222 221
		f 4 192 432 -203 -432
		mu 0 4 211 212 223 222
		f 4 193 433 -204 -433
		mu 0 4 212 213 224 223
		f 4 194 434 -205 -434
		mu 0 4 213 214 225 224
		f 4 195 435 -206 -435
		mu 0 4 214 215 226 225
		f 4 196 436 -207 -436
		mu 0 4 215 216 227 226
		f 4 197 437 -208 -437
		mu 0 4 216 217 228 227
		f 4 198 438 -209 -438
		mu 0 4 217 218 229 228
		f 4 199 506 -210 -439
		mu 0 4 218 305 306 229
		f 4 200 552 -211 -441
		mu 0 4 220 329 330 231
		f 4 201 442 -212 -442
		mu 0 4 221 222 233 232
		f 4 202 443 -213 -443
		mu 0 4 222 223 234 233
		f 4 203 444 -214 -444
		mu 0 4 223 224 235 234
		f 4 204 445 -215 -445
		mu 0 4 224 225 236 235
		f 4 205 446 -216 -446
		mu 0 4 225 226 237 236
		f 4 206 447 -217 -447
		mu 0 4 226 227 238 237
		f 4 207 448 -218 -448
		mu 0 4 227 228 239 238
		f 4 208 449 -219 -449
		mu 0 4 228 229 240 239
		f 4 209 508 -220 -450
		mu 0 4 229 306 307 240
		f 4 210 554 -1 -452
		mu 0 4 231 330 332 242
		f 4 211 453 -2 -453
		mu 0 4 232 233 244 243
		f 4 212 454 -3 -454
		mu 0 4 233 234 245 244
		f 4 213 455 -4 -455
		mu 0 4 234 235 246 245
		f 4 214 456 -5 -456
		mu 0 4 235 236 247 246
		f 4 215 457 -6 -457
		mu 0 4 236 237 248 247
		f 4 216 458 -7 -458
		mu 0 4 237 238 249 248
		f 4 217 459 -8 -459
		mu 0 4 238 239 250 249
		f 4 218 460 -9 -460
		mu 0 4 239 240 251 250
		f 4 219 510 -10 -461
		mu 0 4 240 307 309 251
		f 4 -363 -352 -341 -463
		mu 0 4 254 253 263 264
		f 4 -374 462 -330 -464
		mu 0 4 255 254 264 265
		f 4 -385 463 -319 -465
		mu 0 4 256 255 265 266
		f 4 -396 464 -308 -466
		mu 0 4 257 256 266 267
		f 4 -407 465 -297 -467
		mu 0 4 258 257 267 268
		f 4 -418 466 -286 -468
		mu 0 4 259 258 268 269
		f 4 -429 467 -275 -469
		mu 0 4 260 259 269 270
		f 4 -440 468 -264 -470
		mu 0 4 261 260 270 271
		f 4 -451 469 -253 -471
		mu 0 4 262 261 271 272
		f 4 -462 470 -242 -231
		mu 0 4 10 262 272 21
		f 4 352 471 330 341
		mu 0 4 273 274 284 283
		f 4 363 472 319 -472
		mu 0 4 274 275 285 284
		f 4 374 473 308 -473
		mu 0 4 275 276 286 285
		f 4 385 474 297 -474
		mu 0 4 276 277 287 286
		f 4 396 475 286 -475
		mu 0 4 277 278 288 287
		f 4 407 476 275 -476
		mu 0 4 278 279 289 288
		f 4 418 477 264 -477
		mu 0 4 279 280 290 289
		f 4 429 478 253 -478
		mu 0 4 280 281 291 290
		f 4 440 479 242 -479
		mu 0 4 281 282 292 291
		f 4 451 220 231 -480
		mu 0 4 282 0 11 292
		f 4 480 307 -482 -483
		mu 0 4 293 87 98 294
		f 4 -485 481 318 -484
		mu 0 4 295 294 98 109
		f 4 -487 483 329 -486
		mu 0 4 296 295 109 120
		f 4 -489 485 340 -488
		mu 0 4 297 296 120 131
		f 4 -491 487 351 -490
		mu 0 4 298 297 131 142
		f 4 -493 489 362 -492
		mu 0 4 299 298 142 153
		f 4 -495 491 373 -494
		mu 0 4 300 299 153 164
		f 4 -497 493 384 -496
		mu 0 4 301 300 164 175
		f 4 -499 495 395 -498
		mu 0 4 302 301 175 186
		f 4 -501 497 406 -500
		mu 0 4 303 302 186 197
		f 4 -503 499 417 -502
		mu 0 4 304 303 197 208
		f 4 -505 501 428 -504
		mu 0 4 305 304 208 219
		f 4 -507 503 439 -506
		mu 0 4 306 305 219 230
		f 4 -509 505 450 -508
		mu 0 4 307 306 230 241
		f 4 -511 507 461 -510
		mu 0 4 309 307 241 252
		f 4 -513 509 230 -512
		mu 0 4 310 308 10 21
		f 4 -515 511 241 -514
		mu 0 4 311 310 21 32
		f 4 -517 513 252 -516
		mu 0 4 312 311 32 43
		f 4 -519 515 263 -518
		mu 0 4 313 312 43 54
		f 4 -521 517 274 -520
		mu 0 4 314 313 54 65
		f 4 -523 519 285 -522
		mu 0 4 315 314 65 76
		f 4 -524 521 296 -481
		mu 0 4 293 315 76 87
		f 4 524 298 -526 -527
		mu 0 4 316 78 89 317
		f 4 -529 525 309 -528
		mu 0 4 318 317 89 100
		f 4 -531 527 320 -530
		mu 0 4 319 318 100 111
		f 4 -533 529 331 -532
		mu 0 4 320 319 111 122
		f 4 -535 531 342 -534
		mu 0 4 321 320 122 133
		f 4 -537 533 353 -536
		mu 0 4 322 321 133 144
		f 4 -539 535 364 -538
		mu 0 4 323 322 144 155
		f 4 -541 537 375 -540
		mu 0 4 324 323 155 166
		f 4 -543 539 386 -542
		mu 0 4 325 324 166 177
		f 4 -545 541 397 -544
		mu 0 4 326 325 177 188
		f 4 -547 543 408 -546
		mu 0 4 327 326 188 199
		f 4 -549 545 419 -548
		mu 0 4 328 327 199 210
		f 4 -551 547 430 -550
		mu 0 4 329 328 210 221
		f 4 -553 549 441 -552
		mu 0 4 330 329 221 232
		f 4 -555 551 452 -554
		mu 0 4 332 330 232 243
		f 4 -557 553 221 -556
		mu 0 4 333 331 1 12
		f 4 -559 555 232 -558
		mu 0 4 334 333 12 23
		f 4 -561 557 243 -560
		mu 0 4 335 334 23 34
		f 4 -563 559 254 -562
		mu 0 4 336 335 34 45
		f 4 -565 561 265 -564
		mu 0 4 337 336 45 56
		f 4 -567 563 276 -566
		mu 0 4 338 337 56 67
		f 4 -568 565 287 -525
		mu 0 4 316 338 67 78;
	setAttr ".cd" -type "dataPolyComponent" Index_Data Edge 0 ;
	setAttr ".cvd" -type "dataPolyComponent" Index_Data Vertex 0 ;
	setAttr ".pd[0]" -type "dataPolyComponent" Index_Data UV 0 ;
	setAttr ".hfd" -type "dataPolyComponent" Index_Data Face 0 ;
	setAttr ".dr" 3;
	setAttr ".dsm" 2;
createNode lightLinker -s -n "lightLinker1";
	rename -uid "35E57B20-6844-9775-0298-2CA13CF2DA53";
	setAttr -s 2 ".lnk";
	setAttr -s 2 ".slnk";
createNode displayLayerManager -n "layerManager";
	rename -uid "63A4D613-7641-4127-CE39-BC9944D05738";
createNode displayLayer -n "defaultLayer";
	rename -uid "55D3F579-DC4C-383C-6E19-44A9CCC91296";
createNode renderLayerManager -n "renderLayerManager";
	rename -uid "1E1475E8-AF4E-E9B9-D102-FD9CA5ADAB4D";
createNode renderLayer -n "defaultRenderLayer";
	rename -uid "996134A0-5641-A562-7C07-0BA910660E01";
	setAttr ".g" yes;
createNode shapeEditorManager -n "shapeEditorManager";
	rename -uid "4F9F2053-A54C-CBB8-50CA-80BFDFDCE041";
createNode poseInterpolatorManager -n "poseInterpolatorManager";
	rename -uid "0C724E35-5849-BA67-5109-E8AA9BCB33FD";
createNode script -n "uiConfigurationScriptNode";
	rename -uid "5202336A-7D45-3DD2-A98F-DF83FE720651";
	setAttr ".b" -type "string" (
		"// Maya Mel UI Configuration File.\n//\n//  This script is machine generated.  Edit at your own risk.\n//\n//\n\nglobal string $gMainPane;\nif (`paneLayout -exists $gMainPane`) {\n\n\tglobal int $gUseScenePanelConfig;\n\tint    $useSceneConfig = $gUseScenePanelConfig;\n\tint    $menusOkayInPanels = `optionVar -q allowMenusInPanels`;\tint    $nVisPanes = `paneLayout -q -nvp $gMainPane`;\n\tint    $nPanes = 0;\n\tstring $editorName;\n\tstring $panelName;\n\tstring $itemFilterName;\n\tstring $panelConfig;\n\n\t//\n\t//  get current state of the UI\n\t//\n\tsceneUIReplacement -update $gMainPane;\n\n\t$panelName = `sceneUIReplacement -getNextPanel \"modelPanel\" (localizedPanelLabel(\"Top View\")) `;\n\tif (\"\" != $panelName) {\n\t\t$label = `panel -q -label $panelName`;\n\t\tmodelPanel -edit -l (localizedPanelLabel(\"Top View\")) -mbv $menusOkayInPanels  $panelName;\n\t\t$editorName = $panelName;\n        modelEditor -e \n            -camera \"top\" \n            -useInteractiveMode 0\n            -displayLights \"default\" \n            -displayAppearance \"smoothShaded\" \n            -activeOnly 0\n"
		+ "            -ignorePanZoom 0\n            -wireframeOnShaded 0\n            -headsUpDisplay 1\n            -holdOuts 1\n            -selectionHiliteDisplay 1\n            -useDefaultMaterial 0\n            -bufferMode \"double\" \n            -twoSidedLighting 0\n            -backfaceCulling 0\n            -xray 0\n            -jointXray 0\n            -activeComponentsXray 0\n            -displayTextures 0\n            -smoothWireframe 0\n            -lineWidth 1\n            -textureAnisotropic 0\n            -textureHilight 1\n            -textureSampling 2\n            -textureDisplay \"modulate\" \n            -textureMaxSize 16384\n            -fogging 0\n            -fogSource \"fragment\" \n            -fogMode \"linear\" \n            -fogStart 0\n            -fogEnd 100\n            -fogDensity 0.1\n            -fogColor 0.5 0.5 0.5 1 \n            -depthOfFieldPreview 1\n            -maxConstantTransparency 1\n            -rendererName \"vp2Renderer\" \n            -objectFilterShowInHUD 1\n            -isFiltered 0\n            -colorResolution 256 256 \n"
		+ "            -bumpResolution 512 512 \n            -textureCompression 0\n            -transparencyAlgorithm \"frontAndBackCull\" \n            -transpInShadows 0\n            -cullingOverride \"none\" \n            -lowQualityLighting 0\n            -maximumNumHardwareLights 1\n            -occlusionCulling 0\n            -shadingModel 0\n            -useBaseRenderer 0\n            -useReducedRenderer 0\n            -smallObjectCulling 0\n            -smallObjectThreshold -1 \n            -interactiveDisableShadows 0\n            -interactiveBackFaceCull 0\n            -sortTransparent 1\n            -controllers 1\n            -nurbsCurves 1\n            -nurbsSurfaces 1\n            -polymeshes 1\n            -subdivSurfaces 1\n            -planes 1\n            -lights 1\n            -cameras 1\n            -controlVertices 1\n            -hulls 1\n            -grid 1\n            -imagePlane 1\n            -joints 1\n            -ikHandles 1\n            -deformers 1\n            -dynamics 1\n            -particleInstancers 1\n            -fluids 1\n"
		+ "            -hairSystems 1\n            -follicles 1\n            -nCloths 1\n            -nParticles 1\n            -nRigids 1\n            -dynamicConstraints 1\n            -locators 1\n            -manipulators 1\n            -pluginShapes 1\n            -dimensions 1\n            -handles 1\n            -pivots 1\n            -textures 1\n            -strokes 1\n            -motionTrails 1\n            -clipGhosts 1\n            -greasePencils 1\n            -shadows 0\n            -captureSequenceNumber -1\n            -width 1\n            -height 1\n            -sceneRenderFilter 0\n            $editorName;\n        modelEditor -e -viewSelected 0 $editorName;\n\t\tif (!$useSceneConfig) {\n\t\t\tpanel -e -l $label $panelName;\n\t\t}\n\t}\n\n\n\t$panelName = `sceneUIReplacement -getNextPanel \"modelPanel\" (localizedPanelLabel(\"Side View\")) `;\n\tif (\"\" != $panelName) {\n\t\t$label = `panel -q -label $panelName`;\n\t\tmodelPanel -edit -l (localizedPanelLabel(\"Side View\")) -mbv $menusOkayInPanels  $panelName;\n\t\t$editorName = $panelName;\n        modelEditor -e \n"
		+ "            -camera \"side\" \n            -useInteractiveMode 0\n            -displayLights \"default\" \n            -displayAppearance \"smoothShaded\" \n            -activeOnly 0\n            -ignorePanZoom 0\n            -wireframeOnShaded 0\n            -headsUpDisplay 1\n            -holdOuts 1\n            -selectionHiliteDisplay 1\n            -useDefaultMaterial 0\n            -bufferMode \"double\" \n            -twoSidedLighting 0\n            -backfaceCulling 0\n            -xray 0\n            -jointXray 0\n            -activeComponentsXray 0\n            -displayTextures 0\n            -smoothWireframe 0\n            -lineWidth 1\n            -textureAnisotropic 0\n            -textureHilight 1\n            -textureSampling 2\n            -textureDisplay \"modulate\" \n            -textureMaxSize 16384\n            -fogging 0\n            -fogSource \"fragment\" \n            -fogMode \"linear\" \n            -fogStart 0\n            -fogEnd 100\n            -fogDensity 0.1\n            -fogColor 0.5 0.5 0.5 1 \n            -depthOfFieldPreview 1\n"
		+ "            -maxConstantTransparency 1\n            -rendererName \"vp2Renderer\" \n            -objectFilterShowInHUD 1\n            -isFiltered 0\n            -colorResolution 256 256 \n            -bumpResolution 512 512 \n            -textureCompression 0\n            -transparencyAlgorithm \"frontAndBackCull\" \n            -transpInShadows 0\n            -cullingOverride \"none\" \n            -lowQualityLighting 0\n            -maximumNumHardwareLights 1\n            -occlusionCulling 0\n            -shadingModel 0\n            -useBaseRenderer 0\n            -useReducedRenderer 0\n            -smallObjectCulling 0\n            -smallObjectThreshold -1 \n            -interactiveDisableShadows 0\n            -interactiveBackFaceCull 0\n            -sortTransparent 1\n            -controllers 1\n            -nurbsCurves 1\n            -nurbsSurfaces 1\n            -polymeshes 1\n            -subdivSurfaces 1\n            -planes 1\n            -lights 1\n            -cameras 1\n            -controlVertices 1\n            -hulls 1\n            -grid 1\n"
		+ "            -imagePlane 1\n            -joints 1\n            -ikHandles 1\n            -deformers 1\n            -dynamics 1\n            -particleInstancers 1\n            -fluids 1\n            -hairSystems 1\n            -follicles 1\n            -nCloths 1\n            -nParticles 1\n            -nRigids 1\n            -dynamicConstraints 1\n            -locators 1\n            -manipulators 1\n            -pluginShapes 1\n            -dimensions 1\n            -handles 1\n            -pivots 1\n            -textures 1\n            -strokes 1\n            -motionTrails 1\n            -clipGhosts 1\n            -greasePencils 1\n            -shadows 0\n            -captureSequenceNumber -1\n            -width 1\n            -height 1\n            -sceneRenderFilter 0\n            $editorName;\n        modelEditor -e -viewSelected 0 $editorName;\n\t\tif (!$useSceneConfig) {\n\t\t\tpanel -e -l $label $panelName;\n\t\t}\n\t}\n\n\n\t$panelName = `sceneUIReplacement -getNextPanel \"modelPanel\" (localizedPanelLabel(\"Front View\")) `;\n\tif (\"\" != $panelName) {\n"
		+ "\t\t$label = `panel -q -label $panelName`;\n\t\tmodelPanel -edit -l (localizedPanelLabel(\"Front View\")) -mbv $menusOkayInPanels  $panelName;\n\t\t$editorName = $panelName;\n        modelEditor -e \n            -camera \"front\" \n            -useInteractiveMode 0\n            -displayLights \"default\" \n            -displayAppearance \"smoothShaded\" \n            -activeOnly 0\n            -ignorePanZoom 0\n            -wireframeOnShaded 0\n            -headsUpDisplay 1\n            -holdOuts 1\n            -selectionHiliteDisplay 1\n            -useDefaultMaterial 0\n            -bufferMode \"double\" \n            -twoSidedLighting 0\n            -backfaceCulling 0\n            -xray 0\n            -jointXray 0\n            -activeComponentsXray 0\n            -displayTextures 0\n            -smoothWireframe 0\n            -lineWidth 1\n            -textureAnisotropic 0\n            -textureHilight 1\n            -textureSampling 2\n            -textureDisplay \"modulate\" \n            -textureMaxSize 16384\n            -fogging 0\n            -fogSource \"fragment\" \n"
		+ "            -fogMode \"linear\" \n            -fogStart 0\n            -fogEnd 100\n            -fogDensity 0.1\n            -fogColor 0.5 0.5 0.5 1 \n            -depthOfFieldPreview 1\n            -maxConstantTransparency 1\n            -rendererName \"vp2Renderer\" \n            -objectFilterShowInHUD 1\n            -isFiltered 0\n            -colorResolution 256 256 \n            -bumpResolution 512 512 \n            -textureCompression 0\n            -transparencyAlgorithm \"frontAndBackCull\" \n            -transpInShadows 0\n            -cullingOverride \"none\" \n            -lowQualityLighting 0\n            -maximumNumHardwareLights 1\n            -occlusionCulling 0\n            -shadingModel 0\n            -useBaseRenderer 0\n            -useReducedRenderer 0\n            -smallObjectCulling 0\n            -smallObjectThreshold -1 \n            -interactiveDisableShadows 0\n            -interactiveBackFaceCull 0\n            -sortTransparent 1\n            -controllers 1\n            -nurbsCurves 1\n            -nurbsSurfaces 1\n            -polymeshes 1\n"
		+ "            -subdivSurfaces 1\n            -planes 1\n            -lights 1\n            -cameras 1\n            -controlVertices 1\n            -hulls 1\n            -grid 1\n            -imagePlane 1\n            -joints 1\n            -ikHandles 1\n            -deformers 1\n            -dynamics 1\n            -particleInstancers 1\n            -fluids 1\n            -hairSystems 1\n            -follicles 1\n            -nCloths 1\n            -nParticles 1\n            -nRigids 1\n            -dynamicConstraints 1\n            -locators 1\n            -manipulators 1\n            -pluginShapes 1\n            -dimensions 1\n            -handles 1\n            -pivots 1\n            -textures 1\n            -strokes 1\n            -motionTrails 1\n            -clipGhosts 1\n            -greasePencils 1\n            -shadows 0\n            -captureSequenceNumber -1\n            -width 1\n            -height 1\n            -sceneRenderFilter 0\n            $editorName;\n        modelEditor -e -viewSelected 0 $editorName;\n\t\tif (!$useSceneConfig) {\n"
		+ "\t\t\tpanel -e -l $label $panelName;\n\t\t}\n\t}\n\n\n\t$panelName = `sceneUIReplacement -getNextPanel \"modelPanel\" (localizedPanelLabel(\"Persp View\")) `;\n\tif (\"\" != $panelName) {\n\t\t$label = `panel -q -label $panelName`;\n\t\tmodelPanel -edit -l (localizedPanelLabel(\"Persp View\")) -mbv $menusOkayInPanels  $panelName;\n\t\t$editorName = $panelName;\n        modelEditor -e \n            -camera \"persp\" \n            -useInteractiveMode 0\n            -displayLights \"default\" \n            -displayAppearance \"smoothShaded\" \n            -activeOnly 0\n            -ignorePanZoom 0\n            -wireframeOnShaded 0\n            -headsUpDisplay 1\n            -holdOuts 1\n            -selectionHiliteDisplay 1\n            -useDefaultMaterial 0\n            -bufferMode \"double\" \n            -twoSidedLighting 0\n            -backfaceCulling 0\n            -xray 0\n            -jointXray 0\n            -activeComponentsXray 0\n            -displayTextures 0\n            -smoothWireframe 0\n            -lineWidth 1\n            -textureAnisotropic 0\n            -textureHilight 1\n"
		+ "            -textureSampling 2\n            -textureDisplay \"modulate\" \n            -textureMaxSize 16384\n            -fogging 0\n            -fogSource \"fragment\" \n            -fogMode \"linear\" \n            -fogStart 0\n            -fogEnd 100\n            -fogDensity 0.1\n            -fogColor 0.5 0.5 0.5 1 \n            -depthOfFieldPreview 1\n            -maxConstantTransparency 1\n            -rendererName \"vp2Renderer\" \n            -objectFilterShowInHUD 1\n            -isFiltered 0\n            -colorResolution 256 256 \n            -bumpResolution 512 512 \n            -textureCompression 0\n            -transparencyAlgorithm \"frontAndBackCull\" \n            -transpInShadows 0\n            -cullingOverride \"none\" \n            -lowQualityLighting 0\n            -maximumNumHardwareLights 1\n            -occlusionCulling 0\n            -shadingModel 0\n            -useBaseRenderer 0\n            -useReducedRenderer 0\n            -smallObjectCulling 0\n            -smallObjectThreshold -1 \n            -interactiveDisableShadows 0\n"
		+ "            -interactiveBackFaceCull 0\n            -sortTransparent 1\n            -controllers 1\n            -nurbsCurves 1\n            -nurbsSurfaces 1\n            -polymeshes 1\n            -subdivSurfaces 1\n            -planes 1\n            -lights 1\n            -cameras 1\n            -controlVertices 1\n            -hulls 1\n            -grid 1\n            -imagePlane 1\n            -joints 1\n            -ikHandles 1\n            -deformers 1\n            -dynamics 1\n            -particleInstancers 1\n            -fluids 1\n            -hairSystems 1\n            -follicles 1\n            -nCloths 1\n            -nParticles 1\n            -nRigids 1\n            -dynamicConstraints 1\n            -locators 1\n            -manipulators 1\n            -pluginShapes 1\n            -dimensions 1\n            -handles 1\n            -pivots 1\n            -textures 1\n            -strokes 1\n            -motionTrails 1\n            -clipGhosts 1\n            -greasePencils 1\n            -shadows 0\n            -captureSequenceNumber -1\n"
		+ "            -width 319\n            -height 652\n            -sceneRenderFilter 0\n            $editorName;\n        modelEditor -e -viewSelected 0 $editorName;\n\t\tif (!$useSceneConfig) {\n\t\t\tpanel -e -l $label $panelName;\n\t\t}\n\t}\n\n\n\t$panelName = `sceneUIReplacement -getNextPanel \"outlinerPanel\" (localizedPanelLabel(\"ToggledOutliner\")) `;\n\tif (\"\" != $panelName) {\n\t\t$label = `panel -q -label $panelName`;\n\t\toutlinerPanel -edit -l (localizedPanelLabel(\"ToggledOutliner\")) -mbv $menusOkayInPanels  $panelName;\n\t\t$editorName = $panelName;\n        outlinerEditor -e \n            -showShapes 0\n            -showAssignedMaterials 0\n            -showTimeEditor 1\n            -showReferenceNodes 1\n            -showReferenceMembers 1\n            -showAttributes 0\n            -showConnected 0\n            -showAnimCurvesOnly 0\n            -showMuteInfo 0\n            -organizeByLayer 1\n            -organizeByClip 1\n            -showAnimLayerWeight 1\n            -autoExpandLayers 1\n            -autoExpand 0\n            -showDagOnly 1\n            -showAssets 1\n"
		+ "            -showContainedOnly 1\n            -showPublishedAsConnected 0\n            -showParentContainers 0\n            -showContainerContents 1\n            -ignoreDagHierarchy 0\n            -expandConnections 0\n            -showUpstreamCurves 1\n            -showUnitlessCurves 1\n            -showCompounds 1\n            -showLeafs 1\n            -showNumericAttrsOnly 0\n            -highlightActive 1\n            -autoSelectNewObjects 0\n            -doNotSelectNewObjects 0\n            -dropIsParent 1\n            -transmitFilters 0\n            -setFilter \"defaultSetFilter\" \n            -showSetMembers 1\n            -allowMultiSelection 1\n            -alwaysToggleSelect 0\n            -directSelect 0\n            -isSet 0\n            -isSetMember 0\n            -displayMode \"DAG\" \n            -expandObjects 0\n            -setsIgnoreFilters 1\n            -containersIgnoreFilters 0\n            -editAttrName 0\n            -showAttrValues 0\n            -highlightSecondary 0\n            -showUVAttrsOnly 0\n            -showTextureNodesOnly 0\n"
		+ "            -attrAlphaOrder \"default\" \n            -animLayerFilterOptions \"allAffecting\" \n            -sortOrder \"none\" \n            -longNames 0\n            -niceNames 1\n            -showNamespace 1\n            -showPinIcons 0\n            -mapMotionTrails 0\n            -ignoreHiddenAttribute 0\n            -ignoreOutlinerColor 0\n            -renderFilterVisible 0\n            -renderFilterIndex 0\n            -selectionOrder \"chronological\" \n            -expandAttribute 0\n            $editorName;\n\t\tif (!$useSceneConfig) {\n\t\t\tpanel -e -l $label $panelName;\n\t\t}\n\t}\n\n\n\t$panelName = `sceneUIReplacement -getNextPanel \"outlinerPanel\" (localizedPanelLabel(\"Outliner\")) `;\n\tif (\"\" != $panelName) {\n\t\t$label = `panel -q -label $panelName`;\n\t\toutlinerPanel -edit -l (localizedPanelLabel(\"Outliner\")) -mbv $menusOkayInPanels  $panelName;\n\t\t$editorName = $panelName;\n        outlinerEditor -e \n            -showShapes 0\n            -showAssignedMaterials 0\n            -showTimeEditor 1\n            -showReferenceNodes 0\n            -showReferenceMembers 0\n"
		+ "            -showAttributes 0\n            -showConnected 0\n            -showAnimCurvesOnly 0\n            -showMuteInfo 0\n            -organizeByLayer 1\n            -organizeByClip 1\n            -showAnimLayerWeight 1\n            -autoExpandLayers 1\n            -autoExpand 0\n            -showDagOnly 1\n            -showAssets 1\n            -showContainedOnly 1\n            -showPublishedAsConnected 0\n            -showParentContainers 0\n            -showContainerContents 1\n            -ignoreDagHierarchy 0\n            -expandConnections 0\n            -showUpstreamCurves 1\n            -showUnitlessCurves 1\n            -showCompounds 1\n            -showLeafs 1\n            -showNumericAttrsOnly 0\n            -highlightActive 1\n            -autoSelectNewObjects 0\n            -doNotSelectNewObjects 0\n            -dropIsParent 1\n            -transmitFilters 0\n            -setFilter \"defaultSetFilter\" \n            -showSetMembers 1\n            -allowMultiSelection 1\n            -alwaysToggleSelect 0\n            -directSelect 0\n"
		+ "            -displayMode \"DAG\" \n            -expandObjects 0\n            -setsIgnoreFilters 1\n            -containersIgnoreFilters 0\n            -editAttrName 0\n            -showAttrValues 0\n            -highlightSecondary 0\n            -showUVAttrsOnly 0\n            -showTextureNodesOnly 0\n            -attrAlphaOrder \"default\" \n            -animLayerFilterOptions \"allAffecting\" \n            -sortOrder \"none\" \n            -longNames 0\n            -niceNames 1\n            -showNamespace 1\n            -showPinIcons 0\n            -mapMotionTrails 0\n            -ignoreHiddenAttribute 0\n            -ignoreOutlinerColor 0\n            -renderFilterVisible 0\n            $editorName;\n\t\tif (!$useSceneConfig) {\n\t\t\tpanel -e -l $label $panelName;\n\t\t}\n\t}\n\n\n\t$panelName = `sceneUIReplacement -getNextScriptedPanel \"graphEditor\" (localizedPanelLabel(\"Graph Editor\")) `;\n\tif (\"\" != $panelName) {\n\t\t$label = `panel -q -label $panelName`;\n\t\tscriptedPanel -edit -l (localizedPanelLabel(\"Graph Editor\")) -mbv $menusOkayInPanels  $panelName;\n"
		+ "\n\t\t\t$editorName = ($panelName+\"OutlineEd\");\n            outlinerEditor -e \n                -showShapes 1\n                -showAssignedMaterials 0\n                -showTimeEditor 1\n                -showReferenceNodes 0\n                -showReferenceMembers 0\n                -showAttributes 1\n                -showConnected 1\n                -showAnimCurvesOnly 1\n                -showMuteInfo 0\n                -organizeByLayer 1\n                -organizeByClip 1\n                -showAnimLayerWeight 1\n                -autoExpandLayers 1\n                -autoExpand 1\n                -showDagOnly 0\n                -showAssets 1\n                -showContainedOnly 0\n                -showPublishedAsConnected 0\n                -showParentContainers 1\n                -showContainerContents 0\n                -ignoreDagHierarchy 0\n                -expandConnections 1\n                -showUpstreamCurves 1\n                -showUnitlessCurves 1\n                -showCompounds 0\n                -showLeafs 1\n                -showNumericAttrsOnly 1\n"
		+ "                -highlightActive 0\n                -autoSelectNewObjects 1\n                -doNotSelectNewObjects 0\n                -dropIsParent 1\n                -transmitFilters 1\n                -setFilter \"0\" \n                -showSetMembers 0\n                -allowMultiSelection 1\n                -alwaysToggleSelect 0\n                -directSelect 0\n                -displayMode \"DAG\" \n                -expandObjects 0\n                -setsIgnoreFilters 1\n                -containersIgnoreFilters 0\n                -editAttrName 0\n                -showAttrValues 0\n                -highlightSecondary 0\n                -showUVAttrsOnly 0\n                -showTextureNodesOnly 0\n                -attrAlphaOrder \"default\" \n                -animLayerFilterOptions \"allAffecting\" \n                -sortOrder \"none\" \n                -longNames 0\n                -niceNames 1\n                -showNamespace 1\n                -showPinIcons 1\n                -mapMotionTrails 1\n                -ignoreHiddenAttribute 0\n                -ignoreOutlinerColor 0\n"
		+ "                -renderFilterVisible 0\n                $editorName;\n\n\t\t\t$editorName = ($panelName+\"GraphEd\");\n            animCurveEditor -e \n                -displayKeys 1\n                -displayTangents 0\n                -displayActiveKeys 0\n                -displayActiveKeyTangents 1\n                -displayInfinities 0\n                -displayValues 0\n                -autoFit 1\n                -snapTime \"integer\" \n                -snapValue \"none\" \n                -showResults \"off\" \n                -showBufferCurves \"off\" \n                -smoothness \"fine\" \n                -resultSamples 1\n                -resultScreenSamples 0\n                -resultUpdate \"delayed\" \n                -showUpstreamCurves 1\n                -showCurveNames 0\n                -showActiveCurveNames 0\n                -stackedCurves 0\n                -stackedCurvesMin -1\n                -stackedCurvesMax 1\n                -stackedCurvesSpace 0.2\n                -displayNormalized 0\n                -preSelectionHighlight 0\n                -constrainDrag 0\n"
		+ "                -classicMode 1\n                -valueLinesToggle 1\n                $editorName;\n\t\tif (!$useSceneConfig) {\n\t\t\tpanel -e -l $label $panelName;\n\t\t}\n\t}\n\n\n\t$panelName = `sceneUIReplacement -getNextScriptedPanel \"dopeSheetPanel\" (localizedPanelLabel(\"Dope Sheet\")) `;\n\tif (\"\" != $panelName) {\n\t\t$label = `panel -q -label $panelName`;\n\t\tscriptedPanel -edit -l (localizedPanelLabel(\"Dope Sheet\")) -mbv $menusOkayInPanels  $panelName;\n\n\t\t\t$editorName = ($panelName+\"OutlineEd\");\n            outlinerEditor -e \n                -showShapes 1\n                -showAssignedMaterials 0\n                -showTimeEditor 1\n                -showReferenceNodes 0\n                -showReferenceMembers 0\n                -showAttributes 1\n                -showConnected 1\n                -showAnimCurvesOnly 1\n                -showMuteInfo 0\n                -organizeByLayer 1\n                -organizeByClip 1\n                -showAnimLayerWeight 1\n                -autoExpandLayers 1\n                -autoExpand 0\n                -showDagOnly 0\n"
		+ "                -showAssets 1\n                -showContainedOnly 0\n                -showPublishedAsConnected 0\n                -showParentContainers 1\n                -showContainerContents 0\n                -ignoreDagHierarchy 0\n                -expandConnections 1\n                -showUpstreamCurves 1\n                -showUnitlessCurves 0\n                -showCompounds 1\n                -showLeafs 1\n                -showNumericAttrsOnly 1\n                -highlightActive 0\n                -autoSelectNewObjects 0\n                -doNotSelectNewObjects 1\n                -dropIsParent 1\n                -transmitFilters 0\n                -setFilter \"0\" \n                -showSetMembers 0\n                -allowMultiSelection 1\n                -alwaysToggleSelect 0\n                -directSelect 0\n                -displayMode \"DAG\" \n                -expandObjects 0\n                -setsIgnoreFilters 1\n                -containersIgnoreFilters 0\n                -editAttrName 0\n                -showAttrValues 0\n                -highlightSecondary 0\n"
		+ "                -showUVAttrsOnly 0\n                -showTextureNodesOnly 0\n                -attrAlphaOrder \"default\" \n                -animLayerFilterOptions \"allAffecting\" \n                -sortOrder \"none\" \n                -longNames 0\n                -niceNames 1\n                -showNamespace 1\n                -showPinIcons 0\n                -mapMotionTrails 1\n                -ignoreHiddenAttribute 0\n                -ignoreOutlinerColor 0\n                -renderFilterVisible 0\n                $editorName;\n\n\t\t\t$editorName = ($panelName+\"DopeSheetEd\");\n            dopeSheetEditor -e \n                -displayKeys 1\n                -displayTangents 0\n                -displayActiveKeys 0\n                -displayActiveKeyTangents 0\n                -displayInfinities 0\n                -displayValues 0\n                -autoFit 0\n                -snapTime \"integer\" \n                -snapValue \"none\" \n                -outliner \"dopeSheetPanel1OutlineEd\" \n                -showSummary 1\n                -showScene 0\n                -hierarchyBelow 0\n"
		+ "                -showTicks 1\n                -selectionWindow 0 0 0 0 \n                $editorName;\n\t\tif (!$useSceneConfig) {\n\t\t\tpanel -e -l $label $panelName;\n\t\t}\n\t}\n\n\n\t$panelName = `sceneUIReplacement -getNextScriptedPanel \"timeEditorPanel\" (localizedPanelLabel(\"Time Editor\")) `;\n\tif (\"\" != $panelName) {\n\t\t$label = `panel -q -label $panelName`;\n\t\tscriptedPanel -edit -l (localizedPanelLabel(\"Time Editor\")) -mbv $menusOkayInPanels  $panelName;\n\t\tif (!$useSceneConfig) {\n\t\t\tpanel -e -l $label $panelName;\n\t\t}\n\t}\n\n\n\t$panelName = `sceneUIReplacement -getNextScriptedPanel \"clipEditorPanel\" (localizedPanelLabel(\"Trax Editor\")) `;\n\tif (\"\" != $panelName) {\n\t\t$label = `panel -q -label $panelName`;\n\t\tscriptedPanel -edit -l (localizedPanelLabel(\"Trax Editor\")) -mbv $menusOkayInPanels  $panelName;\n\n\t\t\t$editorName = clipEditorNameFromPanel($panelName);\n            clipEditor -e \n                -displayKeys 0\n                -displayTangents 0\n                -displayActiveKeys 0\n                -displayActiveKeyTangents 0\n"
		+ "                -displayInfinities 0\n                -displayValues 0\n                -autoFit 0\n                -snapTime \"none\" \n                -snapValue \"none\" \n                -initialized 0\n                -manageSequencer 0 \n                $editorName;\n\t\tif (!$useSceneConfig) {\n\t\t\tpanel -e -l $label $panelName;\n\t\t}\n\t}\n\n\n\t$panelName = `sceneUIReplacement -getNextScriptedPanel \"sequenceEditorPanel\" (localizedPanelLabel(\"Camera Sequencer\")) `;\n\tif (\"\" != $panelName) {\n\t\t$label = `panel -q -label $panelName`;\n\t\tscriptedPanel -edit -l (localizedPanelLabel(\"Camera Sequencer\")) -mbv $menusOkayInPanels  $panelName;\n\n\t\t\t$editorName = sequenceEditorNameFromPanel($panelName);\n            clipEditor -e \n                -displayKeys 0\n                -displayTangents 0\n                -displayActiveKeys 0\n                -displayActiveKeyTangents 0\n                -displayInfinities 0\n                -displayValues 0\n                -autoFit 0\n                -snapTime \"none\" \n                -snapValue \"none\" \n                -initialized 0\n"
		+ "                -manageSequencer 1 \n                $editorName;\n\t\tif (!$useSceneConfig) {\n\t\t\tpanel -e -l $label $panelName;\n\t\t}\n\t}\n\n\n\t$panelName = `sceneUIReplacement -getNextScriptedPanel \"hyperGraphPanel\" (localizedPanelLabel(\"Hypergraph Hierarchy\")) `;\n\tif (\"\" != $panelName) {\n\t\t$label = `panel -q -label $panelName`;\n\t\tscriptedPanel -edit -l (localizedPanelLabel(\"Hypergraph Hierarchy\")) -mbv $menusOkayInPanels  $panelName;\n\n\t\t\t$editorName = ($panelName+\"HyperGraphEd\");\n            hyperGraph -e \n                -graphLayoutStyle \"hierarchicalLayout\" \n                -orientation \"horiz\" \n                -mergeConnections 0\n                -zoom 1\n                -animateTransition 0\n                -showRelationships 1\n                -showShapes 0\n                -showDeformers 0\n                -showExpressions 0\n                -showConstraints 0\n                -showConnectionFromSelected 0\n                -showConnectionToSelected 0\n                -showConstraintLabels 0\n                -showUnderworld 0\n"
		+ "                -showInvisible 0\n                -transitionFrames 1\n                -opaqueContainers 0\n                -freeform 0\n                -imagePosition 0 0 \n                -imageScale 1\n                -imageEnabled 0\n                -graphType \"DAG\" \n                -heatMapDisplay 0\n                -updateSelection 1\n                -updateNodeAdded 1\n                -useDrawOverrideColor 0\n                -limitGraphTraversal -1\n                -range 0 0 \n                -iconSize \"smallIcons\" \n                -showCachedConnections 0\n                $editorName;\n\t\tif (!$useSceneConfig) {\n\t\t\tpanel -e -l $label $panelName;\n\t\t}\n\t}\n\n\n\t$panelName = `sceneUIReplacement -getNextScriptedPanel \"hyperShadePanel\" (localizedPanelLabel(\"Hypershade\")) `;\n\tif (\"\" != $panelName) {\n\t\t$label = `panel -q -label $panelName`;\n\t\tscriptedPanel -edit -l (localizedPanelLabel(\"Hypershade\")) -mbv $menusOkayInPanels  $panelName;\n\t\tif (!$useSceneConfig) {\n\t\t\tpanel -e -l $label $panelName;\n\t\t}\n\t}\n\n\n\t$panelName = `sceneUIReplacement -getNextScriptedPanel \"visorPanel\" (localizedPanelLabel(\"Visor\")) `;\n"
		+ "\tif (\"\" != $panelName) {\n\t\t$label = `panel -q -label $panelName`;\n\t\tscriptedPanel -edit -l (localizedPanelLabel(\"Visor\")) -mbv $menusOkayInPanels  $panelName;\n\t\tif (!$useSceneConfig) {\n\t\t\tpanel -e -l $label $panelName;\n\t\t}\n\t}\n\n\n\t$panelName = `sceneUIReplacement -getNextScriptedPanel \"createNodePanel\" (localizedPanelLabel(\"Create Node\")) `;\n\tif (\"\" != $panelName) {\n\t\t$label = `panel -q -label $panelName`;\n\t\tscriptedPanel -edit -l (localizedPanelLabel(\"Create Node\")) -mbv $menusOkayInPanels  $panelName;\n\t\tif (!$useSceneConfig) {\n\t\t\tpanel -e -l $label $panelName;\n\t\t}\n\t}\n\n\n\t$panelName = `sceneUIReplacement -getNextScriptedPanel \"polyTexturePlacementPanel\" (localizedPanelLabel(\"UV Editor\")) `;\n\tif (\"\" != $panelName) {\n\t\t$label = `panel -q -label $panelName`;\n\t\tscriptedPanel -edit -l (localizedPanelLabel(\"UV Editor\")) -mbv $menusOkayInPanels  $panelName;\n\t\tif (!$useSceneConfig) {\n\t\t\tpanel -e -l $label $panelName;\n\t\t}\n\t}\n\n\n\t$panelName = `sceneUIReplacement -getNextScriptedPanel \"renderWindowPanel\" (localizedPanelLabel(\"Render View\")) `;\n"
		+ "\tif (\"\" != $panelName) {\n\t\t$label = `panel -q -label $panelName`;\n\t\tscriptedPanel -edit -l (localizedPanelLabel(\"Render View\")) -mbv $menusOkayInPanels  $panelName;\n\t\tif (!$useSceneConfig) {\n\t\t\tpanel -e -l $label $panelName;\n\t\t}\n\t}\n\n\n\t$panelName = `sceneUIReplacement -getNextPanel \"shapePanel\" (localizedPanelLabel(\"Shape Editor\")) `;\n\tif (\"\" != $panelName) {\n\t\t$label = `panel -q -label $panelName`;\n\t\tshapePanel -edit -l (localizedPanelLabel(\"Shape Editor\")) -mbv $menusOkayInPanels  $panelName;\n\t\tif (!$useSceneConfig) {\n\t\t\tpanel -e -l $label $panelName;\n\t\t}\n\t}\n\n\n\t$panelName = `sceneUIReplacement -getNextPanel \"posePanel\" (localizedPanelLabel(\"Pose Editor\")) `;\n\tif (\"\" != $panelName) {\n\t\t$label = `panel -q -label $panelName`;\n\t\tposePanel -edit -l (localizedPanelLabel(\"Pose Editor\")) -mbv $menusOkayInPanels  $panelName;\n\t\tif (!$useSceneConfig) {\n\t\t\tpanel -e -l $label $panelName;\n\t\t}\n\t}\n\n\n\t$panelName = `sceneUIReplacement -getNextScriptedPanel \"dynRelEdPanel\" (localizedPanelLabel(\"Dynamic Relationships\")) `;\n\tif (\"\" != $panelName) {\n"
		+ "\t\t$label = `panel -q -label $panelName`;\n\t\tscriptedPanel -edit -l (localizedPanelLabel(\"Dynamic Relationships\")) -mbv $menusOkayInPanels  $panelName;\n\t\tif (!$useSceneConfig) {\n\t\t\tpanel -e -l $label $panelName;\n\t\t}\n\t}\n\n\n\t$panelName = `sceneUIReplacement -getNextScriptedPanel \"relationshipPanel\" (localizedPanelLabel(\"Relationship Editor\")) `;\n\tif (\"\" != $panelName) {\n\t\t$label = `panel -q -label $panelName`;\n\t\tscriptedPanel -edit -l (localizedPanelLabel(\"Relationship Editor\")) -mbv $menusOkayInPanels  $panelName;\n\t\tif (!$useSceneConfig) {\n\t\t\tpanel -e -l $label $panelName;\n\t\t}\n\t}\n\n\n\t$panelName = `sceneUIReplacement -getNextScriptedPanel \"referenceEditorPanel\" (localizedPanelLabel(\"Reference Editor\")) `;\n\tif (\"\" != $panelName) {\n\t\t$label = `panel -q -label $panelName`;\n\t\tscriptedPanel -edit -l (localizedPanelLabel(\"Reference Editor\")) -mbv $menusOkayInPanels  $panelName;\n\t\tif (!$useSceneConfig) {\n\t\t\tpanel -e -l $label $panelName;\n\t\t}\n\t}\n\n\n\t$panelName = `sceneUIReplacement -getNextScriptedPanel \"componentEditorPanel\" (localizedPanelLabel(\"Component Editor\")) `;\n"
		+ "\tif (\"\" != $panelName) {\n\t\t$label = `panel -q -label $panelName`;\n\t\tscriptedPanel -edit -l (localizedPanelLabel(\"Component Editor\")) -mbv $menusOkayInPanels  $panelName;\n\t\tif (!$useSceneConfig) {\n\t\t\tpanel -e -l $label $panelName;\n\t\t}\n\t}\n\n\n\t$panelName = `sceneUIReplacement -getNextScriptedPanel \"dynPaintScriptedPanelType\" (localizedPanelLabel(\"Paint Effects\")) `;\n\tif (\"\" != $panelName) {\n\t\t$label = `panel -q -label $panelName`;\n\t\tscriptedPanel -edit -l (localizedPanelLabel(\"Paint Effects\")) -mbv $menusOkayInPanels  $panelName;\n\t\tif (!$useSceneConfig) {\n\t\t\tpanel -e -l $label $panelName;\n\t\t}\n\t}\n\n\n\t$panelName = `sceneUIReplacement -getNextScriptedPanel \"scriptEditorPanel\" (localizedPanelLabel(\"Script Editor\")) `;\n\tif (\"\" != $panelName) {\n\t\t$label = `panel -q -label $panelName`;\n\t\tscriptedPanel -edit -l (localizedPanelLabel(\"Script Editor\")) -mbv $menusOkayInPanels  $panelName;\n\t\tif (!$useSceneConfig) {\n\t\t\tpanel -e -l $label $panelName;\n\t\t}\n\t}\n\n\n\t$panelName = `sceneUIReplacement -getNextScriptedPanel \"profilerPanel\" (localizedPanelLabel(\"Profiler Tool\")) `;\n"
		+ "\tif (\"\" != $panelName) {\n\t\t$label = `panel -q -label $panelName`;\n\t\tscriptedPanel -edit -l (localizedPanelLabel(\"Profiler Tool\")) -mbv $menusOkayInPanels  $panelName;\n\t\tif (!$useSceneConfig) {\n\t\t\tpanel -e -l $label $panelName;\n\t\t}\n\t}\n\n\n\t$panelName = `sceneUIReplacement -getNextScriptedPanel \"contentBrowserPanel\" (localizedPanelLabel(\"Content Browser\")) `;\n\tif (\"\" != $panelName) {\n\t\t$label = `panel -q -label $panelName`;\n\t\tscriptedPanel -edit -l (localizedPanelLabel(\"Content Browser\")) -mbv $menusOkayInPanels  $panelName;\n\t\tif (!$useSceneConfig) {\n\t\t\tpanel -e -l $label $panelName;\n\t\t}\n\t}\n\n\n\t$panelName = `sceneUIReplacement -getNextScriptedPanel \"Stereo\" (localizedPanelLabel(\"Stereo\")) `;\n\tif (\"\" != $panelName) {\n\t\t$label = `panel -q -label $panelName`;\n\t\tscriptedPanel -edit -l (localizedPanelLabel(\"Stereo\")) -mbv $menusOkayInPanels  $panelName;\nstring $editorName = ($panelName+\"Editor\");\n            stereoCameraView -e \n                -camera \"persp\" \n                -useInteractiveMode 0\n                -displayLights \"default\" \n"
		+ "                -displayAppearance \"smoothShaded\" \n                -activeOnly 0\n                -ignorePanZoom 0\n                -wireframeOnShaded 0\n                -headsUpDisplay 1\n                -holdOuts 1\n                -selectionHiliteDisplay 1\n                -useDefaultMaterial 0\n                -bufferMode \"double\" \n                -twoSidedLighting 0\n                -backfaceCulling 0\n                -xray 0\n                -jointXray 0\n                -activeComponentsXray 0\n                -displayTextures 0\n                -smoothWireframe 0\n                -lineWidth 1\n                -textureAnisotropic 0\n                -textureHilight 1\n                -textureSampling 2\n                -textureDisplay \"modulate\" \n                -textureMaxSize 16384\n                -fogging 0\n                -fogSource \"fragment\" \n                -fogMode \"linear\" \n                -fogStart 0\n                -fogEnd 100\n                -fogDensity 0.1\n                -fogColor 0.5 0.5 0.5 1 \n                -depthOfFieldPreview 1\n"
		+ "                -maxConstantTransparency 1\n                -objectFilterShowInHUD 1\n                -isFiltered 0\n                -colorResolution 4 4 \n                -bumpResolution 4 4 \n                -textureCompression 0\n                -transparencyAlgorithm \"frontAndBackCull\" \n                -transpInShadows 0\n                -cullingOverride \"none\" \n                -lowQualityLighting 0\n                -maximumNumHardwareLights 0\n                -occlusionCulling 0\n                -shadingModel 0\n                -useBaseRenderer 0\n                -useReducedRenderer 0\n                -smallObjectCulling 0\n                -smallObjectThreshold -1 \n                -interactiveDisableShadows 0\n                -interactiveBackFaceCull 0\n                -sortTransparent 1\n                -controllers 1\n                -nurbsCurves 1\n                -nurbsSurfaces 1\n                -polymeshes 1\n                -subdivSurfaces 1\n                -planes 1\n                -lights 1\n                -cameras 1\n"
		+ "                -controlVertices 1\n                -hulls 1\n                -grid 1\n                -imagePlane 1\n                -joints 1\n                -ikHandles 1\n                -deformers 1\n                -dynamics 1\n                -particleInstancers 1\n                -fluids 1\n                -hairSystems 1\n                -follicles 1\n                -nCloths 1\n                -nParticles 1\n                -nRigids 1\n                -dynamicConstraints 1\n                -locators 1\n                -manipulators 1\n                -pluginShapes 1\n                -dimensions 1\n                -handles 1\n                -pivots 1\n                -textures 1\n                -strokes 1\n                -motionTrails 1\n                -clipGhosts 1\n                -greasePencils 1\n                -shadows 0\n                -captureSequenceNumber -1\n                -width 0\n                -height 0\n                -sceneRenderFilter 0\n                -displayMode \"centerEye\" \n                -viewColor 0 0 0 1 \n"
		+ "                -useCustomBackground 1\n                $editorName;\n            stereoCameraView -e -viewSelected 0 $editorName;\n\t\tif (!$useSceneConfig) {\n\t\t\tpanel -e -l $label $panelName;\n\t\t}\n\t}\n\n\n\t$panelName = `sceneUIReplacement -getNextScriptedPanel \"nodeEditorPanel\" (localizedPanelLabel(\"Node Editor\")) `;\n\tif (\"\" != $panelName) {\n\t\t$label = `panel -q -label $panelName`;\n\t\tscriptedPanel -edit -l (localizedPanelLabel(\"Node Editor\")) -mbv $menusOkayInPanels  $panelName;\n\n\t\t\t$editorName = ($panelName+\"NodeEditorEd\");\n            nodeEditor -e \n                -allAttributes 0\n                -allNodes 0\n                -autoSizeNodes 1\n                -consistentNameSize 1\n                -createNodeCommand \"nodeEdCreateNodeCommand\" \n                -connectNodeOnCreation 0\n                -connectOnDrop 0\n                -highlightConnections 0\n                -copyConnectionsOnPaste 0\n                -connectionStyle \"bezier\" \n                -defaultPinnedState 0\n                -additiveGraphingMode 0\n                -settingsChangedCallback \"nodeEdSyncControls\" \n"
		+ "                -traversalDepthLimit -1\n                -keyPressCommand \"nodeEdKeyPressCommand\" \n                -nodeTitleMode \"name\" \n                -gridSnap 0\n                -gridVisibility 1\n                -crosshairOnEdgeDragging 0\n                -popupMenuScript \"nodeEdBuildPanelMenus\" \n                -showNamespace 1\n                -showShapes 1\n                -showSGShapes 0\n                -showTransforms 1\n                -useAssets 1\n                -syncedSelection 1\n                -extendToShapes 1\n                -activeTab -1\n                -editorMode \"default\" \n                $editorName;\n\t\tif (!$useSceneConfig) {\n\t\t\tpanel -e -l $label $panelName;\n\t\t}\n\t}\n\n\n\tif ($useSceneConfig) {\n        string $configName = `getPanel -cwl (localizedPanelLabel(\"Current Layout\"))`;\n        if (\"\" != $configName) {\n\t\t\tpanelConfiguration -edit -label (localizedPanelLabel(\"Current Layout\")) \n\t\t\t\t-userCreated false\n\t\t\t\t-defaultImage \"vacantCell.xP:/\"\n\t\t\t\t-image \"\"\n\t\t\t\t-sc false\n\t\t\t\t-configString \"global string $gMainPane; paneLayout -e -cn \\\"single\\\" -ps 1 100 100 $gMainPane;\"\n"
		+ "\t\t\t\t-removeAllPanels\n\t\t\t\t-ap false\n\t\t\t\t\t(localizedPanelLabel(\"Persp View\")) \n\t\t\t\t\t\"modelPanel\"\n"
		+ "\t\t\t\t\t\"$panelName = `modelPanel -unParent -l (localizedPanelLabel(\\\"Persp View\\\")) -mbv $menusOkayInPanels `;\\n$editorName = $panelName;\\nmodelEditor -e \\n    -cam `findStartUpCamera persp` \\n    -useInteractiveMode 0\\n    -displayLights \\\"default\\\" \\n    -displayAppearance \\\"smoothShaded\\\" \\n    -activeOnly 0\\n    -ignorePanZoom 0\\n    -wireframeOnShaded 0\\n    -headsUpDisplay 1\\n    -holdOuts 1\\n    -selectionHiliteDisplay 1\\n    -useDefaultMaterial 0\\n    -bufferMode \\\"double\\\" \\n    -twoSidedLighting 0\\n    -backfaceCulling 0\\n    -xray 0\\n    -jointXray 0\\n    -activeComponentsXray 0\\n    -displayTextures 0\\n    -smoothWireframe 0\\n    -lineWidth 1\\n    -textureAnisotropic 0\\n    -textureHilight 1\\n    -textureSampling 2\\n    -textureDisplay \\\"modulate\\\" \\n    -textureMaxSize 16384\\n    -fogging 0\\n    -fogSource \\\"fragment\\\" \\n    -fogMode \\\"linear\\\" \\n    -fogStart 0\\n    -fogEnd 100\\n    -fogDensity 0.1\\n    -fogColor 0.5 0.5 0.5 1 \\n    -depthOfFieldPreview 1\\n    -maxConstantTransparency 1\\n    -rendererName \\\"vp2Renderer\\\" \\n    -objectFilterShowInHUD 1\\n    -isFiltered 0\\n    -colorResolution 256 256 \\n    -bumpResolution 512 512 \\n    -textureCompression 0\\n    -transparencyAlgorithm \\\"frontAndBackCull\\\" \\n    -transpInShadows 0\\n    -cullingOverride \\\"none\\\" \\n    -lowQualityLighting 0\\n    -maximumNumHardwareLights 1\\n    -occlusionCulling 0\\n    -shadingModel 0\\n    -useBaseRenderer 0\\n    -useReducedRenderer 0\\n    -smallObjectCulling 0\\n    -smallObjectThreshold -1 \\n    -interactiveDisableShadows 0\\n    -interactiveBackFaceCull 0\\n    -sortTransparent 1\\n    -controllers 1\\n    -nurbsCurves 1\\n    -nurbsSurfaces 1\\n    -polymeshes 1\\n    -subdivSurfaces 1\\n    -planes 1\\n    -lights 1\\n    -cameras 1\\n    -controlVertices 1\\n    -hulls 1\\n    -grid 1\\n    -imagePlane 1\\n    -joints 1\\n    -ikHandles 1\\n    -deformers 1\\n    -dynamics 1\\n    -particleInstancers 1\\n    -fluids 1\\n    -hairSystems 1\\n    -follicles 1\\n    -nCloths 1\\n    -nParticles 1\\n    -nRigids 1\\n    -dynamicConstraints 1\\n    -locators 1\\n    -manipulators 1\\n    -pluginShapes 1\\n    -dimensions 1\\n    -handles 1\\n    -pivots 1\\n    -textures 1\\n    -strokes 1\\n    -motionTrails 1\\n    -clipGhosts 1\\n    -greasePencils 1\\n    -shadows 0\\n    -captureSequenceNumber -1\\n    -width 319\\n    -height 652\\n    -sceneRenderFilter 0\\n    $editorName;\\nmodelEditor -e -viewSelected 0 $editorName\"\n"
		+ "\t\t\t\t\t\"modelPanel -edit -l (localizedPanelLabel(\\\"Persp View\\\")) -mbv $menusOkayInPanels  $panelName;\\n$editorName = $panelName;\\nmodelEditor -e \\n    -cam `findStartUpCamera persp` \\n    -useInteractiveMode 0\\n    -displayLights \\\"default\\\" \\n    -displayAppearance \\\"smoothShaded\\\" \\n    -activeOnly 0\\n    -ignorePanZoom 0\\n    -wireframeOnShaded 0\\n    -headsUpDisplay 1\\n    -holdOuts 1\\n    -selectionHiliteDisplay 1\\n    -useDefaultMaterial 0\\n    -bufferMode \\\"double\\\" \\n    -twoSidedLighting 0\\n    -backfaceCulling 0\\n    -xray 0\\n    -jointXray 0\\n    -activeComponentsXray 0\\n    -displayTextures 0\\n    -smoothWireframe 0\\n    -lineWidth 1\\n    -textureAnisotropic 0\\n    -textureHilight 1\\n    -textureSampling 2\\n    -textureDisplay \\\"modulate\\\" \\n    -textureMaxSize 16384\\n    -fogging 0\\n    -fogSource \\\"fragment\\\" \\n    -fogMode \\\"linear\\\" \\n    -fogStart 0\\n    -fogEnd 100\\n    -fogDensity 0.1\\n    -fogColor 0.5 0.5 0.5 1 \\n    -depthOfFieldPreview 1\\n    -maxConstantTransparency 1\\n    -rendererName \\\"vp2Renderer\\\" \\n    -objectFilterShowInHUD 1\\n    -isFiltered 0\\n    -colorResolution 256 256 \\n    -bumpResolution 512 512 \\n    -textureCompression 0\\n    -transparencyAlgorithm \\\"frontAndBackCull\\\" \\n    -transpInShadows 0\\n    -cullingOverride \\\"none\\\" \\n    -lowQualityLighting 0\\n    -maximumNumHardwareLights 1\\n    -occlusionCulling 0\\n    -shadingModel 0\\n    -useBaseRenderer 0\\n    -useReducedRenderer 0\\n    -smallObjectCulling 0\\n    -smallObjectThreshold -1 \\n    -interactiveDisableShadows 0\\n    -interactiveBackFaceCull 0\\n    -sortTransparent 1\\n    -controllers 1\\n    -nurbsCurves 1\\n    -nurbsSurfaces 1\\n    -polymeshes 1\\n    -subdivSurfaces 1\\n    -planes 1\\n    -lights 1\\n    -cameras 1\\n    -controlVertices 1\\n    -hulls 1\\n    -grid 1\\n    -imagePlane 1\\n    -joints 1\\n    -ikHandles 1\\n    -deformers 1\\n    -dynamics 1\\n    -particleInstancers 1\\n    -fluids 1\\n    -hairSystems 1\\n    -follicles 1\\n    -nCloths 1\\n    -nParticles 1\\n    -nRigids 1\\n    -dynamicConstraints 1\\n    -locators 1\\n    -manipulators 1\\n    -pluginShapes 1\\n    -dimensions 1\\n    -handles 1\\n    -pivots 1\\n    -textures 1\\n    -strokes 1\\n    -motionTrails 1\\n    -clipGhosts 1\\n    -greasePencils 1\\n    -shadows 0\\n    -captureSequenceNumber -1\\n    -width 319\\n    -height 652\\n    -sceneRenderFilter 0\\n    $editorName;\\nmodelEditor -e -viewSelected 0 $editorName\"\n"
		+ "\t\t\t\t$configName;\n\n            setNamedPanelLayout (localizedPanelLabel(\"Current Layout\"));\n        }\n\n        panelHistory -e -clear mainPanelHistory;\n        sceneUIReplacement -clear;\n\t}\n\n\ngrid -spacing 5 -size 12 -divisions 5 -displayAxes yes -displayGridLines yes -displayDivisionLines yes -displayPerspectiveLabels no -displayOrthographicLabels no -displayAxesBold yes -perspectiveLabelPosition axis -orthographicLabelPosition edge;\nviewManip -drawCompass 0 -compassAngle 0 -frontParameters \"\" -homeParameters \"\" -selectionLockParameters \"\";\n}\n");
	setAttr ".st" 3;
createNode script -n "sceneConfigurationScriptNode";
	rename -uid "C40EBEAD-564B-44CD-BE5C-379543B065A6";
	setAttr ".b" -type "string" "playbackOptions -min 1 -max 120 -ast 1 -aet 200 ";
	setAttr ".st" 6;
select -ne :time1;
	setAttr ".o" 1;
	setAttr ".unw" 1;
select -ne :hardwareRenderingGlobals;
	setAttr ".otfna" -type "stringArray" 22 "NURBS Curves" "NURBS Surfaces" "Polygons" "Subdiv Surface" "Particles" "Particle Instance" "Fluids" "Strokes" "Image Planes" "UI" "Lights" "Cameras" "Locators" "Joints" "IK Handles" "Deformers" "Motion Trails" "Components" "Hair Systems" "Follicles" "Misc. UI" "Ornaments"  ;
	setAttr ".otfva" -type "Int32Array" 22 0 1 1 1 1 1
		 1 1 1 0 0 0 0 0 0 0 0 0
		 0 0 0 0 ;
	setAttr ".fprt" yes;
select -ne :renderPartition;
	setAttr -s 2 ".st";
select -ne :renderGlobalsList1;
select -ne :defaultShaderList1;
	setAttr -s 4 ".s";
select -ne :postProcessList1;
	setAttr -s 2 ".p";
select -ne :defaultRenderingList1;
select -ne :initialShadingGroup;
	setAttr ".ro" yes;
select -ne :initialParticleSE;
	setAttr ".ro" yes;
select -ne :defaultResolution;
	setAttr ".pa" 1;
select -ne :hardwareRenderGlobals;
	setAttr ".ctrs" 256;
	setAttr ".btrs" 512;
relationship "link" ":lightLinker1" ":initialShadingGroup.message" ":defaultLightSet.message";
relationship "link" ":lightLinker1" ":initialParticleSE.message" ":defaultLightSet.message";
relationship "shadowLink" ":lightLinker1" ":initialShadingGroup.message" ":defaultLightSet.message";
relationship "shadowLink" ":lightLinker1" ":initialParticleSE.message" ":defaultLightSet.message";
connectAttr "layerManager.dli[0]" "defaultLayer.id";
connectAttr "renderLayerManager.rlmi[0]" "defaultRenderLayer.rlid";
connectAttr "defaultRenderLayer.msg" ":defaultRenderingList1.r" -na;
connectAttr "paperShape.iog" ":initialShadingGroup.dsm" -na;
// End of paper.ma
